{
    "label": "族裔傳承 Heritages",
    "entries": {
        "Aasimar": {
            "name": "神裔 Aasimar",
            "description": "<p>你是天界生物的後裔，或被某個天界位面所浸染，因此渾身散發著威嚴與優雅，身上也有些彰顯你天界血脈的特性。除了你族裔的特徵外，你還額外獲得神裔特徵。你獲得 @UUID[Compendium.pf2e.ancestryfeatures.DRtaqOHXTRtGRIUT]{昏暗視覺 Low-Light Vision} ，若你的族裔已有昏暗視覺，則改為獲得 @UUID[Compendium.pf2e.ancestryfeatures.HHVQDp61ehcpdiU8]{黑暗視覺 Darkvision} 。你在選取族裔專長時，能選取神裔專長或原族裔的專長。</p>"
        },
        "Adaptive Anadi": {
            "name": "融合半蛛人 Adaptive Anadi",
            "description": "<p>你的血脈來自一支古老的半蛛人，他們努力鑽研他們的變形魔法，這讓他們更廣泛地融入了不同文化之中。選一個常見的、中型類人生物族裔。你的人類形態被所選的族裔取代。你同樣會獲得和你選擇的種族相匹配的 @UUID[Compendium.pf2e.feats-srd.ihN8gkHSdPG9Trte]{異族情誼 Adopted Ancestry} 專長。</p>"
        },
        "Ancient Elf": {
            "name": "古代精靈 Ancient Elf",
            "description": "<p>在你年輕的時候，你曾涉獵過許多道途和風格。一個典型的古代精靈至少有100歲，儘管你的GM可以酌情讓你更年輕。選擇你職業以外的另一個職業。你獲得這一職業的兼職入門專長，即使你不滿足它的等級先決條件。你仍需滿足其他的先決條件以獲取此專長。</p>"
        },
        "Ancient Scale Azarketi": {
            "name": "古鱗阿扎克緹人 Ancient Scale Azarketi",
            "description": "<p>你的血統源自忠於深海的阿扎克緹人。與陸地社會分離後，任何高於千米深度的世界對你而言都是陌生的。你獲得 @UUID[Compendium.pf2e.ancestryfeatures.HHVQDp61ehcpdiU8]{黑暗視覺 Darkvision}.</p>\n<p>磷光斑分佈於你的身上，通過發出引導性的光幫助你交流。這些斑點主要分佈在你的面部、手臂和手部，以昏暗的光線照亮你周圍10尺的範圍。你可以通過一個動作來啟用、停用或改變燈光的排列，這動作具有專注（concentration）特性。</p>"
        },
        "Ancient-Blooded Dwarf": {
            "name": "先祖血脈矮人 Ancient-Blooded Dwarf",
            "description": "<p>古老的矮人英雄可以輕易擺脫敵人的魔法，這種抗力在你的身上有所顯現。你獲得 @UUID[Compendium.pf2e.actionspf2e.8w6esW689NNbbq3i]{血脈覺醒 Call on Ancient Blood} 反應動作。</p>"
        },
        "Ant Gnoll": {
            "name": "微蟻豺狼人 Ant Gnoll",
            "description": "<p>你是個約三尺高，面部輪廓分明的大耳朵豺狼人。許多人懷疑你實際上並非豺狼人。你的體型是小型而非中型。你在欺騙上的熟練度達到受訓（或其他一項技能，若你已在欺騙上受訓)。你通過說謊以裝無辜進行的欺騙檢定，或在對抗試圖發現你謊言的察言觀色（Sense Motive）檢定的欺騙DC，或使用欺騙技能進行的先攻檢定中獲得+1環境加值。</p>\n<hr />\n<p><em>備註:如果你在此專長獲得的技能已受訓，你可以選擇自己選擇一個其它技能來替代。</em></p>"
        },
        "Anvil Dwarf": {
            "name": "鐵砧矮人 Anvil Dwarf",
            "description": "<p>你是著名匠人的後代，並且自己也擁有驚人的才華。取決於你成長的地方，其他矮人可能會認為這是你祖先或鍛造之父的祝福。你受訓於手藝（如果你已經受訓於手藝，則選擇另一項技能），並獲得 @UUID[Compendium.pf2e.feats-srd.QLeMH5mQgh28sa5o]{專門製作 Specialty Crafting} 技能專長，並且你可以選擇兩個不同的專攻方向，而非一個。</p>"
        },
        "Aphorite": {
            "name": "公理裔 Aphorite",
            "description": "<p>你生來就與秩序位面——軸心樞紐有著聯絡。你不僅獲得你族裔的特徵，還獲得公理裔特徵。你獲得 @UUID[Compendium.pf2e.ancestryfeatures.DRtaqOHXTRtGRIUT]{昏暗視覺 Low-Light Vision} ，或者當你的族裔已經給予了你昏暗視覺，則獲得 @UUID[Compendium.pf2e.ancestryfeatures.HHVQDp61ehcpdiU8]{黑暗視覺 Darkvision} 。每當你獲得族裔專長，你可以在公理裔專長和你的族裔的專長中選取。</p>"
        },
        "Arctic Elf": {
            "name": "極地精靈 Arctic Elf",
            "description": "<p>你常年居住在寒冷的北方並且獲得了對於寒冷環境不可思議的抵抗力，這使得你獲得1/2角色等級（最小為1）的寒冷抗力。你視環境的寒冷效果減緩1級（超寒變為極寒 極寒變為嚴寒等等）。</p>"
        },
        "Artisan Android": {
            "name": "創造型仿生人 Artisan Android",
            "description": "<p>你的身體最初被設計來創造藝術作品，複雜的工具，或維護先進的機械。你在手藝技能上受訓(或者其他技能，如果你已經在手藝技能上受訓)，同時你獲得所選專攻的 @UUID[Compendium.pf2e.feats-srd.QLeMH5mQgh28sa5o]{專門製作 Specialty Crafting} 技能專長。</p>"
        },
        "Badlands Orc": {
            "name": "荒地獸人 Badlands Orc",
            "description": "<p>來自被陽光炙烤的不毛之地，強健的雙腿以及更強的耐受力讓你在這樣的土地上生存下來。在探索模式中，你可以在不得不停下來之前 @UUID[Compendium.pf2e.actionspf2e.JuqmIAnkL9hVGai8]{強行軍 Hustle} 兩倍的時間，並且你可以將環境的炎熱效果視為低一級別（酷熱變為熾熱，熾熱變為炎熱，以此類推）。</p>"
        },
        "Battle-Ready Orc": {
            "name": "戰備獸人 Battle-Ready Orc",
            "description": "<p>你是一群令人聞風喪膽的戰場指揮官的後裔。你在威嚇技能上獲得受訓熟練度，你獲得 @UUID[Compendium.pf2e.feats-srd.xQMz6eDgX75WX2ce]{金剛怒目 Intimidating Glare} 技能專長。</p>"
        },
        "Beastkin": {
            "name": "獸化裔 Beastkin",
            "description": "<p>你的血管裡流淌著野獸血液，賦予你野獸般凶猛和力量。只有具有類人生物（humanoid）特徵的生物才能繼承獸化裔的多種傳承。選擇例如蝙蝠、鷹、鯊魚、蜘蛛、暴龍、黃蜂或狼等某種特定的動物。這是一種與你傳承相關的動物，被稱為本源動物（inherent animal）。除了原本的族裔特徵外，你還獲得魔獸（beast）和獸化裔（beastkin）特徵。</p>\n<p>你獲得 @UUID[Compendium.pf2e.actionspf2e.0b3TTeQGFOiy6ykz]{變形（獸化裔） Change Shape (Beastkin)} 能力。當你獲得族裔專長提升時，你可以從獸化裔專長和族裔專長中選擇。</p>"
        },
        "Benthic Azarketi": {
            "name": "底棲阿扎克緹人 Benthic Azarketi",
            "description": "<p>你的祖先曾經居住於深海，你比大多數人更能適應寒冷的深海。你的寒冷抗力是你等級的一半，而且當你受潮時，你不會把寒冷環境（environmental cold）視為更嚴重的程度。你能自動適應水下深處的水壓變化而不受影響。</p>"
        },
        "Bloodhound Shoony": {
            "name": "獵犬舒尼 Bloodhound Shoony",
            "description": "<p>你的祖先是著名的追蹤者，而你的血液中也帶有同樣的狩獵天賦。</p>\n<p>你獲得一種特殊感官：嗅覺（模糊imprecise，30尺）。這意味著你可以用你的嗅覺來確定一個生物的位置，但該生物仍處於 @UUID[Compendium.pf2e.conditionitems.iU0fEDdBp3rXpTMC]{藏匿 Hidden} 狀態。</p>\n<p>此外，在 @UUID[Compendium.pf2e.actionspf2e.EA5vuSgJfiHH7plD]{追蹤 Track} 你之前用嗅覺發現的獵物時，你的生存檢定獲得+2的環境加值。</p>"
        },
        "Bright Fetchling": {
            "name": "光明竊影鬼 Bright Fetchling",
            "description": "<p>你的身體證明了光與影相伴相生。也許你眼睛更加明亮，或者你的血管裡偶爾會有光芒跳動。你可以在周身5尺範圍內發出微光（dim light）。你可以以一個動作啟動或關閉該能力，此動作具有專注特徵。此外，你可以讓你的部分影子發光，並且可以將 <em>@UUID[Compendium.pf2e.spells-srd.kl2q6JvBZwed4B6v]{舞光術 Dancing Lights}</em> 和 <em>@UUID[Compendium.pf2e.spells-srd.WBmvzNDfpwka3qT4]{光亮術 Light}</em> 作為異能內在戲法施放。戲法的環級等於你等級的一半，向上取整。</p>"
        },
        "Cactus Leshy": {
            "name": "仙人掌萊西 Cactus Leshy",
            "description": "<p>尖刺將你的身體包裹。你獲得可以造成 [[/r 1d6[piercing]]]傷害的尖刺 (spine) 無武裝攻擊。你的尖刺屬於搏擊 (brawling) 武器組並且具有嫻熟(finesse)和無武裝(unarmed)特徵。</p>"
        },
        "Caveclimber Kobold": {
            "name": "攀穴狗頭人 Caveclimber Kobold",
            "description": "<p>你住在一個垂直方向的巢穴裡，因而成為了一名技藝非凡的攀登者。你獲得 @UUID[Compendium.pf2e.feats-srd.09PurtIanNUPfNRq]{戰鬥攀爬 Combat Climber} 技能專長，哪怕你沒有滿足先決條件。你可以利用你爪子一樣的雙腳和尾巴來進行攀爬，這讓你的雙手得以在攀爬過程中自由活動。此外，如果你在一次攀爬 (Climb) 的運動檢定中獲得成功，你以大成功的結果作為代替。</p>"
        },
        "Cavern Elf": {
            "name": "洞穴精靈 Cavern Elf",
            "description": "<p>你出生在地下隧道或是光線稀缺的洞穴中，亦或者是在那兒度過了許多年。你獲得了 @UUID[Compendium.pf2e.ancestryfeatures.HHVQDp61ehcpdiU8]{黑暗視覺}。</p>"
        },
        "Cavern Kobold": {
            "name": "洞穴狗頭人 Cavern Kobold",
            "description": "<p>將你孵化的巢穴是居住著無數族人的狹窄隧道群。你的身體異常靈活。</p>\n<p>當你 @UUID[Compendium.pf2e.actionspf2e.pprgrYQ1QnIDGZiy]{攀爬 Climbing} 巖壁、鐘乳石以及其他天然石質地貌（natural stone features）時，成功的檢定讓你能半速移動，大成功則可以全速移動；如果你具有 @UUID[Compendium.pf2e.feats-srd.P04Hw8E6WAWARKHP]{迅速攀爬 Quick Climb} 專長則可以在成功檢定時以全速移動。若你使用攀爬速度，則該效果無法影響你。</p>\n<p>如果你在用於 @UUID[Compendium.pf2e.actionspf2e.kMcV8e5EZUxa6evt]{擠入空間 Squeeze} 的特技檢定中擲出成功，則使用大成功作為替代。</p>"
        },
        "Celestial Envoy Kitsune": {
            "name": "天狐 Celestial Envoy Kitsune",
            "description": "<p>不知是因為大狐女的恩澤還是祖先的虔誠，使得你和神靈關係匪淺，得到祂們庇佑。你獲得反射動作 @UUID[Compendium.pf2e.actionspf2e.Aq2mXT2hLlstFL5C]{天官賜福 Invoke Celestial Privilege} 。你的變化型態是成長背景中常見的中型類人生物族裔（通常是人類），稱作無尾型態。</p>"
        },
        "Chameleon Gnome": {
            "name": "幻身侏儒 Chameleon Gnome",
            "description": "<p>也許是因為潛藏的魔法，你的膚色和髮色可以變幻自如。你可以緩慢地改變自己身體的光澤和顏色，不僅可以變得渾身上下五顏六色，還可以顯現出花紋和七彩圖案。</p>\n<p>需要一個單動作就能做到微小的區域性變換，而最多一小時就能讓你全身煥然一新。睡著時，你的體色會隨夢變幻，每天都帶給你一個異彩紛呈的清晨。</p>\n<p>睡著時，你的體色會隨夢變幻，每天都帶給你一個異彩紛呈的清晨。當你身處的環境顏色與你的體色相似時（例如森林中的葉綠色），你可以用一個動作來進行微小的區域性調整，讓你融入周圍環境當中。這會給你的隱祕檢定帶來+2環境加值，直到你周圍的顏色或紋理髮生變化。</p>"
        },
        "Changeling": {
            "name": "替換兒 Changeling",
            "description": "<p>你的母親是隻鬼婆。異色瞳是你身上能彰顯這份血脈的最顯眼的特徵，此外你還可能還擁有比起族裔中的普通人來說更苗條的身材，更白皙的面板，更深濃的髮色等外觀特徵。你獲得替換兒特徵。你獲得 @UUID[Compendium.pf2e.ancestryfeatures.DRtaqOHXTRtGRIUT]{昏暗視覺 Low-Light Vision} ，若你的族裔已有昏暗視覺，則改為獲得 @UUID[Compendium.pf2e.ancestryfeatures.HHVQDp61ehcpdiU8]{黑暗視覺 Darkvision} 。你在選取族裔專長時，能選取替換兒專長或來自另一血親的族裔的族裔專長。</p>"
        },
        "Charhide Goblin": {
            "name": "焦皮地精 Charhide Goblin",
            "description": "<p>你的祖先總是與火關係密切，還長著能抵抗灼燒的厚厚面板。你獲得等於你等級一半的火焰抗性（最低1點）。你還更容易撲滅身上的火焰。你用於移除持續火焰傷害的純檢定（flat check）DC為@Check[type:flat|dc:10]而非15，如果有其他生物用特別合適的動作幫助你，則該DC降低到@Check[type:flat|dc:5]。</p>"
        },
        "Clawed Catfolk": {
            "name": "長爪貓族 Clawed Catfolk",
            "description": "<p>你家系中遺傳的特別長又利的爪子，輕輕一抓便能搞得皮開肉綻血流不止。你獲得造成 [[/r 1d6[slashing]]]傷害的爪抓非武裝攻擊。這個爪抓屬於搏擊武器組，並持有靈巧、嫻熟、非武裝特性。</p>"
        },
        "Cliffscale Lizardfolk": {
            "name": "崖鱗蜥蜴人 Cliffscale Lizardfolk",
            "description": "<p>你的腳趾進化得更適合抓握和攀爬。</p>\n<p>你獲得 @UUID[Compendium.pf2e.feats-srd.09PurtIanNUPfNRq]{戰鬥攀爬 Combat Climber}專長作為獎勵專長，並且只要你沒有穿鞋，你就可以用腳上的吸盤進行攀爬,讓你能夠自由使用你的雙手。</p>\n<p>除此之外，如果你在一次進行攀爬的運動檢定上獲得成功時，你將結果改為大成功。</p>"
        },
        "Cloudleaper Lizardfolk": {
            "name": "縱雲蜥蜴人 Cloudleaper Lizardfolk",
            "description": "<p>你的身體輕盈而且你的肢體長出的皮瓣能捕捉從你身下經過的空氣。只要你能行動而且有足夠空間，你能長開皮瓣緩衝任何墜落至足以避免受到傷害（你有沒有足夠空間取決於GM的判斷）。</p>"
        },
        "Created Fleshwarp": {
            "name": "創生塑肉體 Created Fleshwarp",
            "description": "<p>你是通過神祕儀式或鍊金術被製造出來的，例如養在培養缸裡，或者由一位烏斯塔拉夫（Ustalav）科學家用其他生物的屍體縫合而成。你的人造之軀堅韌耐用；你不需要進食，也不會捱餓。你對疾病的豁免檢定獲得+2環境加值。</p>"
        },
        "Dark Fields Kitsune": {
            "name": "地狐 Dark Fields Kitsune",
            "description": "<p>你的外表令人發毛，巧妙運用就能挫敗他人士氣。當你這麼做的時候，挫敗士氣失去聽覺特徵，並獲得視覺特徵；如果你嘗試挫敗士氣的生物不理解你的語言，你不會遭受減值。你還會得到反射動作 @UUID[Compendium.pf2e.actionspf2e.Ul4I0ER6pj3U5eAk]{幸驚樂懼 Invigorating Fear} 。你的變化型態是狐狸，使用1環 <em>@UUID[Compendium.pf2e.spells-srd.gfPjmG6Fe6D3MFjl]{害獸型態 Pest Form}</em>的數值。</p>"
        },
        "Death Warden Dwarf": {
            "name": "亡靈護衛矮人 Death Warden Dwarf",
            "description": "<p>你的祖先幾代人都是墳墓守護者，他們為抵禦死靈所鍛鍊的力量已經傳給了你。如果你在對抗死靈效果的豁免骰中取得成功，那麼作為代替你將獲得大成功。</p>"
        },
        "Deep Fetchling (Cold)": {
            "name": "深暗竊影鬼（寒冷） Deep Fetchling (Cold)",
            "description": "<p>你的祖先居住在陰影位面最深、最危險的區域。你的陰影更為濃重、心跳更為緩慢，並能在黑暗的擁抱中找到慰藉。你獲得寒冷抗力，其數值等於你等級的一半（最少為1）。</p>"
        },
        "Deep Fetchling (Negative)": {
            "name": "深暗竊影鬼（負能量）Deep Fetchling (Negative)",
            "description": "<p>你的祖先居住在陰影位面最深、最危險的區域。你的陰影更為濃重、心跳更為緩慢，並能在黑暗的擁抱中找到慰藉。你獲得負能量抗力，其數值等於你等級的一半（最少為1）。</p>"
        },
        "Deep Orc": {
            "name": "深土獸人 Deep Orc",
            "description": "<p>你那雙長滿老繭的手以及紅色的眼睛訴說著幽深黑暗的山洞生活，你在那裡學會了如何在巖壁上戰鬥以及如何使用最少的資源生存下去。你獲得 @UUID[Compendium.pf2e.feats-srd.4tTkRyOQ0VuRBac3]{地形專家（地下） Terrain Expertise (Underground)} 技能專長和 @UUID[Compendium.pf2e.feats-srd.09PurtIanNUPfNRq]{戰鬥攀爬 Combat Climber} 技能專長。</p>"
        },
        "Deep Rat": {
            "name": "深穴鼠族 Deep Rat",
            "description": "<p>你的祖先發源於比其他鼠族更加深邃的地底，使你能在黑暗中視物。你獲得 @UUID[Compendium.pf2e.ancestryfeatures.HHVQDp61ehcpdiU8]{黑暗視覺 Darkvision} 。</p>"
        },
        "Desert Elf": {
            "name": "沙漠精靈 Desert Elf",
            "description": "<p>你生活在沙漠滾燙的核心地帶，並且獲得了對於高溫環境不可思議的抵抗力。你獲得等同於你等級一半（至少為1）的火焰抗性，並且你受環境的高溫效果影響減弱一級（酷熱變為熾熱，熾熱變為炎熱，依此類推）。</p>"
        },
        "Desert Rat": {
            "name": "熱沙鼠族 Desert Rat",
            "description": "<p>你的族人適應了乾旱平原，且你多半在成長期間旅途不斷。你的身型比其他鼠族苗條，四肢修長毛髮褪短。若你的雙手未持握物品，你可四肢著地奔跑來使你的陸地速度提升至30尺。此外，高溫環境對你的效果比實際上降低1階段，且你在受飢餓與口渴影響前可支援比常人長10倍的時間。但除非你穿著防寒衣物或身處遮蔽處，否則低溫環境對你的效果比實際上嚴重1階段。</p>"
        },
        "Dhampir": {
            "name": "吸血裔 Dhampir",
            "description": "<p>你是吸血鬼的後裔，既是生靈也是死靈，天生帶有不可思議的人格魅力與優雅舉止，一身屍骸般的死白皮肉，嘴裡長著細長的尖利犬齒。除了你族裔的特徵外，你還額外獲得吸血裔特徵。你獲得負能量治療能力，因此你如同不死生物一般被正能量傷害、被負能量治療。你獲得 @UUID[Compendium.pf2e.ancestryfeatures.DRtaqOHXTRtGRIUT]{昏暗視覺 Low-Light Vision} ，若你的族裔已有昏暗視覺，則改為 @UUID[Compendium.pf2e.ancestryfeatures.HHVQDp61ehcpdiU8]{黑暗視覺 Darkvision} 。你在選取族裔專長時，能選取吸血裔專長或原族裔的專長。</p>"
        },
        "Dogtooth Tengu": {
            "name": "犬牙天狗 Dogtooth Tengu",
            "description": "<p>除了你的鳥喙之外，你的嘴裡還有很多尖銳的利齒。有些傳說甚至聲稱你強大的下顎能夠咬穿鋼鐵。雖然你可能還沒那麼強大，你的尖牙仍然能夠給人留下可怕的傷口。你的鳥喙徒手攻擊獲得致命特性並且傷害骰提升到d8。</p>"
        },
        "Dragonscaled Kobold (Black)": {
            "name": "龍鱗狗頭人（黑） Dragonscaled Kobold (Black)",
            "description": "<p>你的鱗片特別鮮豔，它與真龍的鱗片一樣具有抗性。你獲得強酸抗力，數值為你等級的一半（最低1點）。在對抗龍類的噴吐武器時，該抗力翻倍。</p>"
        },
        "Dragonscaled Kobold (Blue)": {
            "name": "龍鱗狗頭人（藍） Dragonscaled Kobold (Blue)",
            "description": "<p>你的鱗片特別鮮豔，它與真龍的鱗片一樣具有抗性。你獲得電擊抗力，數值為你等級的一半（最低1點），在對抗龍類的噴吐武器時，該抗力翻倍。</p>"
        },
        "Dragonscaled Kobold (Brass)": {
            "name": "龍鱗狗頭人（黃銅） Dragonscaled Kobold (Brass)",
            "description": "<p>你的鱗片特別鮮豔，它與真龍的鱗片一樣具有抗性。你獲得火焰抗力，數值為你等級的一半（最低1點），在對抗龍類的噴吐武器時，該抗力翻倍。</p>"
        },
        "Dragonscaled Kobold (Bronze)": {
            "name": "龍鱗狗頭人（青銅） Dragonscaled Kobold (Bronze)",
            "description": "<p>你的鱗片特別鮮豔，它與真龍的鱗片一樣具有抗性。你獲得電擊抗力，數值為你等級的一半（最低1點），在對抗龍類的噴吐武器時，該抗力翻倍。</p>"
        },
        "Dragonscaled Kobold (Copper)": {
            "name": "龍鱗狗頭人（赤銅） Dragonscaled Kobold (Copper)",
            "description": "<p>你的鱗片特別鮮豔，它與真龍的鱗片一樣具有抗性。你獲得強酸抗力，數值為你等級的一半（最低1點），在對抗龍類的噴吐武器時，該抗力翻倍。</p>"
        },
        "Dragonscaled Kobold (Gold)": {
            "name": "龍鱗狗頭人（金） Dragonscaled Kobold (Gold)",
            "description": "<p>你的鱗片特別鮮豔，它與真龍的鱗片一樣具有抗性。你獲得火焰抗力，數值為你等級的一半（最低1點），在對抗龍類的噴吐武器時，該抗力翻倍。</p>"
        },
        "Dragonscaled Kobold (Green)": {
            "name": "龍鱗狗頭人（綠） Dragonscaled Kobold (Green)",
            "description": "<p>你的鱗片特別鮮豔，它與真龍的鱗片一樣具有抗性。你獲得毒素抗力，數值為你等級的一半（最低1點），在對抗龍類的噴吐武器時，該抗力翻倍。</p>"
        },
        "Dragonscaled Kobold (Red)": {
            "name": "龍鱗狗頭人（紅） Dragonscaled Kobold (Red)",
            "description": "<p>你的鱗片特別鮮豔，它與真龍的鱗片一樣具有抗性。你獲得火焰抗力，數值為你等級的一半（最低1點），在對抗龍類的噴吐武器時，該抗力翻倍。</p>"
        },
        "Dragonscaled Kobold (Silver)": {
            "name": "龍鱗狗頭人（銀） Dragonscaled Kobold (Silver)",
            "description": "<p>你的鱗片特別鮮豔，它與真龍的鱗片一樣具有抗性。你獲得寒冷抗力，數值為你等級的一半（最低1點），在對抗龍類的噴吐武器時，該抗力翻倍。</p>"
        },
        "Dragonscaled Kobold (White)": {
            "name": "龍鱗狗頭人（白） Dragonscaled Kobold (White)",
            "description": "<p>你的鱗片特別鮮豔，它與真龍的鱗片一樣具有抗性。你獲得哈冷抗力，數值為你等級的一半（最低1點），在對抗龍類的噴吐武器時，該抗力翻倍。</p>"
        },
        "Draxie": {
            "name": "小龍精 Draxie",
            "description": "<p>你是妖精龍的親族，你的傳承可以追溯到第一世界中最強大的妖精龍的死亡。你獲得觸碰心靈感應，這允許你與你所接觸到的任何生物進行無聲的、純粹的精神交流，只要你們有共同的語言。</p>"
        },
        "Duskwalker": {
            "name": "冥人 Duskwalker",
            "description": "<p>依循古老協議的規則，你的靈魂轉世降臨為冥人─與招魂者及白骨墓園有著連結的位面後裔。除了你族裔的特徵外，你還額外獲得冥人特徵。你獲得 @UUID[Compendium.pf2e.ancestryfeatures.DRtaqOHXTRtGRIUT]{昏暗視覺 Low-Light Vision}，若你的族裔已有昏暗視覺，則改為獲得 @UUID[Compendium.pf2e.ancestryfeatures.HHVQDp61ehcpdiU8]{黑暗視覺 Darkvision} 。你的軀體及靈魂都無法被轉化成不死生物。你在選取族裔專長時，能選取冥人專長或原族裔的專長。</p>"
        },
        "Earthly Wilds Kitsune": {
            "name": "野狐 Earthly Wilds Kitsune",
            "description": "<p>由物質世界生養長大的你比起都市更親近荒野。你得到非武裝攻擊噬咬，造成 [[/r 1d6[piercing]]]傷害。你的噬咬屬於搏擊武器組，具有嫻熟和非武裝特徵。你的變化型態是隻狐狸，使用1環 <em>@UUID[Compendium.pf2e.spells-srd.gfPjmG6Fe6D3MFjl]{害獸型態 Pest Form}</em>的數值。</p>"
        },
        "Elemental Heart Dwarf": {
            "name": "元素之心矮人 Elemental Heart Dwarf",
            "description": "<p>無論是與 @UUID[Compendium.pf2e.deities.sZrdzh0ANQnZGXJb]{托拉格 Torag}的鍛造廠——火元素位面的火爐，還是其它來源連線，你能爆發出能量。芒吉莽原(Mwangi Expanse)的姆貝克(Mbe’ke)和塔拉魯(Taralu)矮人認為，這一天賦傳承自龍或元素精魂。選擇以下傷害型別之一：酸蝕、寒冷、電擊或火焰，選擇後無法更改。你獲得 @UUID[Compendium.pf2e.actionspf2e.7qjfYsLNTr17Aftf]{能量爆發 Energy Emanation} 行動。</p>"
        },
        "Elfbane Hobgoblin": {
            "name": "精靈剋星大地精 Elfbane Hobgoblin",
            "description": "<p>大地精在很久之前就被武裝起來用作對付精靈的軍隊，比不可靠但多產的地精要早很多。儘管精靈最終將大地精從奴役中解放了出來，有些大地精仍然保持著先祖遺傳下來的抗性以抵抗魔法，又被大地精稱為“精靈魔法”。你獲得 @UUID[Compendium.pf2e.actionspf2e.On5CQjX4euWqToly]{抵抗精靈魔法 Resist Elf Magic} 反應。</p>"
        },
        "Empty Sky Kitsune": {
            "name": "空狐 Empty Sky Kitsune",
            "description": "<p>你的靈魂能夠接受彼岸的祕密，讓你獲得更強大的狐妖魔法。你獲得族裔專長 @UUID[Compendium.pf2e.feats-srd.Zz7isE8Td2xDWqR8]{狐妖法術天份 Kitsune Spell Familiarity}。你的變化型態是成長背景中常見的中型類人生物族裔（通常是人類），稱作無尾型態。</p>"
        },
        "Farsight Goloma": {
            "name": "遠見戈洛瑪 Farsight Goloma",
            "description": "<p>你的眼睛已經適應瞭如何在不利的條件下看見更多的事物，你獲得 @UUID[Compendium.pf2e.ancestryfeatures.DRtaqOHXTRtGRIUT]{昏暗視覺 Low-Light Vision}.</p>"
        },
        "Fey-Touched Gnome": {
            "name": "精類侏儒 Fey-Touched Gnome",
            "description": "<p>你體內的精類血統是如此的強烈以至於你確實就是一個精類。除了侏儒和類人生物，你還會獲得精類特徵。從原能法術列表中選擇一個戲法。你可以將其作為原能內在法術隨意施放。戲法會升階到等於一半你等級的環級，向上取整。每天一次，你可以通過冥想來調整自身與第一世界（the First World）的聯絡，來將此戲法更換為同一列表中的另一個戲法；這是一個10分鐘的行動且具有專注特徵。</p>"
        },
        "Fishseeker Shoony": {
            "name": "捕魚舒尼 Fishseeker Shoony",
            "description": "<p>你出身於一個漁民世家，你繼承了在大魚上鉤時迅速捕獲收杆所必備的快速反應能力。如果你在 @UUID[Compendium.pf2e.actionspf2e.3yoajuKjwHZ9ApUY]{抓住邊緣 Grab an Edge} 檢定中取得成功，那麼這次成功視為大成功；如果這次檢定是大失敗，則視為普通失敗。當一個生物對你進行 @UUID[Compendium.pf2e.actionspf2e.Dt6B1slsBy8ipJu9]{卸武 Disarm} 時，對方如果檢定失敗，則視為大失敗。</p>"
        },
        "Flexible Catfolk": {
            "name": "柔身貓族 Flexible Catfolk",
            "description": "<p>你繼承了遠比一般類人生物柔韌的軀體。你不將不需要進行擠入空間動作就能進入的狹窄空間視為困難地形。此外，你在進行逃脫動作的檢定上獲得+1環境加值。</p>"
        },
        "Forge Dwarf": {
            "name": "鍛造矮人 Forge Dwarf",
            "description": "<p>你的那些居住在熾熱沙漠或地下火山洞窟的祖先給予了你對炎熱環境的良好適應能力。這使你獲得等於你等級的一半的火焰抗力（最小1），並且你可以將環境的炎熱效果視為低一級別（酷熱變為熾熱，熾熱變為炎熱，以此類推）。</p>"
        },
        "Frightful Goloma": {
            "name": "驚駭戈洛瑪 Frightful Goloma",
            "description": "<p>你的面孔特別令人厭惡。你在威嚇上受訓 (如果你的威嚇技能已經受訓，選擇一個其他技能) ，並且你獲得 @UUID[Compendium.pf2e.feats-srd.xQMz6eDgX75WX2ce]{金剛怒目 Intimidating Glare} 技能專長。</p>\n<hr />\n<p><em>備註: 如果你已經在此專長提供的技能上受訓，你需要自行選擇另外一個替代的技能。</em></p>"
        },
        "Frilled Lizardfolk": {
            "name": "褶頸蜥蜴人 Frilled Lizardfolk",
            "description": "<p>你可以展開你頸部邊上的領圈並彎曲其你脊背上的尖刺，以此威嚇你的敵人。當你這麼做時，你的挫敗士氣（Demoralize）行動失去聽覺特徵並獲得視覺特徵，並且當你試圖對一個不能理解你語言的生物使用挫敗士氣時，你不會受到減值。同時，你獲得 @UUID[Compendium.pf2e.actionspf2e.W4M8L9WepGLamlHs]{威嚇進逼 Threatening Approach} 行動。</p>"
        },
        "Frozen Wind Kitsune": {
            "name": "雪狐 Frozen Wind Kitsune",
            "description": "<p>你的祖先穿越過世界之冠，或是居住於終年冰雪的山峰上。你得到等於等級一半的寒冷抗力（最小為1）。寒冷環境對你的影響視作減低一級（酷寒視作極寒，極寒視作嚴寒，依此類推）。你的變化型態是無尾型態，外表為成長地區主要的中型類人生物族裔（通常是人類）。</p>"
        },
        "Fruit Leshy": {
            "name": "果萊西 Fruit Leshy",
            "description": "<p>你的枝幹能夠源源不斷地結出蘊含著原能魔力的小水果。每天清晨，一個新的果實將會成熟。你或者你的盟友可以用一個互動動作將果實採摘下來。在果實被採摘後的1小時內，若某活物能將水果作為營養來源，則他能用一個互動動作吃下果實，並回復1d8生命值，此外你每高於1級2個等級，你的果實便可額外產生1d8回覆。（譯註：3級2d8，5級3d8以此類推。）此效果擁有治療、死靈系以及正能量特徵。</p>\n<p>[[/r ceil(@actor.level/2))d8[healing]]]{隨等級提升的治療 Levelled healing}</p>"
        },
        "Fungus Leshy": {
            "name": "真菌萊西 Fungus Leshy",
            "description": "<p>你的身體由生長在洞穴和樹蔭下的真菌構成，你在黑暗的洞穴和狹窄的管道中時會感到十分自在。你獲得 @UUID[Compendium.pf2e.ancestryfeatures.HHVQDp61ehcpdiU8]{黑暗視覺 Darkvision} 。你失去植物特徵，並且獲得真菌特徵。</p>"
        },
        "Ganzi": {
            "name": "混沌裔 Ganzi",
            "description": "<p>你的血液因原始的混沌而感到震撼。你除了從你的族裔中獲得的特徵之外，還額外獲得混沌裔特徵。你獲得等同於你等級一半的單一型別的傷害抗力；在每天開始時，隨機從酸液、電擊或是音波傷害中確定一個適用於此傷害抗力。你同時在對抗那些會使你獲得 @UUID[Compendium.pf2e.conditionitems.9qGBRpbX9NEwtAAr]{被控制 Controlled} 狀態的豁免骰上獲得+1環境加值。你在選取族裔專長時，能選取混沌裔專長或原族裔的專長。</p>"
        },
        "Ghost Poppet": {
            "name": "魂縛人偶 Ghost Poppet",
            "description": "<p>當另一個人的生命力和他們的一點靈魂碎片——可能是，但不一定總是在他們死亡的那一刻——進入你的軀體時，你醒來了。你只記得你“生前”的一些模糊的片段，但那份生命精華仍然保護著你。你獲得相當於你等級一半的負能量傷害的抵抗力（最小值為1）。</p>"
        },
        "Gourd Leshy": {
            "name": "葫蘆萊西 Gourd Leshy",
            "description": "<p>你的頭顱由一個大葫蘆構成。你的知識來源於你的精魂，而不是來自一個物質的大腦，並且你已經找到了一個更方便的方法來利用你腦袋裡的空間。你可以在你的腦袋裡儲存1負載的物品。想要從你腦袋裡 @UUID[Compendium.pf2e.actionspf2e.RDXXE7wMrSPCLv5k]{盜竊 Steal} 東西的檢定的DC增加4。此外，如果你的腦袋裡只儲存了一件物品，你可以毫不費力地把該物體拿到自己手上，作為使用該物品的動作的一部分。拿出這個物品將會為使用該物品的動作賦予操縱特徵。</p>"
        },
        "Grave Orc": {
            "name": "墳冢獸人 Grave Orc",
            "description": "<p>你曾暴露在一股本足以殺死你的強大死靈力量之中——但無論如何，你倖存下來了。你的面板變得陰冷、潮溼、灰暗。你獲得等同於你等級一半（最低為1）的負能量傷害（negative damage）抗力。並且在抵抗死靈系效果的豁免中你獲得+1環境加值。</p>"
        },
        "Great Gnoll": {
            "name": "巨力豺狼人 Great Gnoll",
            "description": "<p>你是個又大又強壯的豺狼人，渾身生著茶色皮毛與棕色斑點。你從族裔處獲得10點生命值而非8點，並在用於推撞（Shove）或摔絆（Trip）敵人的運動檢定中獲得+1環境加值。</p>"
        },
        "Grig": {
            "name": "格利精 Grig",
            "description": "<p>你有蟋蟀似的後肢，喜歡藝術和音樂。你的蟋蟀腿使你在跳高或跳遠的運動檢定中獲得+2的環境加值，並且你獲得了 <em>@UUID[Compendium.pf2e.spells-srd.atlgGNI1E1Ox3O3a]{幻音術 Ghost Sound}</em> 原能內在戲法。</p>"
        },
        "Gutsy Halfling": {
            "name": "無畏半身人 Gutsy Halfling",
            "description": "<p>你的祖輩都以在危急時刻保持冷靜且毫不畏懼而聞名，這使他們成為了明智的領導者，甚至是英雄。當你在對抗情緒效果的豁免檢定中成功時，視為你獲得了大成功。</p>"
        },
        "Half-Elf": {
            "name": "半精靈 Half-Elf",
            "description": "<p>你的雙親要麼一個是精靈，要麼2個都是半精靈。你有著尖尖的耳朵和其他精靈遺傳的跡象。你獲得了精靈特性和 @UUID[Compendium.pf2e.ancestryfeatures.DRtaqOHXTRtGRIUT]{昏暗視覺}。此外，當你獲得一個先祖專長時，你可以選擇精靈，半精靈或是人類專長。</p>"
        },
        "Half-Orc": {
            "name": "半獸人 Half-Orc",
            "description": "<p>你的雙親要麼一個是獸人，要麼2個都是半獸人。你有著淡綠的面板和其他獸人遺傳的跡象。你獲得了獸人特性和 @UUID[Compendium.pf2e.ancestryfeatures.DRtaqOHXTRtGRIUT]{昏暗視覺}。此外，當你獲得一個先祖專長時，你可以選擇獸人，半獸人或是人類專長。</p>"
        },
        "Hillock Halfling": {
            "name": "丘陵半身人 Hillock Halfling",
            "description": "<p>山間的平靜生活使你的族人發現，休憩與放鬆，尤其是沉溺在物質享受中，特別能讓人恢復活力。當你在整夜休息後重新獲得生命值時，將[[/r @actor.level]]{你的等級}加到重新獲得的生命值上。</p>\n<p>當他人用醫療技能來對你 @UUID[Compendium.pf2e.actionspf2e.1kGNdIIhuglAjIp9]{治療傷害 Treat your Wounds}時，你可以吃點零食來將[[/r @actor.level]]{你的等級}加到從治療中恢復的生命值上。</p>"
        },
        "Hold-Scarred Orc": {
            "name": "疤痕獸人 Hold-Scarred Orc",
            "description": "<p>你所在的獸人社群會舉行授予疤痕或刺青的儀式，而你也參加了。這個面板上的印記展示了你那非凡的韌性和活力。你從族裔中獲得12點生命值以取代原本的10點。你還會獲得 @UUID[Compendium.pf2e.feats-srd.I0BhPWqYf1bbzEYg]{死硬 Diehard} 專長。</p>"
        },
        "Hunter Automaton": {
            "name": "狩獵型靈導械 Hunter Automaton",
            "description": "<p>你被設計用於偵察和刺殺，並且擁有類似於大型貓或狼這些獵手的軀體。即使你通常如四足生物般移動，但你依然可以站立並如兩足生物般戰鬥，這使你如常使用所有裝備。你的四足設計使你移動更加迅捷；如果你雙手空閒（both hands free），你可以如同四足生物般奔跑將你的速度提升到30尺。</p>"
        },
        "Hunting Catfolk": {
            "name": "追獵貓族 Hunting Catfolk",
            "description": "<p>你出自充滿了老練獵人與追蹤者的悠久家系，遺傳了特別敏銳的嗅覺。</p>\n<p>你獲得距離30尺的靈敏嗅覺模糊感官，因此可以氣味判斷生物的位置。依照GM判斷，當你身處下風處時，可將嗅覺射程翻倍，身處上風處時則是減半。</p>\n<p>此外，當你對已經聞過記住氣味的生物或物品進行 @UUID[Compendium.pf2e.actionspf2e.EA5vuSgJfiHH7plD]{追蹤 Track} 時，獲得+2環境加值。</p>"
        },
        "Ifrit": {
            "name": "火元素裔 Ifrit",
            "description": "<p>你作為火元素的後裔或擁有來自於內環宇宙的印記，你的特徵表明了火元素對你的影響。除了你原本的族裔特徵外，你還獲得了火元素裔（Ifrit）特徵。你獲得等於你的等級的一半的火焰抗性（最小1），並且你可以將環境的炎熱效果視為低一級別（酷熱變為熾熱，熾熱變為炎熱，以此類推）。當你獲得族裔專長提升時，你可以從火元素裔專長和族裔專長中選擇。</p>"
        },
        "Impersonator Android": {
            "name": "間諜型仿生人 Impersonator Android",
            "description": "<p>你的身體為了更容易地融入人類社群而被設計得更加模擬。</p>\n<p>你在欺騙技能上受訓(或者其他技能，如果你已經在欺騙技能上受訓)。當你試圖 @UUID[Compendium.pf2e.actionspf2e.AJstokjdG6iDjVjE]{喬裝 Impersonate} 成人類時，你不需要偽裝工具。</p>\n<p>此外，你在喬裝自己是一個人類，而不是一個仿生人時獲得+4環境加值。此加值只適用於喬裝人類外觀下的自己，而不適用於喬裝成除你自己之外的其他人的檢定。</p>"
        },
        "Insightful Goloma": {
            "name": "洞察戈洛瑪 Insightful Goloma",
            "description": "<p>你已經學會了如何觀察到他人危險態度中的蛛絲馬跡，這能幫助你避免麻煩。當別人嘗試對你說謊 (Lie) 時，你用以對抗的察覺DC獲得+1環境加值；你在察言觀色 (Sense Motive) 上的察覺檢定上獲得+1環境加值。</p>"
        },
        "Inured Azarketi": {
            "name": "堅毅阿扎克緹人 Inured Azarketi",
            "description": "<p>你的祖先不得不在被汙染的水中生存，迫使他們呼吸著有毒的水。你獲得的毒素抗力相當於你等級的一半（最低為1）。此外，在你開始窒息（suffocate）之前，你可以在水外生存72小時。</p>"
        },
        "Irongut Goblin": {
            "name": "鐵胃地精 Irongut Goblin",
            "description": "<p>你可以利用大多數人認為已經腐爛的食物來 @UUID[Compendium.pf2e.actionspf2e.49y9Ec4bDii8pcD3]{求生 Subsist} 。在聚居地時，只要能輕鬆弄到垃圾，你就可以靠劣質食品維持生計，而不需要採取“謀生”（Subsist）這項休整期行動。你在處於 @UUID[Compendium.pf2e.conditionitems.fesd1n5eVhpCSS18]{噁心 Sickened} 狀態時也能夠進食和飲水。</p>\n<p>你在對抗苦難（afflictions）、對抗噁心狀態、移除惡心狀態的豁免檢定上獲得+2環境加值。當你在應用此加值的強韌豁免檢定中獲得“成功”時，改為獲得“大成功”。以上好處只對你食入的東西造成的苦難或狀態生效。</p>"
        },
        "Jinxed Halfling": {
            "name": "黴運半身人 Jinxed Halfling",
            "description": "<p>你的誕生伴隨著一種奇異的祝福：你喪失了常見的半身人好運，但取而代之的是，你能夠操縱他人的命運。你永遠無法選取 @UUID[Compendium.pf2e.feats-srd.ZbRVqf14RTJJIZXG]{半身人幸運 Halfling Luck} 專長，同時你會獲得 @UUID[Compendium.pf2e.actionspf2e.hFRHPBj6wjAayNtW]{黴運招來 Jinx} 動作。</p>"
        },
        "Jinxed Tengu": {
            "name": "厄咒天狗 Jinxed Tengu",
            "description": "<p>你的家系自古承受了一個又一個的詛咒，到了今日已然養成百咒不沾的體質。你在抵抗詛咒或厄運效果的豁免骰上成功時，視為大成功處理。</p>\n<p>當你陷入 @UUID[Compendium.pf2e.conditionitems.3uh1r86TzbQvosxv]{毀滅 Doomed} 狀態時，進行 @Check[type:flat|dc:17] 的純骰檢定，若此檢定成功，則你獲得的毀滅值減少-1。</p>"
        },
        "Jungle Catfolk": {
            "name": "密林貓族 Jungle Catfolk",
            "description": "<p>你是叢林居民的後裔，可在草莽樹叢之間自在穿梭。你忽略來自矮叢的困難地形，且來自矮叢的進階困難地形對你只是困難地形。</p>"
        },
        "Laborer Android": {
            "name": "勞務型仿生人 Laborer Android",
            "description": "<p>你的身體適應於忍受身體上的困難或長時間從事繁重的勞動。你在運動技能上受訓(或者其他技能，如果你已經在運動技能上受訓)，並且你獲得了 @UUID[Compendium.pf2e.feats-srd.C0Tcelg3BAPhML6J]{體健負重 Hefty Hauler} 技能專長。</p>"
        },
        "Leaf Leshy": {
            "name": "葉萊西 Leaf Leshy",
            "description": "<p>你的身體主要由天然的樹葉構成，就像葉子從樹上飄落那樣，你從高處落下時特別的優雅。不管你掉落了多少距離，你都不會受到傷害。</p>"
        },
        "Liminal Catfolk": {
            "name": "闢限貓族 Liminal Catfolk",
            "description": "<p>次元之間的界線會變得曖昧不清的世界邊疆與你有著聯絡。你可以異能內在法術的形式施放偵測魔法戲法。此戲法會升階到你的等級的一半並向上取整的環級。</p>\n<p>此外，你在以神祕技能向不源自物質位面的生物進行回憶知識的檢定上獲得+1環境加值。</p>"
        },
        "Liminal Fetchling": {
            "name": "閾限竊影鬼 Liminal Fetchling",
            "description": "<p>你的血脈與靈界或陰影位面有更緊密的聯絡，並且你可以將這樣的聯絡投射到在位面之間不可見的領域。當你通過搜尋動作來定位60尺內的 @UUID[Compendium.pf2e.conditionitems.VRSef5y1LmL2Hkjf]{無蹤 Undetected} 生物時，你獲得+1環境加值。當你以 @UUID[Compendium.pf2e.conditionitems.DmAIPqOBomZ7H95W]{隱蔽 Concealed} 的生物作為目標時，你的純骰檢定DC為@Check[type:flat|dc:3]而不是5，當你以無蹤的生物作為目標時，你的純骰檢定DC為@Check[type:flat|dc:9]而不是11。</p>"
        },
        "Longsnout Rat": {
            "name": "長鼻鼠族 Longsnout Rat",
            "description": "<p>家族遺傳的長鼻子使你的感官比其他族人更加靈敏。你獲得範圍30尺的靈敏嗅覺模糊感官，因此可以氣味判斷生物的位置。依照GM判斷，當你身處下風處時，可將嗅覺範圍翻倍，身處上風處時則是減半。</p>\n<p>此外，當你 @UUID[Compendium.pf2e.actionspf2e.BlAOM2X92SI6HMtJ]{搜尋 Seek} 嗅覺範圍內的生物或物品時，在察覺檢定上獲得+2環境加值。</p>"
        },
        "Lorekeeper Shisk": {
            "name": "博學希斯克 Lorekeeper Shisk",
            "description": "<p>你在知識與祕密的圍繞下長大。你在你選擇的一項學識技能和一項基於智力或感知的技能上熟練等級變為受訓。在5級時，你在所選技能上的熟練等級變為專家。</p>"
        },
        "Lotus Leshy": {
            "name": "蓮萊西 Lotus Leshy",
            "description": "<p>你可以毫不費力地漂浮在水面上。你能夠以你速度的一半在平靜的水面以及其它無害液體表面上走動（walk）。在流動水域上，你同樣能夠嘗試以半速進行走動，不過為了達到這一點你需要進行一次成功的 @Check[type:acrobatics|traits:action:balance] 檢定來保持平衡 (Balance) ，此檢定使用在水體中游泳 (Swim) 的DC；若失敗，則你跌入水中。此特技檢定無需任何動作。</p>"
        },
        "Luminous Sprite": {
            "name": "螢火妖精 Luminous Sprite",
            "description": "<p>你閃耀著魔法光輝，如自然地發出@UUID[Compendium.pf2e.equipment-srd.8Jdw4yAzWYylGePS]{火炬 Torch}一樣的光亮；這種光亮具有塑能、光和原能特性。你可以用一個動作來熄滅、重新點燃或改變這種光的顏色，這個動作具有專注特性。</p>"
        },
        "Mage Automaton": {
            "name": "施法型靈導械 Mage Automaton",
            "description": "<p>你存放核心的艙室與你類人形態的其他部分具有更多直接連結，使得你能利用你核心中的魔法能量。你獲得一個來自於奧術法術列表中的戲法（cantrip）。你可以將其作為內在奧術法術隨意施展。此戲法將被升階至等同你等級一半的環數。</p>"
        },
        "Melixie": {
            "name": "梅莉精 Melixie",
            "description": "<p>你有蜜蜂、蝴蝶或其他喜歡甜食的昆蟲特徵。你可以向節肢動物（昆蟲、蜘蛛、蠍子、螃蟹和類似的無脊椎動物）提問，並得到它們的回答，還可以使用交涉對它們進行建立印象Make an Impression和提出請求Request。大多數蜜蜂、蝴蝶、飛蛾和甲蟲都對你 @UUID[Compendium.pf2e.conditionitems.fuG8dgthlDWfWjIA]{不關心 Indifferent} or @UUID[Compendium.pf2e.conditionitems.v66R7FdOf11l94im]{友善 Friendly} ，並給你時間來說明你的情況，但其他節肢動物對你的反應則與對待其他冒險者一樣。</p>"
        },
        "Mistbreath Azarketi": {
            "name": "霧息阿扎克緹人 Mistbreath Azarketi",
            "description": "<p>你是遷徙到近水陸地環境的阿扎克緹人的後代。隨著時間的推移，你的族人在文化上和身體上都適應了陸地上的生活，甚至導致阿扎克緹人像他們的阿茲蘭蒂人祖先一樣生出人類的頭髮。你不再每隔24小時便需要浸泡在水中來維持你的面板，而是可以通過噴灑水霧或使用溼布擦拭你的面板舒適地生活。你的陸地速度是25尺，但你的游泳速度只有15尺。</p>"
        },
        "Mountainkeeper Tengu": {
            "name": "山伏天狗 Mountainkeeper Tengu",
            "description": "<p>你出身於天狗修行僧的家系，與萬物精魂及偉大彼岸有著聯絡。你可隨意以原能內在法術的形式施放 <em>@UUID[Compendium.pf2e.spells-srd.kcelf6IHl3L9VXXg]{打擊死靈 Disrupt Undead}</em> 此戲法會升階到等同於你的角色等級的一半（向上取整）的環級。</p>\n<p>每當你施放源自天狗傳承或族裔專長的法術時，可指定這個法術是以神術還是原能法術的形式生效。</p>"
        },
        "Murkeyed Azarketi": {
            "name": "濁水阿扎克緹人 Murkeyed Azarketi",
            "description": "<p>你生活在渾濁的水域，已經習慣了在低能見度的環境中生活。當你瞄準隱蔽的生物時，你只需要成功地進行@Check[type:flat|dc:3]檢定，而當瞄準藏匿的生物時，則需要成功地進行@Check[type:flat|dc:9]檢定。</p>"
        },
        "Mutated Fleshwarp": {
            "name": "突變塑肉體 Mutated Fleshwarp",
            "description": "<p>你起源於法力廢墟（Mana Wastes）或其他不受控制的狂亂魔法區域，並被魔法影響而變異。歸功於你變強或增生的器官，你從持續流血傷害中恢復的純骰鑑定DC從15降低為@Check[type:flat|dc:10]{10}。如果你在恢復流血傷害的過程中得到了有效的協助，則DC從10降低到@Check[type:flat|dc:5]{5}。</p>"
        },
        "Nightglider Strix": {
            "name": "夜翔梟鬼 Nightglider Strix",
            "description": "<p>你是個夜貓子，習於在近乎無光的環境監視與狩獵。你獲得 @UUID[Compendium.pf2e.ancestryfeatures.HHVQDp61ehcpdiU8]{黑暗視覺 Darkvision}。</p>"
        },
        "Nine Lives Catfolk": {
            "name": "九命貓族 Nine Lives Catfolk",
            "description": "<p>你的家族似乎總是能在遭逢災難後，不靠強健體魄或特殊技法，僅憑天生強運就能谷底翻身。其他貓族傳說你們家的人生來有著九條命。</p>\n<p>當你被造成重擊的攻擊將生命值降至0時，你只會陷入 @UUID[Compendium.pf2e.conditionitems.yZRUzMqrMmfLu0V1]{瀕死 Dying 1} 而不陷入瀕死2。</p>"
        },
        "Nomadic Halfling": {
            "name": "漂泊半身人 Nomadic Halfling",
            "description": "<p>你的祖先世代四處漂泊，從未駐足定居。你額外獲得兩種語言，從你允許獲得的常見和罕見語言中選取。每當你習得 @UUID[Compendium.pf2e.feats-srd.P9HCz0uR6xPHuw72]{多語言 Multilingual} 專長時，你獲得另一種新的語言。</p>"
        },
        "Nyktera": {
            "name": "尼克精 Nyktera",
            "description": "<p>你有蝙蝠一樣的特徵，對蝙蝠類生物有一種親和力，而且聽力也是首屈一指的。只要你能正常聽見聲音，就可以使用搜尋Seek動作來感知 @Template[type:cone|distance:30] 內的 @UUID[Compendium.pf2e.conditionitems.VRSef5y1LmL2Hkjf]{無蹤 Undetected} 生物，而非平常的@Template[type:cone|distance:30]範圍。在定位你在30尺錐形範圍內通過搜尋動作可以聽到的無蹤的生物時，你還獲得+2的環境加值。</p>"
        },
        "Oathkeeper Dwarf": {
            "name": "守信矮人 Oathkeeper Dwarf",
            "description": "<p>長到這麼大，你從來不靠撒謊獲得想要的東西，即使在必要時，說假話也會讓你渾身難受。那些特別虔信的人甚至可能以為你受到過矮人的責任之神 @UUID[Compendium.pf2e.deities.zhPhYge7VJbIlJvA]{科爾斯 Kols} 的祝福。</p>\n<p>你用來 @UUID[Compendium.pf2e.actionspf2e.1xRFPTFtWtGJ9ELw]{察言觀色 Sense Motive} 的察覺檢定和對你嘗試 @UUID[Compendium.pf2e.actionspf2e.ewwCglB7XOPLUz72]{說謊 Lie} 的察覺DC獲得+1環境加值。</p>\n<p>而且，在你使用交涉檢定說服他人你說的是真話，且你說的確實是真話時，獲得+2環境加值。你說謊時對抗 @UUID[Compendium.pf2e.actionspf2e.1xRFPTFtWtGJ9ELw]{察言觀色 Sense Motive} 的唬騙DC-4環境減值。</p>"
        },
        "Observant Halfling": {
            "name": "敏銳半身人 Observant Halfling",
            "description": "<p>你敏銳的感官能快速地就揭示你陷入的危險或詭計。你的察覺DC獲得+1環境加值，察覺檢定不獲得此加值。</p>"
        },
        "Oread": {
            "name": "土元素裔傳承 Oread",
            "description": "<p>元素的元素先祖影響了你的血脈，你的特徵凸顯了這種位面聯絡。你可能會有含著水晶或金屬光澤的肌膚或頭髮，粗糙而堅硬的肉體，或閃閃發光的寶石眼睛。除了你的族裔特質外，你還獲得了土元素裔的特性。你還會獲得 @UUID[Compendium.pf2e.ancestryfeatures.DRtaqOHXTRtGRIUT]{昏暗視覺 Low-Light Vision} ，如果你的族裔已經擁有昏暗視覺，你會獲得 @UUID[Compendium.pf2e.ancestryfeatures.HHVQDp61ehcpdiU8]{黑暗視覺 Darkvision} 。每當你獲得一項族裔專長時，你可以從土元素裔專長和你族裔的專長中選擇。</p>"
        },
        "Paddler Shoony": {
            "name": "槳手舒尼 Paddler Shoony",
            "description": "<p>你來自於那些長久以來在沼澤蘆葦和香蒲叢中安居樂業的舒尼族群，你已經適應了在水浸地區生活的種種挑戰。你忽略因沼澤造成的困難地形和進階困難地形。當你進行@UUID[Compendium.pf2e.actionspf2e.c8TGiZ48ygoSPofx]{游泳 Swim} 檢定成功時，這次檢定視為大成功。</p>"
        },
        "Pixie": {
            "name": "皮克精 Pixie",
            "description": "<p>你比其他小妖精要大。你的體型不是超小型，而是小型。</p>"
        },
        "Poisonhide Grippli": {
            "name": "毒膚樹蛙人 Poisonhide Grippli",
            "description": "<p>你的體型可能很小，但你面板下的毒腺是一道致命的防禦。你獲得 @UUID[Compendium.pf2e.actionspf2e.kKKHwVUnroKuAnOt]{毒性面板 Toxic Skin} 反應動作。</p>"
        },
        "Polychromatic Anadi": {
            "name": "炫彩半蛛人 Polychromatic Anadi",
            "description": "<p>你的身體覆蓋著異常鮮豔的毛髮，創造出充滿活力、引人注目的圖案，其中一些甚至可能在你的人類形態中體現出來。你的表演技能受訓（如果你的表演技能已經受訓，選擇一個其他技能），並且你獲得 @UUID[Compendium.pf2e.feats-srd.xqAdXRd2gSQcqp5E]{動人表演 Impressive Performance} 專長。</p>\n<hr />\n<p><em>備註:如果你在此專長獲得的技能已受訓，你可以選擇自己選擇一個其它技能來替代。</em></p>"
        },
        "Polyglot Android": {
            "name": "翻譯型仿生人 Polyglot Android",
            "description": "<p>被預先設定了熟練多種語言，很可能成為一名翻譯。你從所有常見及非常見語言中選擇兩種語言並學會它們，這些語言的形式(手語或口語)需和你的其他語言相同。如果您選擇 @UUID[Compendium.pf2e.feats-srd.P9HCz0uR6xPHuw72]{多語言 Multilingual} 技能專長，您將學會三種新語言而不是兩種。</p>"
        },
        "Predator Strix": {
            "name": "猛掠梟鬼 Predator Strix",
            "description": "<p>你的同類有著格外寬闊的羽翼和長長的爪子。你獲得非武裝攻擊鉤爪，造成 [[/r 1d4[slashing]]]傷害。你的鉤爪屬於搏擊武器組，具有靈巧、嫻熟和非武裝特徵。</p>"
        },
        "Quillcoat Shisk": {
            "name": "羽衣希斯克 Quillcoat Shisk",
            "description": "<p>你的身體進化出了一種可以分離扎進攻擊者體內的尖刺的防禦機制。這使你可以從主動進攻的掠食者手中保護你自己，儘管尖刺需要一段時間來重新長出。你獲得 @UUID[Compendium.pf2e.actionspf2e.oAWNluJaMlaGysXA]{帶刺羽尖 Barbed Quills} 反應。</p>"
        },
        "Rainfall Orc": {
            "name": "叢林獸人 Rainfall Orc",
            "description": "<p>你出生在雨林之中，這裡只有纏結的林木能在傾盆暴雨和洪水中保護你。你學會了如何熟練地穿行雨林地形以及抵禦潮溼環境中的常見病的方法。</p>\n<p>你在 @UUID[Compendium.pf2e.actionspf2e.pprgrYQ1QnIDGZiy]{攀爬 Climb} 或 @UUID[Compendium.pf2e.actionspf2e.c8TGiZ48ygoSPofx]{游泳 Swim} 的運動檢定中獲得+2環境加值，而且在對抗疾病（diseases）的豁免檢定中獲得+1環境加值。</p>"
        },
        "Razortooth Goblin": {
            "name": "刃齒地精 Razortooth Goblin",
            "description": "<p>你的家族的牙齒是種強力武器。你獲得可造成 [[/r 1d6[piercing]]]傷害的非武裝攻擊“顎咬”（jaws）。你的顎咬屬於格鬥（brawling）武器組，並且具有嫻熟（finesse）和非武裝（unarmed）特徵。</p>"
        },
        "Resolute Fetchling": {
            "name": "堅毅竊影鬼 Resolute Fetchling",
            "description": "<p>你的先祖長期面對陰影位面和其他地方的各種恐怖光景，而你繼承了他們精神上的堅韌。如果你嘗試對抗情緒（emotion）效果的豁免鑑定時成功，你將得到大成功的結果。</p>"
        },
        "Rite of Invocation": {
            "name": "祈禱儀式 Rite of Invocation",
            "description": "<p>你用魔法增強你的外骨骼。你從奧術或異能法術表中獲得一個戲法。你可以將此此法作為內在法術隨意施展。此戲法環級提升到你等級的一半，並向上取整。</p>"
        },
        "Rite of Knowing": {
            "name": "知識儀式 Rite of Knowing",
            "description": "<p>你通過與軸心城（Axis）的連結增強了你的外骨骼，讓你可以深挖軸心城位面儲藏的無數知識。你獲得 @UUID[Compendium.pf2e.actionspf2e.k5TASjIxghvGCy7g]{溝通軸心城 Call to Axis} 動作。</p>"
        },
        "Rite of Light": {
            "name": "光明儀式 Rite of Light",
            "description": "<p>你的外骨骼承載著可以共享生命的嫩芽。當你使用陽光治療動作，你也可以恢復1個相鄰盟友而不是你自己的生命值。該盟友在1天內對陽光治療臨時免疫。</p>"
        },
        "Rite of Passage": {
            "name": "通途儀式 Rite of Passage",
            "description": "<p>你的外骨骼依然保持著和創造它的植物的聯絡。你可以忽略由灌木叢（undergrowth）導致的困難地形和不平整地表。此外，當你在森林中的狹窄地表和不平整地表使用特技技能進行保持平衡動作時，你不會措手不及。當你在此類特技檢定中成功時，能得到大成功的結果。</p>"
        },
        "Rite of Reinforcement": {
            "name": "強化儀式 Rite of Reinforcement",
            "description": "<p>你所穿戴的外骨骼可以媲美最堅硬的盔甲。你的外骨骼是中型護甲，並且屬於板甲（plate）護甲組，在AC上給與+4物品加值，敏捷上限+1，檢定減值-2，速度減值-5，力量值為16，並且擁有舒適（comfort）特徵。你無法穿戴其他盔甲或脫掉你的外骨骼。你可以像往常一樣在外骨骼上蝕刻護甲符文。</p>\n<p>@UUID[Compendium.pf2e.equipment-srd.0KHgAaDi3tmu32Hq]{祈禱儀式外骨骼 Rite of Reinforcement Exoskeleton}</p>"
        },
        "River Azarketi": {
            "name": "河川阿扎克緹人 River Azarketi",
            "description": "<p>來自放棄海洋而選擇內陸生活的淡水的阿扎克緹人。河流多樣的地理環境要求你發展先進的體能技能，以便在激流中游泳，躍過洶湧的水面，並靈巧地穿梭於淺窄的水道。</p>\n<p>來自放棄海洋而選擇內陸生活的淡水的阿扎克緹人。河流多樣的地理環境要求你發展先進的體能技能，以便在激流中游泳，躍過洶湧的水面，並靈巧地穿梭於淺窄的水道。</p>"
        },
        "Rock Dwarf": {
            "name": "磐石矮人 Rock Dwarf",
            "description": "<p>你的祖先曾在巨石山脈或地底深處生活勞作。這讓你在駐足時如岩石一般穩固。你在對抗 @UUID[Compendium.pf2e.actionspf2e.7blmbDrQFNfdT731]{推撞 Shove} 或 @UUID[Compendium.pf2e.actionspf2e.ge56Lu1xXVFYUnLP]{摔絆 Trip} 的強韌或反射DC獲得+2環境加值。此加值也適用於對抗嘗試將你 @UUID[Compendium.pf2e.conditionitems.j91X7x0XSomq8d60]{倒地 Prone} 的法術或效果的豁免骰。</p>\n<p>此外，如果任何效果迫使你移動10尺或更遠，則你移動的距離只有一半。</p>"
        },
        "Root Leshy": {
            "name": "根萊西 Root Leshy",
            "description": "<p>你的身體由強壯的根鬚組成，讓你能夠牢牢地抓住地面。你從你的族裔中獲得10生命值而非通常的8點。在沒有陽光的情況下，你能夠在開始捱餓之前撐兩週。 (譯註：詳見族裔能力--植物營養) 。在嘗試對抗推撞 或摔絆時，你的強韌和反射DC獲得+2環境加值。在對抗那些試圖讓你移動或倒地的法術和效果的豁免上，此加值同樣適用。</p>"
        },
        "Runtboss Hobgoblin": {
            "name": "矮子將軍 Runtboss Hobgoblin",
            "description": "<p>你來自那些指揮著地精的大地精群體。你比其他大地精要瘦小一點，但地精們仍然會聽從你下達的任何命令。你獲得 @UUID[Compendium.pf2e.feats-srd.gUqvezs2zzoTXFAI]{集體脅迫 Group Coercion} 技能專長。如果你在一個用來 @UUID[Compendium.pf2e.actionspf2e.tHCqgwjtQtzNqVvd]{脅迫 Coerce} 地精的威嚇檢定中達成成功，你會達成大成功；如果你陷入大失敗，則只會陷入失敗。這隻對地精有效，對具有地精特徵的其他生物無效。</p>"
        },
        "Sandstrider Lizardfolk": {
            "name": "沙行蜥蜴人 Sandstrider Lizardfolk",
            "description": "<p>你厚厚的鱗片可以幫你保持水分並抵禦陽光的照射。你獲得等同於你的等級的一半的火焰抗性（最小為1），並且你可以將環境的炎熱效果視為低一級別。而且你能忍受飢餓和口渴影響的時間是一般人的10倍。然而，除非你穿上防護服或者找個地方避寒，否則環境的寒冷效果對你提高1級。</p>"
        },
        "Scavenger Strix": {
            "name": "擷荒梟鬼 Scavenger Strix",
            "description": "<p>你的祖先來自一塊食物稀少、威脅眾多的土地。你在生存技能上受訓，並獲得 @UUID[Compendium.pf2e.feats-srd.8qebBeOJsyRIchcu]{覓食者 Forager} 作為額外專長。慣於採集漁獵所養成的堅毅，還會讓你在求生（Subsist）的生存檢定中，獲得+1環境加值。</p>"
        },
        "Seaweed Leshy": {
            "name": "藻萊西 Seaweed Leshy",
            "description": "<p>你的身體由編織起來的水藻構成，你在水下的舒適程度與在陸地上沒什麼區別。你獲得20尺的游泳速度，並且你總是能夠在水下呼吸。但代價是，你在陸地上的速度將降低5尺 (對於大多數藻萊西而言，其陸地速度將是20尺)。</p>"
        },
        "Seer Elf": {
            "name": "先知精靈 Seer Elf",
            "description": "<p>你擁有偵測和理解魔法現象的天生能力。你可以任意施展 <em>@UUID[Compendium.pf2e.spells-srd.gpzpAAAJ1Lza2JVl]{偵測魔法 Detect Magic}</em> 戲法作為一個奧術內在法術。這個戲法會自動升階到1/2你的角色等級的環位。</p>\n<p>此外，你在 @UUID[Compendium.pf2e.actionspf2e.eReSHVEPCsdkSL4G]{辨識魔法} 和 @UUID[Compendium.pf2e.actionspf2e.d9gbpiQjChYDYA2L]{破譯魔法文字} 時獲得+1環境加值。這些加值通常用於奧術，自然，神祕或是宗教技能上。</p>"
        },
        "Sensate Gnome": {
            "name": "銳感侏儒 Sensate Gnome",
            "description": "<p>你看到的顏色更加豔麗，聽到的聲音更加豐盈，聞到的味道的細膩更是讓人難以置信。你獲得特殊感官：30尺的模糊嗅覺。這意味著你可以用你的嗅覺來確定生物的確切位置。如果你處於生物的下風處，GM通常會讓此範圍翻倍，上風處則減半。</p>\n<p>此外，當你嘗試定位一個在你的嗅覺範圍內的無蹤生物時，你的察覺檢定獲得+2環境加值。</p>"
        },
        "Sewer Rat": {
            "name": "水溝鼠族 Sewer Rat",
            "description": "<p>你的鼠族家系自古便以某個大型聚落的下水道為家。你免疫腐熱病疾病。你在對抗疾病或毒素效果的豁免上成功時，使其降低2階段，若效果是惡性疾病或毒素則降低1階段。豁免大成功時，使其降低3階段，若效果是惡性疾病或毒素則降低2階段。</p>"
        },
        "Shadow Rat": {
            "name": "怪影鼠族 Shadow Rat",
            "description": "<p>你的祖先出自幽暗的地底空間，你遺傳了它們的漆黑毛色，以及那會使智慧生物不安，動物驚惶的怪異氣息。 你在威嚇技能上達到受訓熟練度，並且你可以使用威嚇技能來對動物進行 @UUID[Compendium.pf2e.actionspf2e.tHCqgwjtQtzNqVvd]{脅迫 Coerce} 行動，當你對動物實行 @UUID[Compendium.pf2e.actionspf2e.2u915NdUyQan6uKF]{挫敗士氣 Demoralize} 動作時，不會因為言語不通而承受環境減值。 若你已在威嚇技能上受訓(例如背景或職業的效果)，改為在你自選的另一個技能上達到受訓。</p>\n<p>動物對你的起始態度比正常降低1級，馴養動物的起始態度是不友善而非不關心，野生動物的起始態度是敵對而非不友善。</p>"
        },
        "Shapewrought Fleshwarp": {
            "name": "扭形塑肉體 Shapewrought Fleshwarp",
            "description": "<p>作為塑肉改造的受害者，你可能擁有鬆散的皮肉、突出的骨刺或者面板上長出各種非人的特徵。儘管如此，你已經將精神上的扭曲轉化為力量。你獲得相當於你等級一半的心靈（mental）傷害抗力（至少為1）。</p>"
        },
        "Sharp-Eared Catfolk": {
            "name": "聰耳貓族 Sharp-Eared Catfolk",
            "description": "<p>你長著一對會隨心情擺動，捕捉到意外怪聲時又會立刻豎起的大耳朵。你在以搜尋動作你能聽見且離你30尺內但對你為無蹤的生物時，在檢定上獲得+2環境加值。</p>\n<p>此外因為耳朵好，每輪1次，只要你能以聽覺感知到目標生物，你能以自由動作進行 @UUID[Compendium.pf2e.actionspf2e.sn2hIy1iIJX9Vpgj]{指出位置 Point Out} 動作來向所有盟友告知目標的位置。</p>"
        },
        "Sharpshooter Automaton": {
            "name": "射擊型靈導械 Sharpshooter Automaton",
            "description": "<p>你纖長、類人的外形，被設計以適應遠端戰鬥中的快速與準確性。你獲得 @UUID[Compendium.pf2e.actionspf2e.9sXQf1SyppS5B6O1]{靈導械瞄準 Automaton Aim} 動作。</p>"
        },
        "Shoreline Strix": {
            "name": "濱涉梟鬼 Shoreline Strix",
            "description": "<p>你的祖先遷徙到了大海之濱。你的羽毛避水性極佳，又有著適於潛水的外型，方便你捕捉魚和其他淺水畜的獵物。你受訓於運動，並獲得 @UUID[Compendium.pf2e.feats-srd.iOY6YfGBaOvMNAor]{浪裡白條 Underwater Marauder} 作為獎勵專長。</p>"
        },
        "Shortshanks Hobgoblin": {
            "name": "短脛大地精 Shortshanks Hobgoblin",
            "description": "<p>相比於其他大地精，你的軀幹更長，肩膀更寬，令你的腿顯得很短。這給予了你強健的核心力量並降低了你的重心——這能夠輔助你進行騎乘和攀爬——並且你在非常小的時候就開始學習在鞍上騎乘。你獲得 @UUID[Compendium.pf2e.feats-srd.Rq5wkA8DtsmbzoGV]{驍騎手 Ride} 專長。另外，你在攀爬時不會陷入 @UUID[Compendium.pf2e.conditionitems.AJh5ex99aV6VTggg]{措手不及 Flat-Footed} 。</p>"
        },
        "Skilled Heritage": {
            "name": "精熟傳承 Skilled Heritage",
            "description": "<p>你的聰明才智可以讓你對各種技能都可能有受訓。你選擇一項技能並受訓。在5級時，你成為所選技能的專家</p>"
        },
        "Skyborn Tengu": {
            "name": "翔空天狗 Skyborn Tengu",
            "description": "<p>或是骨骼特別輕盈，或是身為長有翅膀的罕見天狗，又或是與風及天空的精魂的連結特別強，總之你從空中落下的速度比別人慢。不管你掉落了多少距離，你都不會受到墜落傷害。</p>"
        },
        "Smokeworker Hobgoblin": {
            "name": "行軍大地精 Smokeworker Hobgoblin",
            "description": "<p>你的家族好幾代都是煉金術士、工程師、以及科學家，持續鑽研著用於將火焰和煙霧帶到戰場上的軍事專案。你獲得等同於你等級一半的火焰抗性（最低1點）。你在瞄準一個只受到煙霧造成的 @UUID[Compendium.pf2e.conditionitems.DmAIPqOBomZ7H95W]{隱蔽 Concealed}的生物時需要進行的@Check[type:flat|dc:5]檢定中自動成功。</p>"
        },
        "Snaptongue Grippli": {
            "name": "利舌樹蛙人 Snaptongue Grippli",
            "description": "<p>你的舌頭特別長，你可以以非凡的射程和準度射出它。你可以用你的舌頭傳遞接觸射程的法術以及執行極簡單的互動動作，例如開啟某些沒上鎖的門。你的舌頭不能執行需要手指或靈巧雙手的動作，包括任何需要通過檢定才能達成的動作，你不能使用它來握持物品。</p>"
        },
        "Snaring Anadi": {
            "name": "誘捕半蛛人 Snaring Anadi",
            "description": "<p>你在孵化時就帶著鉤狀的尖牙，這讓你在以真實形態進行捕獵時獲得優勢。你的尖牙打擊獲得擒抱（grapple）和摔絆特徵。</p>"
        },
        "Snow Goblin": {
            "name": "雪地精 Snow Goblin",
            "description": "<p>你適應了寒冷土地上的生活，擁有天藍色到海藍色之間的膚色，而且毛髮也是藍色的。你獲得等於你等級一半的寒冷抗性（最低1點）。你將環境造成的寒冷效果視為在嚴重程度上低一級（酷寒incredible cold視為極寒extreme cold，酷寒視為嚴寒severe cold，以此類推）。</p>"
        },
        "Snow Rat": {
            "name": "凍雪鼠族 Snow Rat",
            "description": "<p>你身寬毛厚足以禦寒。這使得你獲得1/2角色等級(最小為1)的寒冷抗力。低溫環境對你的效果比實際上減輕1階(酷寒→極寒→嚴寒以此類推)。</p>"
        },
        "Songbird Strix": {
            "name": "歌鳴梟鬼 Songbird Strix",
            "description": "<p>你的祖上有許多精通韻誦的梟鬼，大自然的聲響總令你大發歌興；你從巍峨的山峰飛往純淨的原野，暢快地吸飽清新的空氣，鼓顫舌頭，用嘹亮的鳴音吟唱甜美的歌曲。而人們的聲音，則每每讓你好奇仿效。當你在只受聲音影響的情境下使用欺騙技能來喬裝別人的聲音，檢定獲得+1環境加值；如果你的欺騙熟練度為大師，環境加值提升為+2。另外，你在歌唱時的表演技能檢定獲得+1環境加值；如果你的表演熟練度為大師，環境加值提升為+2。</p>"
        },
        "Spellkeeper Shisk": {
            "name": "傳法希斯克 Spellkeeper Shisk",
            "description": "<p>你的魔法知識讓你可以施放簡單的法術。在異能和原能中選擇一種。你獲得一個所選魔法根源對應法術列表中的戲法。你可以將此戲法作為可隨意施展的視同你所選根源的內在法術。此戲法將被升階至等同你等級一半，向上取整。</p>"
        },
        "Spellscale Kobold": {
            "name": "法鱗狗頭人 Spellscale Kobold",
            "description": "<p>一縷龍之魔力在你的血管中流淌。從奧術法術列表中選擇1個戲法。你將其作為奧術內在法術並能隨意施放它。戲法會升階至環級為你角色等級的一半（向上取整）。你在奧術法術攻擊檢定（arcane spell attack rolls）以及法術DC（spell DCs）上達到受訓熟練度（trained proficiency），你的關鍵施法屬性為魅力。</p>"
        },
        "Spindly Anadi": {
            "name": "纖痩半蛛人 Spindly Anadi",
            "description": "<p>你在兩種形態中的肢體都非常長，讓你能夠以驚人的敏捷快速移動。你的速度從25尺增加到30尺。</p>"
        },
        "Spined Azarketi": {
            "name": "棘刺阿扎克緹人 Spined Azarketi",
            "description": "<p>你的鰭中隱藏著可發射的毒刺。你獲得遠端非武裝（ranged unarmed）攻擊棘刺，這攻擊造成 [[/r 1d4[poison]]]傷害，射程為10尺，屬於飛鏢（dart）武器組。</p>"
        },
        "Steelskin Hobgoblin": {
            "name": "鋼皮大地精 Steelskin Hobgoblin",
            "description": "<p>當你被割傷或燒傷時，你的身體會產生反應，生成一種強韌又柔軟的繭包復創口。久而久之，這讓你身體上最脆弱的地方變得更堅硬，能抵抗更多的傷害。許多鋼皮大地精會刻意用刀刃和火焰在自己的身體上留下錯綜複雜的疤痕圖紋，但這並不普遍。你從持續型物理（包括流血）、能量或毒素傷害中恢復的純骰檢定的DC是@Check[type:flat|dc:13]{13}（替換15），在得到特別有效的輔助時，純骰檢定DC變為@Check[type:flat|dc:8]{8}。</p>"
        },
        "Stickytoe Grippli": {
            "name": "黏趾樹蛙人 Stickytoe Grippli",
            "description": "<p>你的手腳滲出一層有助於粘附在表面的薄膜。你在對抗繳械，推撞，或絆摔時在強韌和反射DC上獲得+2環境加值。當攀爬樹木，藤蔓，或其他植物時，如果你在攀爬的運動檢定上骰出成功結果，那麼改為你獲得大成功結果。</p>"
        },
        "Stormtossed Tengu": {
            "name": "雷震天狗 Stormtossed Tengu",
            "description": "<p>可能是由於黑風的加護，或者是在雷霆暴風中孵化而得的異能，你對風暴有著天生抗性。你獲得等同於你角色等級的一半(向上取整)的電擊抗力。</p>\n<p>若 @UUID[Compendium.pf2e.conditionitems.DmAIPqOBomZ7H95W]{隱蔽 Concealed} 目標的隱蔽狀態僅來自於雨或霧，則你在用來瞄準他的純骰檢定上自動成功。</p>"
        },
        "Strong-Blooded Dwarf": {
            "name": "堅韌矮人 Strong-Blooded Dwarf",
            "description": "<p>你的血液洶湧澎湃，讓你更能抵禦劇毒。你獲得等於你等級的一半的毒素抗力（最小1）。每一次對抗毒素苦難的成功的豁免檢定都會使其降低2階段，惡性毒素則為1階段。每個對抗持續毒素的大成功會使其降低3階段，惡性毒素則為2階段。</p>"
        },
        "Stronggut Shisk": {
            "name": "健胃希斯克 Stronggut Shisk",
            "description": "<p>你的代謝很緩慢，這讓你可以幾天不吃東西，並且病情也會以更慢的速度變化。你在沒有食物的情況下可以堅持一個星期再出現飢餓問題。此外，所有影響你的疾病和毒素效果，潛伏期和每階段的間歇期②將延長50%。如果潛伏期或階段間歇期為立即或只持續一輪，則此能力不起作用。</p>"
        },
        "Strongjaw Kobold": {
            "name": "壯顎狗頭人 Strongjaw Kobold",
            "description": "<p>你的血脈以強壯的下顎和鋒利的牙齒而聞名。你會獲得顎咬（jaws）作為非武裝攻擊，它會造成 [[/r 1d6[piercing]]]傷害。你的顎咬屬於搏擊(brawling）武器組並且具有嫻熟（finesse）和非武裝（unarmed）特性。</p>"
        },
        "Stuffed Poppet": {
            "name": "填充人偶 Stuffed Poppet",
            "description": "<p>你的體內除了棉花、鋸末或幹樹葉之外啥也沒有。你不會因為墜落而受到傷害，無論你墜落的距離有多少。</p>"
        },
        "Suli": {
            "name": "巨靈裔傳承 Suli",
            "description": "<p>你的祖先是小巨靈或是以其他方式體現了對立的元素位面力量。除了你的族裔特質外，你還獲得了巨靈裔的特性。你還會獲得 @UUID[Compendium.pf2e.ancestryfeatures.DRtaqOHXTRtGRIUT]{昏暗視覺 Low-Light Vision} ，如果你的族裔已經擁有昏暗視覺，你會獲得 @UUID[Compendium.pf2e.ancestryfeatures.HHVQDp61ehcpdiU8]{黑暗視覺 Darkvision} 。每當你獲得一項族裔專長時，你可以從巨靈裔專長和你族裔的專長中選擇。</p>"
        },
        "Sweetbreath Gnoll": {
            "name": "甜息豺狼人 Sweetbreath Gnoll",
            "description": "<p>你是個生著斑紋與淺色毛髮的豺狼人，撥出的氣體能給人以奇異的愉悅感，並能夠以此接近你的獵物。你在交涉上的熟練度達到受訓（或其他一項技能，若你已在交涉上受訓)。如果目標能聞到你撥出的氣體，你在建立印象檢定中獲得+1環境加值。</p>\n<hr />\n<p><em>備註:如果你在此專長獲得的技能已受訓，你可以選擇自己選擇一個其它技能來替代。</em></p>"
        },
        "Sylph": {
            "name": "風元素裔傳承 Sylph",
            "description": "<p>你是風元素的後裔，或在氣元素的影響下出生。除了你的族裔特性之外，你還獲得了風元素裔特性。你獲得 @UUID[Compendium.pf2e.ancestryfeatures.DRtaqOHXTRtGRIUT]{昏暗視覺 Low-Light Vision} ，若你的族裔已有昏暗視覺，則改為獲得 @UUID[Compendium.pf2e.ancestryfeatures.HHVQDp61ehcpdiU8]{黑暗視覺 Darkvision} 。你在選取族裔專長時，能選取風元素裔專長或原族裔的專長。</p>"
        },
        "Tactile Azarketi": {
            "name": "波敏阿扎克緹人 Tactile Azarketi",
            "description": "<p>你的面板可以探測到洋流中最輕微的變化。你獲得了波浪感應的模糊感官（imprecise wavesense），範圍為30尺，使你能夠在水中感覺到你周圍的動靜。你也獲得了在水生環境中感知方向（sense direction）的生存（survival）技能檢定的+1加值。</p>"
        },
        "Tailed Goblin": {
            "name": "長尾地精 Tailed Goblin",
            "description": "<p>你有一條有力的尾巴，可能是因為你來自一個猴地精社群。你用於 @UUID[Compendium.pf2e.actionspf2e.pprgrYQ1QnIDGZiy]{攀爬 Climb} 的運動檢定獲得+2環境加值，你獲得 @UUID[Compendium.pf2e.feats-srd.09PurtIanNUPfNRq]{戰鬥攀爬 Combat Climber} 作為獎勵專長，並且你攀爬或 @UUID[Compendium.pf2e.actionspf2e.ge56Lu1xXVFYUnLP]{摔絆 Trip} 所需的空閒手數少一。</p>"
        },
        "Taloned Tengu": {
            "name": "利爪天狗 Taloned Tengu",
            "description": "<p>你指尖的銳爪跟你的鳥喙一樣又硬又利，你獲得造成 [[/r 1d4[slashing]]]傷害的爪擊無武裝攻擊。這個爪擊屬於搏擊武器組，並持有靈巧、嫻熟、無武裝、多用S特性。</p>"
        },
        "Technological Fleshwarp": {
            "name": "科技塑肉體 Technological Fleshwarp",
            "description": "<p>你的轉化來自於先進技術的操控，就像在紐梅利亞（Numeria）所發生的那樣。你的感情很遲鈍，很難受到影響。當你對抗情緒（emotion） 效果的豁免檢定成功時，你獲得大成功的結果。</p>"
        },
        "Thalassic Azarketi": {
            "name": "大洋阿扎克緹人 Thalassic Azarketi",
            "description": "<p>你的血統來自於在世界的大洋中生活的阿扎克緹人。你知道如何利用水流和水的原能魔法來引導你的攻擊。你獲得了 @UUID[Compendium.pf2e.feats-srd.iOY6YfGBaOvMNAor]{浪裡白條 Underwater Marauder} 技能專長，在與水下目標作戰時，你的穿透性（piercing）遠端攻擊的射程不會被減半。</p>"
        },
        "Thickcoat Shoony": {
            "name": "厚衫舒尼 Thickcoat Shoony",
            "description": "<p>你是一個出身於寒冷地區的稀有舒尼。你獲得寒冷抗力（cold resistance），數值等於你等級的半值（最低1），你對待環境的寒冷效果時視為比實際效果低一級（寒冷等級從酷寒降到極寒，極寒降為嚴寒，等等以此類推）。如果一個生物僅依靠雪獲得 @UUID[Compendium.pf2e.conditionitems.DmAIPqOBomZ7H95W]{隱蔽 Concealed} 狀態，你不需要進行純骰檢定就可以將該生物作為攻擊或其它行動的目標。除非你穿著有保護性的裝置，或尋求庇護，否則環境的灼熱效果（heat effect）視為比實際效果高一級。</p>"
        },
        "Tiefling": {
            "name": "魔裔 Tiefling",
            "description": "<p>你是魔界生物的後裔，或被某個魔界位面所浸染，身上長著彰顯你魔界血脈的反常特性，例如角或尾巴。除了你族裔的特徵外，你還額外獲得魔裔特徵。你獲得 @UUID[Compendium.pf2e.ancestryfeatures.DRtaqOHXTRtGRIUT]{昏暗視覺}，如果你的族裔已有昏暗視覺，則改為獲得 @UUID[Compendium.pf2e.ancestryfeatures.HHVQDp61ehcpdiU8]{黑暗視覺}。你在選取族裔專長時，能選取魔裔專長或原族裔的專長。</p>"
        },
        "Toy Poppet": {
            "name": "玩具人偶 Toy Poppet",
            "description": "<p>你的外形就像孩子的小玩具或娃娃，但你不會讓你的小尺寸妨礙你的生活樂趣。你的體型是超小型而非小型。超小型有自己的一套空間和觸及的規則。你可以進入另一個生物佔據的空間，這很重要，因為你的近戰攻擊通常沒有觸及，這意味著你必須進入他們的空間來攻擊他們。就像其他超小型生物一樣，你不會因為在一個較大的生物的空間裡而自動得到次等掩蔽，但環境可能允許你進行尋找掩護(Take Cover)。你可以購買適合你體型武器、盔甲和其他物品，其資料與普通裝備相同，只是近戰武器的觸及對你為0（如果它們有觸及的特性，則攻擊範圍比平時短5尺）。記住要調整物品的負載和你的超小型負載限制。</p>"
        },
        "Treedweller Goblin": {
            "name": "樹棲地精 Treedweller Goblin",
            "description": "<p>你特別適應生活在森林環境中。只要你在森林或叢林中，你用於 @UUID[Compendium.pf2e.actionspf2e.XMcnh4cSI32tljXa]{躲藏 Hide}and @UUID[Compendium.pf2e.actionspf2e.VMozDqMMuK5kpoX4]{潛行 Sneak} 的隱祕檢定， @UUID[Compendium.pf2e.actionspf2e.49y9Ec4bDii8pcD3]{求生 Subsist}的生存檢定，和 @UUID[Compendium.pf2e.actionspf2e.SB7cMECVtE06kByk]{掩蓋行蹤 Cover Tracks}的生存DC獲得+2環境加值。</p>"
        },
        "Tunnel Rat": {
            "name": "窄隧鼠族 Tunnel Rat",
            "description": "<p>驚人地細小的骨骼使你可以自在地擠過窄縫。你獲得 @UUID[Compendium.pf2e.feats-srd.3G8xUlgCjRmRJNfP]{迅速穿越 Quick Squeeze} 技能專長，即便你在特技技能上未受訓。此外，你不將不需要進行擠入空間動作就能進入的狹窄空間視為困難地形。</p>"
        },
        "Tunnelflood Kobold": {
            "name": "隧泳狗頭人 Tunnelflood Kobold",
            "description": "<p>你在一個水下隧道縱橫交錯的巢穴中長大，它可能是天然的也可能是人工建造的。你獲得15尺的游泳速度。</p>"
        },
        "Twilight Halfling": {
            "name": "暮色半身人 Twilight Halfling",
            "description": "<p>你的祖先在黃昏的隱蔽掩護下進行了許多祕密的行動，無論是好是壞。隨著時間的推移，他們甚至超越了半身人常見的敏銳視覺，發展出了能夠在暮色中視物的能力。你獲得 @UUID[Compendium.pf2e.ancestryfeatures.DRtaqOHXTRtGRIUT]{昏暗視覺 Low-Light Vision}。</p>"
        },
        "Umbral Gnome": {
            "name": "暗影侏儒 Umbral Gnome",
            "description": "<p>無論是來自與黑暗或陰影精類的聯絡，還是繼承於地底深處、又被稱為地底侏儒的侏儒，亦或是其他原因，你可以在完全黑暗中視物。你獲得 @UUID[Compendium.pf2e.ancestryfeatures.HHVQDp61ehcpdiU8]{黑暗視覺 Darkvision} 。</p>"
        },
        "Unbreakable Goblin": {
            "name": "頑強地精 Unbreakable Goblin",
            "description": "<p>由於特別厚的頭骨、軟骨、或其他利弊共存的情況，你可以很容易地恢復傷勢。你從族裔獲得的生命值為10點而非6點。當你墜落時，你受到的墜落傷害會被降低，如同你的墜落距離只有原本的一半。</p>"
        },
        "Undine": {
            "name": "水元素裔傳承 Undine",
            "description": "<p>一位水元素的元素先祖影響了你的血脈。除了你的族裔特質外，你還獲得了水元素裔的特性。你還會獲得10尺游泳速度和兩棲特性。與所有帶有兩棲特性的生物一樣，你可以在空氣和水中呼吸。每當你獲得一項族裔專長時，你可以從水元素裔專長和你族裔的專長中選擇。</p>"
        },
        "Unseen Lizardfolk": {
            "name": "隱形蜥蜴人 Unseen Lizardfolk",
            "description": "<p>你可以通過改變你的膚色來融入周圍的環境。使用一次單動作可以造成微小的變色，而在1小時之內能夠完成大幅度的顏色轉換。</p>\n<p>當你的膚色和身處的環境顏色大致相近時（例如帶著森林綠的面板身處於森林中），你可以通過一次單動作來使用這個能力，讓膚色做出一些區域性的改變以融入當前的環境，你的隱匿鑑定獲得+2的環境價值，直到你周圍的顏色和紋理髮生變化為止。</p>"
        },
        "Venomous Anadi": {
            "name": "毒牙半蛛人 Venomous Anadi",
            "description": "<p>你在天然形態下的尖牙能給人注射毒液。你獲得 @UUID[Compendium.pf2e.actionspf2e.8aIe57gXJ94mPpW4]{半蛛人毒液 Anadi Venom} 能力。</p>"
        },
        "Venomtail Kobold": {
            "name": "毒尾狗頭人 Venomtail Kobold",
            "description": "<p>你尾巴上的骨刺每日會分泌1劑致命毒素。</p>\n<p>你獲得 @UUID[Compendium.pf2e.actionspf2e.ev8OHpBO3xq3Zt08]{尾部毒腺 Tail Toxin} 動作。</p>"
        },
        "Versatile Heritage": {
            "name": "多才傳承 Versatile Heritage",
            "description": "<p>人類的多才多藝和雄心壯志將他們推動為了世界各國最常見的先祖。選擇一項滿足前置的通用專長(如同先祖專長，你可以選擇這個通用專長在建立角色的任意時點中）。</p>"
        },
        "Vicious Goloma": {
            "name": "凶悍戈洛瑪 Vicious Goloma",
            "description": "<p>你手上的幾丁質構成了足以保護你自己的有力爪子。你獲得能夠造成 [[/r 1d6[slashing]]]傷害的利爪無武裝攻擊。你的利爪屬於搏擊武器組，擁有靈巧、嫻熟和無武裝特徵。</p>"
        },
        "Vigilant Goloma": {
            "name": "警覺戈洛瑪 Vigilant Goloma",
            "description": "<p>你不僅僅學會了如何注意到物理層面明晃晃的危險，還學會了如何察覺顯著的魔法威脅。你能以奧術內在法術形式隨意施放 <em>@UUID[Compendium.pf2e.spells-srd.gpzpAAAJ1Lza2JVl]{偵測魔法 Detect Magic}</em> 戲法。戲法環級提升到你等級的一半，向上取整。此外，你的意識會讓你比別人更容易發現魔法陷阱。當試圖偵測魔法陷阱時，你在察覺上的熟練等級視作高一級 (受訓視作專家，專家視作大師，大師視作傳奇) 。</p>"
        },
        "Vine Leshy": {
            "name": "藤蔓萊西 Vine Leshy",
            "description": "<p>纏繞在你身體裡的藤曼賦予了你無與倫比的攀爬能力。你不需要任何空閒的手就能進行 @UUID[Compendium.pf2e.actionspf2e.pprgrYQ1QnIDGZiy]{攀爬 Climb} 。除此之外，如果你在一次進行攀爬的運動檢定上獲得成功時，你將結果改為大成功。</p>"
        },
        "Vivacious Gnome": {
            "name": "活潑侏儒 Vivacious Gnome",
            "description": "<p>你與流經第一世界的正能量有著難以置信的緊密聯絡，這使得用負能量攻擊你的生命力變得更加困難。你獲得的一半於你等級的負能量抗性（最低1點）。當你陷入 @UUID[Compendium.pf2e.conditionitems.3uh1r86TzbQvosxv]{毀滅 Doomed} 狀態時，判斷該狀態的效果時狀態值比原本低1點（毀滅1無效果，毀滅2讓你在 @UUID[Compendium.pf2e.conditionitems.yZRUzMqrMmfLu0V1]{瀕死 Dying 3} 時死亡，以此類推）。).</p>"
        },
        "Warmarch Hobgoblin": {
            "name": "行軍大地精 Warmarch Hobgoblin",
            "description": "<p>你來自一個遊蕩的僱傭軍團，總是在行軍的路途上，擅長沿路收集各種食物。如果你在 @UUID[Compendium.pf2e.actionspf2e.49y9Ec4bDii8pcD3]{求生 Subsist} 檢定中陷入失敗，而非大失敗時，你仍然能夠用貧乏的食糧餵飽自己。在探索中，你可以 @UUID[Compendium.pf2e.actionspf2e.JuqmIAnkL9hVGai8]{強行軍 Hustle} 兩倍的時間。</p>"
        },
        "Warrenbred Hobgoblin": {
            "name": "狡兔大地精 Warrenbred Hobgoblin",
            "description": "<p>你的族裔住在地下。你的耳朵比其他大地精都大，並且對回聲十分敏感。當你在地下時，你可以使用 @UUID[Compendium.pf2e.actionspf2e.BlAOM2X92SI6HMtJ]{搜尋 Seek} 動作感知 @Template[type:burst|distance:30] 內的 @UUID[Compendium.pf2e.conditionitems.VRSef5y1LmL2Hkjf]{無蹤 Undetected} 替代正常的 @Template[type:burst|distance:15] 範圍。另外，如果你在 @UUID[Compendium.pf2e.actionspf2e.kMcV8e5EZUxa6evt]{擠入空間 Squeeze} 的特技檢定中達成成功，你會達成大成功。</p>"
        },
        "Warrior Android": {
            "name": "戰鬥型仿生人 Warrior Android",
            "description": "<p>你的身體是作為一個保鏢或士兵而被創造出來的，你是天生的戰士。你在所有簡單及軍用武器上受訓。</p>"
        },
        "Warrior Automaton": {
            "name": "戰鬥型靈導械 Warrior Automaton",
            "description": "<p>你體型龐大、強力設計的身軀被設計用於戰鬥。你具有一個龐大、類人的外形。你拳頭（fist）的傷害骰從 1d4 提升到 1d6。當使用你的拳頭或任何其他非致命攻擊進行一次致命攻擊時，你無需承受減值。</p>"
        },
        "Wavediver Tengu": {
            "name": "破浪天狗 Wavediver Tengu",
            "description": "<p>你是少有的，能夠像鳥兒在空中飛翔般，在水中自由自在地潛游的天狗，而且你經常潛伏在河流或海洋中，少有人知。你獲得15尺的游泳速度。</p>"
        },
        "Wellspring Gnome": {
            "name": "祕源侏儒 Wellspring Gnome",
            "description": "<p>另一種魔法對你的影響蓋過了你體內精類血脈帶來的原能魔法的影響。這種聯絡的來源可能是一個異能位面或一首異能古曲；神祇、天族或魔族；法師戰爭遺留下來的魔法汙染；也可能是古老的符文魔法。</p>\n<p>選擇奧術、神術或異能。你獲得此魔法根源法術列表中的一個戲法。你可以將它作為你所選根源的內在法術隨意施放。戲法會升階到等於一半你等級的環級，向上取整。每當你從侏儒族裔專長而獲得原能內在法術時，將它的根源從原能改為你所選擇的根源。</p>"
        },
        "Wetlander Lizardfolk": {
            "name": "溼地蜥蜴人 Wetlander Lizardfolk",
            "description": "<p>你的家族是最常見的蜥蜴人的後裔，你已經習慣了水生環境。你獲得15尺的。 @UUID[Compendium.pf2e.actionspf2e.c8TGiZ48ygoSPofx]{游泳 Swim} 速度。</p>"
        },
        "Whisper Elf": {
            "name": "低語精靈 Whisper Elf",
            "description": "<p>你的耳朵同調的很好，即使最輕微的細語也可以聽見。</p>\n<p>只要你可以如常聽見，你在使用 @UUID[Compendium.pf2e.actionspf2e.BlAOM2X92SI6HMtJ]{搜尋} 動作時可以感知半徑60尺錐形而非30尺錐形內的 @UUID[Compendium.pf2e.conditionitems.VRSef5y1LmL2Hkjf]{無蹤} 生物。</p>\n<p>你還在依靠聽覺使用搜尋動作來定位30尺內無蹤生物時獲得了+2環境加值。</p>"
        },
        "Wildwood Halfling": {
            "name": "深林半身人 Wildwood Halfling",
            "description": "<p>你來自叢林或森林的深處，早已學會了利用你那矮小的體型來在灌木叢、藤蔓和其他阻礙間穿梭。你忽略樹木、枝葉和灌木叢形成的困難地形。</p>"
        },
        "Windup Poppet": {
            "name": "發條人偶 Windup Poppet",
            "description": "<p>你的身體由軟金屬、如錫或銀製成，你的生命活力潛藏在你體內一個特殊的齒輪陣列中。只要你每天給身體上好發條，你就不需要食物或水來生存。你仍然必須通過呼吸來為你的內部機械通風，並通過睡眠來讓你的機械得到休息，就像其他人偶一樣。</p>"
        },
        "Windweb Grippli": {
            "name": "風蹼樹蛙人 Windweb Grippli",
            "description": "<p>你手指與腳趾間堅韌的腳蹼能夠減緩任何墜落。只要你有一隻空著的手，你就免受墜落傷害，無論你的墜落距離有多高。</p>"
        },
        "Winter Catfolk": {
            "name": "冬毛貓族 Winter Catfolk",
            "description": "<p>你長了一身足以禦寒的粗厚毛髮。這使得你獲得1/2角色等級(最小為1)的寒冷抗力。低溫環境對你的效果比實際上減輕1階(酷寒→極寒→嚴寒以此類推)。</p>"
        },
        "Winter Orc": {
            "name": "凜冬獸人 Winter Orc",
            "description": "<p>你的祖先在寒冷的氣候裡存活了下來。你在生存技能上獲得受訓熟練度，你將來自環境的寒冷效果視作減緩一級（酷寒變為極寒，極寒變為嚴寒，以此類推）。</p>"
        },
        "Wintertouched Human": {
            "name": "冬撫之民 Wintertouched Human",
            "description": "<p>寒冬的力量在你身上流動。這一傳承在伊利森的雅德維嘉人——由於他們都是芭芭雅嘎的後代——與某些被精魂觸碰的艾魯塔基人中最為常見。你獲得等同於你等級一半（至少為1）的寒冷抗性，並且你受環境的寒冷效果影響減弱一級（酷寒變為極寒，極寒變為嚴寒，依此類推）。</p>"
        },
        "Wishborn Poppet": {
            "name": "願生人偶 Wishborn Poppet",
            "description": "<p>你因願望而生，或許是來自一個強大的施法者，或是一個深愛你的普通人的真誠祈願。你的存在本身就證明充滿希望的精神可以克服任何障礙。如果你在對情緒或恐懼效果的豁免中成功，你會獲得大成功。</p>"
        },
        "Wisp Fetchling": {
            "name": "袖珍竊影鬼 Wisp Fetchling",
            "description": "<p>你的祖先暴露在陰影位面的影響下，造成了巨大的身體變化。你的頭髮或面板顯得更加虛無，身材比其他竊影鬼更苗條和靈活。你的體型為<strong>小型 Small</strong> 而非 <strong>中型 Medium</strong>。你的特技技能受訓，並且獲得 @UUID[Compendium.pf2e.feats-srd.3G8xUlgCjRmRJNfP]{迅速穿越 Quick Squeeze} 技能專長，並且在嘗試翻滾（Tumble Through）時的特技檢定上有+1環境加值。如果你的特技已經受訓（例如從背景或職業中獲得），你可以另選一個技能受訓。</p>"
        },
        "Witch Gnoll": {
            "name": "魔音豺狼人 Witch Gnoll",
            "description": "<p>你是個多毛的深色豺狼人，能夠發出某些真正不可思議的聲音。你可以任意施展 <em>@UUID[Compendium.pf2e.spells-srd.atlgGNI1E1Ox3O3a]{幻音術 Ghost Sound}</em> 戲法作為一個異能內在法術。這個戲法會自動升階到1/2你的角色等級的環位。此外，你在僅使用聲音進行的喬裝和分神檢定中獲得+1環境加值。</p>"
        },
        "Woodland Elf": {
            "name": "森林精靈 Woodland Elf",
            "description": "<p>你已經適應了在樹林或是叢林中生活，並且知道如何爬樹和利用枝葉獲得優勢。在 @UUID[Compendium.pf2e.actionspf2e.pprgrYQ1QnIDGZiy]{攀爬} 樹木，藤蔓以及其他枝葉時，在檢定成功時可以半速移動，在大成功時可以全速移動（如果你擁有 @UUID[Compendium.pf2e.feats-srd.P04Hw8E6WAWARKHP]{快速攀爬}，那麼你檢定成功時就可以全速移動）。如果你使用攀爬速度，那麼這不會對你起效。</p>\n<p>當你處於森林地形中，即使你並沒有臨接可以用來尋找掩體的障礙物，你也可以使用 @UUID[Compendium.pf2e.actionspf2e.ust1jJSCZQUhBZIz]{尋找掩體}動作來獲得掩蔽。</p>"
        },
        "Woodstalker Lizardfolk": {
            "name": "潛林蜥蜴人 Woodstalker Lizardfolk",
            "description": "<p>你運用每一個樹枝或灌木，輕易地穿梭茂密的森林和叢林。當你在森林或叢林地形時，你總能使用尋找掩蔽動作以獲得掩蔽（cover），即使你鄰近沒有正常情況下能尋找掩蔽的障礙。你獲得 @UUID[Compendium.pf2e.feats-srd.beyw5bdA5hkQbmaG]{地形潛伏者 Terrain Stalker} 專長，即使你沒有在隱祕中受訓，而且你必需選擇灌木（Underbrush）作為你的地形。</p>"
        },
        "Stonestep Shisk": {
            "name": "巖步希斯克 Stonestep Shisk",
            "description": "<p>穿越山脈和其他岩石地貌對你而言已經是一種本能。你可以忽略由小石子和土石材質的崎嶇地面造成的非魔法困難地形效果。</p>"
        },
        "Deep Fetchling": {
            "name": "深暗竊影鬼 Deep Fetchling",
            "description": "<p>你的祖先居住在陰影位面最深、最危險的區域。你的陰影更為濃重、心跳更為緩慢，並能在黑暗的擁抱中找到慰藉。當你獲得此遺傳時，選擇寒冷或負能量抗力，其數值等於你等級的一半（最少為1）。</p>"
        },
        "Dragonscaled Kobold": {
            "name": "龍鱗狗頭人 Dragonscaled Kobold",
            "description": "<p>你的鱗片特別鮮豔，它與真龍的鱗片一樣具有抗性。你獲得某種傷害型別的抗力，數值為你等級的一半（最低1點），該抗力抵抗的傷害型別與你的龍血典範相同（見表1-1）。在對抗龍類的噴吐武器時，該抗力翻倍。</p>"
        },
        "Compact Skeleton": {
            "name": "緊湊骷髏 Compact Skeleton",
            "description": "<p>對於那些需要精細操作的任務，侏儒、地精和半身人的遺骸會比更大的生物更合適。這些更小、更靈活的骷髏能夠輕易地被塞進旅行箱、能夠強行通過狹窄空間、能夠更好地藏起來。你的體型從中型改為小型。你獲得@UUID[Compendium.pf2e.feats-srd.3G8xUlgCjRmRJNfP]{迅速穿越 Quick Squeeze}專長，即使你沒有特技受訓。不需要使用擠入空間的狹窄空間對於你而言不是困難地形。</p>"
        },
        "Fodder Skeleton": {
            "name": "素材骷髏 Fodder Skeleton",
            "description": "<p>人類、以及那些軀體相近的種族，是死靈師最喜歡使用的素材。他們易於獲得，而且生理特徵已經被廣泛地研究過，所以很容易大規模生產這種骷髏。儘管名稱各異，但素材骷髏由於他們體內的死亡能量的傳遞效率，能成為相當靈活的士兵。你的基礎速度從25尺提升到30尺。</p>"
        },
        "Monstrous Skeleton": {
            "name": "怪物骷髏 Monstrous Skeleton",
            "description": "<p>創造一名非人型的骷髏通常為了它們致命的軀體攻擊和可怕的外表。一個技藝高超的死靈師，往往會從具備奇形怪狀骨骼的魔獸和怪物般的類人生物中喚起骷髏，以充作他們收集品的核心。你獲得一項爪抓、角抵、尾掃、或翼擊的無武裝攻擊，並造成1d6傷害。爪抓造成揮砍傷害、角抵造成穿刺傷害、尾掃和翼擊造成鈍擊傷害。該無武裝攻擊屬於搏擊武器組，具有嫻熟和無武裝特徵。</p>"
        },
        "Sturdy Skeleton": {
            "name": "強健骷髏 Sturdy Skeleton",
            "description": "<p>某些危險的條件不適合一般的骷髏，所以死靈師可能會選擇從矮人、獸人或其他以健壯著稱的生物中喚起骷髏。你從種族中獲得10hp，而不是6hp，並獲得@UUID[Compendium.pf2e.feats-srd.I0BhPWqYf1bbzEYg]{死硬 Diehard}專長。</p>"
        },
        "Pine Leshy": {
            "name": "松樹萊西 Pine Leshy",
            "description": "<p>你包裹樹皮的身體能分泌一種厚而稠的粘液，讓攀爬和抓握裝備變得更加容易。你獲得@UUID[Compendium.pf2e.feats-srd.09PurtIanNUPfNRq]{戰鬥攀爬 Combat Climber}專長作為獎勵專長，並且每當有人嘗試@UUID[Compendium.pf2e.actionspf2e.Dt6B1slsBy8ipJu9]{卸武 Disarm}你的時候，你的反射DC獲得+2環境加值。</p>"
        },
        "Reflection": {
            "name": "映象 Reflection",
            "description": "<p>你被創造作為另一個生物的複製體，故意或偶然皆有，儘管你可能並不知曉自身的起源。除了一兩個小記號外，你看起來與你的原身幾乎相同。你在你的族裔特徵外，額外獲得映象特徵。你喬裝成你的原身時不需要嘗試欺騙檢定，除非你在與相當熟悉他的人互動或你做了一些不符合他性格的事。GM也可能會在其他情況要求你擲骰欺騙檢定，比如你誕自鏡中，並且與一個看見你與原身的高度相似卻注意到某個顯著特徵在相反一面的人互動時。每當你獲得一個族裔專長時，你可以從映象專長和你的族裔專長中選擇。</p>"
        },
        "Ancient Ash": {
            "name": "古之餘燼 Ancient Ash",
            "description": "<p>你的記憶敏銳而清晰，你記得那麼多。你還記得暴風雨前的寧靜和雨後的泥土味道，魔法的刺鼻氣味和低語之歌。你把它們全都記住了。你選擇一個技能受訓。在五級時，這個技能變為專家熟練度。</p>"
        },
        "Enchanting Lily": {
            "name": "妖嬈百合 Enchanting Lily",
            "description": "<p>你聞起來如此甜美——一種柔和的花香，就像百合醉人的芬芳和丁香花的柔和芬芳。 你的交涉技能受訓（如果你的已經交涉技能已經受訓，則可以改為其他技能受訓）。 如果目標能聞到你的香味，你在@UUID[Compendium.pf2e.actionspf2e.OX4fy22hQgUHDr0q]{建立印象 Make an Impression}檢定中獲得+1環境加值。</p>"
        },
        "Strong Oak": {
            "name": "堅如橡木 Strong Oak",
            "description": "<p>大多數蒿蘭人都有柔軟的藤蔓和堅韌的莖幹，但你長回了堅固、粗糙的樹皮，並且你的腿像根一樣穩定。在對抗@UUID[Compendium.pf2e.actionspf2e.PMbdMWc2QroouFGD]{擒拿 Grapple}或@UUID[Compendium.pf2e.actionspf2e.ge56Lu1xXVFYUnLP]{摔絆 Trip}你的嘗試時你的強韌或反射DC在獲得+2環境加值。該加值也應用於對抗會@UUID[Compendium.pf2e.conditionitems.kWc1fhmv9LBiTuei]{擒抱 Grab}你、@UUID[Compendium.pf2e.conditionitems.VcDeM8A5oI6VqhbM]{束縛 Restrain}你或將你擊至@UUID[Compendium.pf2e.conditionitems.j91X7x0XSomq8d60]{倒地 Prone}的效果的豁免檢定。你在@UUID[Compendium.pf2e.actionspf2e.M76ycLAqHoAgbcej]{保持平衡 Balance}的特技動作檢定上也獲得+2環境加值。</p>"
        },
        "Thorned Rose": {
            "name": "帶刺玫瑰 Thorned Rose",
            "description": "<p>你美麗的花瓣和看似光滑的面板隱藏著無聲的倒刺刺穿粗心之人。你的身體佈滿了險惡的刺，以阻止那些可能捕食你的人。你獲得@UUID[Compendium.pf2e.actionspf2e.ncdryKskPwHMgHFh]{險惡棘刺 Wicked Thorns}反應。</p>"
        }
    }
}
