{
	"label": "領域 Domains",
	"entries": {
		"Abomination Domain": {
			"name": "憎邪領域 Abomination Domain",
			"description": "<p><strong>神祇</strong> @Compendium[pf2e.deities.8Oy4qHylOOp79JxD]{寧布洛斯 Nhimbaloth}</p>\n<p><strong>領域法術</strong> <em>@Compendium[pf2e.spells-srd.6GjJtLJnwC18Y0aZ]{揭開自然之帷 Lift Nature's Caul}</em><u></u>； <strong>進階領域法術</strong> <em>@Compendium[pf2e.spells-srd.0qA4MfMkFklOz2Lk]{恐懼盛宴 Fearful Feast}</em></p>\n<p>你試圖向你周圍的存在灌輸憎惡和恐怖的情緒。</p>"
		},
		"Air Domain": {
			"name": "氣領域 Air Domain",
			"description": "<p><strong>神祇</strong> @Compendium[pf2e.deities.oJPwMa9xG8oMnC14]{亞玻倫 Apollyon}, @Compendium[pf2e.deities.9WD0hbUT0IbnuTiM]{巴爾澤布 Baalzebul}, @Compendium[pf2e.deities.oRvuLq3o2FxXizt9]{珈蘭德爾 Ghlaunder}, @Compendium[pf2e.deities.swwwP7eVmlNuWTb7]{哥茲萊 Gozreh}，@Compendium[pf2e.deities.DEKKbg6riAdL2ARf]{黑風 Hei Feng}，@Compendium[pf2e.deities.rRuxBgC58PxrLzRv]{荷魯斯 Horus}，@Compendium[pf2e.deities.A37XqON6QRPzQhp7]{舒爾哈 Hshurha}，@Compendium[pf2e.deities.IZcdF1G8ZsnMotaM]{帕祖祖 Pazuzu}，@Compendium[pf2e.deities.o9tK1T28LNEVzpFV]{臘格迪亞 Ragdya}，@Compendium[pf2e.deities.Ij1KRM8ufkEjGnR3]{蘭基諾瑞 Ranginori}，@Compendium[pf2e.deities.Bhxji0kxIbMKqdkw]{洛瓦古格 Rovagug}，@Compendium[pf2e.deities.97Qe42wJN5EVUS14]{斯圖羅韋寧 Sturovenen}，@Compendium[pf2e.deities.w4fDrwL8VIqJDPfR]{Uvuko}，@Compendium[pf2e.deities.YXmeBdOZfWgUljW1]{尤麗曼徹 Ylimancha}</p>\n<p><strong>領域法術</strong><em>@Compendium[pf2e.spells-srd.myC2EIrsjmB8xosi]{推擊狂風 Pushing Gust}</em>；<strong>進階領域法術</strong><em>@Compendium[pf2e.spells-srd.L8pzCOi7Jzx5ALs9]{消散如風 Disperse Into Air}</em></p>\n<p>你可以控制風與氣相。</p>"
		},
		"Ambition Domain": {
			"name": "野心領域 Ambition Domain",
			"description": "<p><strong>神祇</strong> @Compendium[pf2e.deities.9WD0hbUT0IbnuTiM]{巴爾澤布 Baalzebul}, @Compendium[pf2e.deities.soiVh53y9RAeSLEk]{卡珊德拉 Casandalee}, @Compendium[pf2e.deities.aVyxfqY9GBjTqQul]{艾希斯 Eiseth}, @Compendium[pf2e.deities.6O4UGWcYERDEugzk]{文業王 Fumeiyoshi}, @Compendium[pf2e.deities.zlJGKpeLBwajP91o]{吉羅娜 Gyronna}, @Compendium[pf2e.deities.CnDEoo6WruQCXo1o]{Lubaiko}, @Compendium[pf2e.deities.sNjPI1iaS8Z43YJf]{瑪門 Mammon}, @Compendium[pf2e.deities.1nQVLOyWv5kC0bCU]{拉維塔 Ravithra}, @Compendium[pf2e.deities.zzhYFcShT9JoE2Mp]{煞克斯 Shax}, @Compendium[pf2e.deities.rDTXcBJ8LyqA2TkL]{祖瑞爾 Szuriel}, @Compendium[pf2e.deities.PFp4Sdp2TDDKD62l]{薩米爾 Thamir}, @Compendium[pf2e.deities.4bEPoujxhYdUyUOg]{伊德修斯 Ydersius}, @Compendium[pf2e.deities.SCGdJmm7Wzle9jFP]{柔思 Zohls}, @Compendium[pf2e.deities.ZfN7jkK6boU1FuiS]{宗-庫山 Zon-Kuthon}</p>\n<p><strong>領域法術</strong> <em>@Compendium[pf2e.spells-srd.Dj44lViYKvOJ8a53]{盲目野心 Blind Ambition}</em>； <strong>進階領域法術</strong> <em>@Compendium[pf2e.spells-srd.NOB92Wpn7jXvtyVW]{競爭優勢 Competitive Edge}</em></p>\n<p>你盡全力追趕，甚至超越競爭者。</p>"
		},
		"Change Domain": {
			"name": "變化領域 Change Domain",
			"description": "<p><strong>神祇</strong> @Compendium[pf2e.deities.9n2CI0B3EA4y3BuU]{奧爾塞塔 Alseta}, @Compendium[pf2e.deities.remyY1BwhEVmBwya]{貝利亞 Belial}, @Compendium[pf2e.deities.gXHoxuuiAD54LnWV]{切斯-烏蘇格 Cyth-V'sug}, @Compendium[pf2e.deities.AHX89nhuVhmg8k6w]{大袞 Dagon}, @Compendium[pf2e.deities.M3eb94Nd6uXti2IK]{大狐女 Daikitsu}, @Compendium[pf2e.deities.fuPTR1laXO6EionS]{祖母蜘蛛 Grandmother Spider}, @Compendium[pf2e.deities.qqqrbq4uCrelQvgH]{義洛理 Irori}, @Compendium[pf2e.deities.5ZIvg8CkqRMepVcX]{孔冉達 Korada}, @Compendium[pf2e.deities.aipkJQxP4GBsTaGq]{拉瑪什圖 Lamashtu}, @Compendium[pf2e.deities.CnDEoo6WruQCXo1o]{Lubaiko}, @Compendium[pf2e.deities.QibpLccM5bLUMopj]{林尼芮斯 Lymnieris}, @Compendium[pf2e.deities.fTJLgTfEMZreJ19r]{密拉妮 Milani}, @Compendium[pf2e.deities.E1dUhoSEf2XfklU2]{禿鷲之母 Mother Vulture}, @Compendium[pf2e.deities.hhV2g6aU8jKLEca1]{那拉卡斯 Narakaas}, @Compendium[pf2e.deities.jL1qiVOZBKXETtVD]{諾提庫拉 Nocticula}, @Compendium[pf2e.deities.nuvfUC4TcOvFbKxx]{奧西里斯 Osiris}, @Compendium[pf2e.deities.1xHnoMlCyCV70TnT]{薩洛克 Saloc}, @Compendium[pf2e.deities.nuqIimigyt986WLE]{燈王 The Lantern King}, @Compendium[pf2e.deities.0R2BjVb7d9tYCIbk]{鐵哈爾 Tlehar}, @Compendium[pf2e.deities.aTYy1WHwAZiuei4h]{月夜 Tsukiyo}, @Compendium[pf2e.deities.w4fDrwL8VIqJDPfR]{Uvuko}, @Compendium[pf2e.deities.mebdNVKeKuTmDDHj]{夏門-多 Xhamen-Dor}, @Compendium[pf2e.deities.iEt6idGIEPXY2HzV]{伊達吉絲克 Ydajisk}</p>\n<p><strong>領域法術</strong> <em>@Compendium[pf2e.spells-srd.GUnw9YXaW3YyaCAU]{自體適應 Adapt Self}</em>； <strong>進階領域法術</strong> <em>@Compendium[pf2e.spells-srd.GoKkejPj5yWJPIPK]{適應能量 Adaptive Ablation}</em></p>\n<p>你可在物理及超物理層面上重組事物。</p>"
		},
		"Cities Domain": {
			"name": "城市領域 Cities Domain",
			"description": "<p><strong>神祇</strong> @Compendium[pf2e.deities.d56paSkcwvll2OhR]{阿巴達爾 Abadar}, @Compendium[pf2e.deities.v67fHklTZ6LoU54q]{凱登·凱連 Cayden Cailean}, @Compendium[pf2e.deities.OlVCyRgOaPJji4qt]{丘哈爾 Chohar}, @Compendium[pf2e.deities.CzHjFLx4hpIEIoWt]{迪斯帕特 Dispater}, @Compendium[pf2e.deities.liXIbl7y8www2eAn]{芬德烈萊拉 Findeladlara}, @Compendium[pf2e.deities.VEyowuhC4FsBnG8c]{福格瑞特 Folgrit}, @Compendium[pf2e.deities.iXvyp9rGnqvFfy4q]{卡祖塔爾 Kazutal}, @Compendium[pf2e.deities.ub0PJ5QkrdoGzzb2]{路哈爾 Luhar}, @Compendium[pf2e.deities.hWTTS0e7J9hJfsp3]{馬崔瓦許 Matravash}, @Compendium[pf2e.deities.v1fsLP6nTkiy5ghB]{瑪茲盧德赫 Mazludeh}, @Compendium[pf2e.deities.0R2BjVb7d9tYCIbk]{鐵哈爾 Tlehar}, @Compendium[pf2e.deities.SCGdJmm7Wzle9jFP]{柔思 Zohls}</p>\n<p><strong>領域法術</strong> <em>@Compendium[pf2e.spells-srd.yH13KXUK2x093NUv]{芸芸眾生 Face in the Crowd}</em>； <strong>進階領域法術</strong> <em>@Compendium[pf2e.spells-srd.ivKnEtI1z4UqEKIA]{城市脈動 Pulse of the City}</em></p>\n<p>你具有掌控城市環境及其居民的能力。</p>"
		},
		"Cold Domain": {
			"name": "寒冷領域 Cold Domain",
			"description": "<p><strong>神祇</strong> @Compendium[pf2e.deities.uXkMGx0OD896ZQlT]{艾格倫薇絲 Alglenweis}, @Compendium[pf2e.deities.swwwP7eVmlNuWTb7]{哥茲萊 Gozreh}, @Compendium[pf2e.deities.A37XqON6QRPzQhp7]{舒爾哈 Hshurha}, @Compendium[pf2e.deities.JcIf4uwKLxEWdplI]{科斯徹奇 Kostchtchie}, @Compendium[pf2e.deities.Vzxm5FyIA40b2OSP]{普露菈 Pulura}, @Compendium[pf2e.deities.w4fDrwL8VIqJDPfR]{Uvuko}, @Compendium[pf2e.deities.tb0oADxOoMhyrYRA]{山積 Yamatsumi}</p>\n<p><strong>領域法術</strong> <em>@Compendium[pf2e.spells-srd.DeNz6eAUlE0IE9U3]{冬之矢 Winter Bolt}</em>； <strong>進階領域法術</strong> <em>@Compendium[pf2e.spells-srd.wjJW9hWY5CkkMvY5]{鑽石星塵 Diamond Dust}</em></p>\n<p>你掌握冰、雪及凍人低溫。</p>"
		},
		"Confidence Domain": {
			"name": "自信領域 Confidence Domain",
			"description": "<p><strong>神祇</strong> @Compendium[pf2e.deities.gutbzYTZvRTnq4on]{阿丹耶 Adanye}, @Compendium[pf2e.deities.HtRxo4J3elFteIqu]{阿拉茲尼 Arazni}, @Compendium[pf2e.deities.KDFujU3Yug6AwCOz]{阿謝伊 Arshea}, @Compendium[pf2e.deities.QRkcFciCOmFoxF1B]{阿斯摩蒂斯 Asmodeus}, @Compendium[pf2e.deities.HD7g8T8ioy1EH3M8]{波絡卡 Bolka}, @Compendium[pf2e.deities.4GO4iT585ynLJnc8]{查爾迪菈 Chaldira}, @Compendium[pf2e.deities.vSUz97Y29l1O50bC]{萊諾克伯爵 Count Ranalc}, @Compendium[pf2e.deities.CzHjFLx4hpIEIoWt]{迪斯帕特 Dispater}, @Compendium[pf2e.deities.8DXel4AvpyUy6oJ0]{艾瑞翠絲 Eritrice}, @Compendium[pf2e.deities.Zi1UARhode3FSFLr]{大將軍進 General Susumu}, @Compendium[pf2e.deities.88vRw2ZVPax4hhga]{古拉姆 Gorum}, @Compendium[pf2e.deities.tk7gRxXsqvBwQrUF]{奎因迪勒 Grundinnar}, @Compendium[pf2e.deities.eErEiVmBqltYXFJ6]{艾奧梅黛 Iomedae}, @Compendium[pf2e.deities.bF77ydtptI54STl9]{傑茲 Jaidz}, @Compendium[pf2e.deities.Mv6uTJLh3VGEoGLH]{妮薇·炫稜 Nivi Rhombodazzle}, @Compendium[pf2e.deities.o9tK1T28LNEVzpFV]{臘格迪亞 Ragdya}, @Compendium[pf2e.deities.u3YfcJh1C4w6n75j]{勞米亞 Raumya}, @Compendium[pf2e.deities.97Qe42wJN5EVUS14]{斯圖羅韋寧 Sturovenen}, @Compendium[pf2e.deities.PFp4Sdp2TDDKD62l]{薩米爾 Thamir}, @Compendium[pf2e.deities.N8a76dkGfUvxvSW0]{杜魯德 Trudd}</p>\n<p><strong>領域法術</strong> <em>@Compendium[pf2e.spells-srd.Q25JQAgnJSGgFDKZ]{信心帷幕 Veil of Confidence}</em>； <strong>進階領域法術</strong> <em>@Compendium[pf2e.spells-srd.J8pL8yTshga8QOk8]{傲慢妄想 Delusional Pride}</em></p>\n<p>你克服你的恐懼，並展現驕傲。</p>"
		},
		"Creation Domain": {
			"name": "創造領域 Creation Domain",
			"description": "<p><strong>神祇</strong> @Compendium[pf2e.deities.uXkMGx0OD896ZQlT]{艾格倫薇絲 Alglenweis}, @Compendium[pf2e.deities.o8ayCv3LAHWlu0vQ]{阿普蘇 Apsu}, @Compendium[pf2e.deities.uydTiyN5AzhBnQY8]{阿達德·莉莉 Ardad Lili}, @Compendium[pf2e.deities.vEMCpm7iidycRT5D]{布萊 Brigh}, @Compendium[pf2e.deities.soiVh53y9RAeSLEk]{卡珊德拉 Casandalee}, @Compendium[pf2e.deities.M3eb94Nd6uXti2IK]{大狐女 Daikitsu}, @Compendium[pf2e.deities.AMFkYKUNQ3kCD0ob]{多洛蕾絲 Doloras}, @Compendium[pf2e.deities.6mgCX7lvKtaEYoa9]{矮人眾神 Dwarven Pantheon}, @Compendium[pf2e.deities.Zw8nhcpRxinoYRSa]{精靈眾神 Elven Pantheon}, @Compendium[pf2e.deities.IXLzDSMGndFb5rGY]{法蕾納 Falayna}, @Compendium[pf2e.deities.liXIbl7y8www2eAn]{芬德烈萊拉 Findeladlara}, @Compendium[pf2e.deities.fuPTR1laXO6EionS]{祖母蜘蛛 Grandmother Spider}, @Compendium[pf2e.deities.xu05XGotyT5st56H]{晶茜女士 Lady Jingxi}, @Compendium[pf2e.deities.lUFMwdv1UOyzFhIM]{利卡 Likha}, @Compendium[pf2e.deities.sNjPI1iaS8Z43YJf]{瑪門 Mammon}, @Compendium[pf2e.deities.W4QGkdn9V5ACRpkh]{莫那德 Monad}, @Compendium[pf2e.deities.jL1qiVOZBKXETtVD]{諾提庫拉 Nocticula}, @Compendium[pf2e.deities.JgDqFUB1NtQkGmzp]{奧托門斯 Otolmens}, @Compendium[pf2e.deities.WO9UsCY41oTtC2G0]{知識之神 Pillars of Knowledge}, @Compendium[pf2e.deities.gxwmzxUWBOhdgFSN]{莎琳 Shelyn}, @Compendium[pf2e.deities.vnmoAGURp8oWCY6R]{索拉勇 Soralyon}, @Compendium[pf2e.deities.6nq25AjImkT5GxDT]{虹光之神 The Prismatic Ray}, @Compendium[pf2e.deities.0R2BjVb7d9tYCIbk]{鐵哈爾 Tlehar}, @Compendium[pf2e.deities.sZrdzh0ANQnZGXJb]{托拉格 Torag}, @Compendium[pf2e.deities.w4fDrwL8VIqJDPfR]{Uvuko}, @Compendium[pf2e.deities.uYpxTi4byHc5w78R]{約拉爾 Yuelral}</p>\n<p><strong>領域法術</strong> <em>@Compendium[pf2e.spells-srd.xTpp8dHZsNMDm75B]{藝術噴湧 Splash of Art}</em>； <strong>進階領域法術</strong> <em>@Compendium[pf2e.spells-srd.eb4FXf62NYArTqek]{華彩點綴 Artistic Flourish}</em></p>\n<p>你具有與手藝與藝術相關的神術力量。</p>"
		},
		"Darkness Domain": {
			"name": "黑暗領域 Darkness Domain",
			"description": "<p><strong>神祇</strong> @Compendium[pf2e.deities.pCtJONJlhAugUXaG]{阿里曼 Ahriman}, @Compendium[pf2e.deities.uydTiyN5AzhBnQY8]{阿達德·莉莉 Ardad Lili}, @Compendium[pf2e.deities.DJ7LDFTtns6YFodT]{伊沙瓦 Ashava}, @Compendium[pf2e.deities.oV5cnlPJQS8JfMIg]{篷車星座群神系 Cosmic Caravan}, @Compendium[pf2e.deities.vSUz97Y29l1O50bC]{萊諾克伯爵 Count Ranalc}, @Compendium[pf2e.deities.fuPTR1laXO6EionS]{祖母蜘蛛 Grandmother Spider}, @Compendium[pf2e.deities.WloVxo6HXJdS4YTt]{格羅圖斯 Groetus}, @Compendium[pf2e.deities.kiTcZxmKxGPCwDpg]{凱爾寇特 Kalekot}, @Compendium[pf2e.deities.s81N9hxffmRuy3ik]{刻爾卡莫斯 Kerkamoth}, @Compendium[pf2e.deities.wjXNXFWBLbJaeZQR]{克忒菲斯 Ketephys}, @Compendium[pf2e.deities.MbJ93Nw39h2cBYi5]{老鼠婆 Lao Shu Po}, @Compendium[pf2e.deities.ub0PJ5QkrdoGzzb2]{路哈爾 Luhar}, @Compendium[pf2e.deities.jL1qiVOZBKXETtVD]{諾提庫拉 Nocticula}, @Compendium[pf2e.deities.iKgERiIc8rt3fatf]{奈亞拉託提普(獵黑行者) Nyarlathotep (Haunter in the Dark)}, @Compendium[pf2e.deities.3nxIpMGeCvcBIVov]{奈亞拉託提普(伏行之混沌) Nyarlathotep (The Crawling Chaos)}, @Compendium[pf2e.deities.Vzxm5FyIA40b2OSP]{普露菈 Pulura}, @Compendium[pf2e.deities.DFxbPmQLOqcmbPTz]{塔納嘎 Tanagaar}, @Compendium[pf2e.deities.ZfN7jkK6boU1FuiS]{宗-庫山 Zon-Kuthon}</p>\n<p><strong>領域法術</strong> <em>@Compendium[pf2e.spells-srd.SE0fbgBj7atuukdv]{暗影披風 Cloak of Shadow}</em>； <strong>進階領域法術</strong> <em>@Compendium[pf2e.spells-srd.oiUhJbJ3YCKF62Fu]{熄滅視野 Darkened Eyes}</em></p>\n<p>你在黑暗中行動，並驅散光明。</p>"
		},
		"Death Domain": {
			"name": "死亡領域 Death Domain",
			"description": "<p><strong>神祇</strong> @Compendium[pf2e.deities.51kMMWaT6CqpGlGk]{阿卡艾剋剋 Achaekek}, @Compendium[pf2e.deities.pCtJONJlhAugUXaG]{阿里曼 Ahriman}, @Compendium[pf2e.deities.UUcAqU3KeJSMNxGF]{巴爾扎克 Barzahk}, @Compendium[pf2e.deities.tcXrtRYCOr2EmgGB]{卡戎 Charon}, @Compendium[pf2e.deities.H1VrZ1QX0d2aPXT8]{達默裡奇 Dammerich}, @Compendium[pf2e.deities.QlDnoOwf0PppymTn]{翰斯普 Hanspur}, @Compendium[pf2e.deities.KIEgpcmHYtFu1dpg]{伊莫特 Imot}, @Compendium[pf2e.deities.kiTcZxmKxGPCwDpg]{凱爾寇特 Kalekot}, @Compendium[pf2e.deities.nsiDGdgbAzkTQzOt]{馬格里姆 Magrim}, @Compendium[pf2e.deities.E1dUhoSEf2XfklU2]{禿鷲之母 Mother Vulture}, @Compendium[pf2e.deities.pm8H2DbtrHM01KNV]{娜德瑞 Naderi}, @Compendium[pf2e.deities.hhV2g6aU8jKLEca1]{那拉卡斯 Narakaas}, @Compendium[pf2e.deities.GX6PF9ifR47Xyjg9]{諾格巴 Norgorber}, @Compendium[pf2e.deities.QZD0u1jxwz0kj8uI]{法萊斯瑪 Pharasma}, @Compendium[pf2e.deities.1xHnoMlCyCV70TnT]{薩洛克 Saloc}, @Compendium[pf2e.deities.zzhYFcShT9JoE2Mp]{煞克斯 Shax}, @Compendium[pf2e.deities.83jKKHQPoqVylmrF]{夜神 Yaezhing}, @Compendium[pf2e.deities.LLMTMgARSTlO7S9U]{澤弗斯 Zyphus}</p>\n<p><strong>領域法術</strong> <em>@Compendium[pf2e.spells-srd.HG4afO9EOGEU9bZN]{斬殺號令 Death's Call}</em>； <strong>進階領域法術</strong> <em>@Compendium[pf2e.spells-srd.J5MNC4xq3CHH31qT]{亡靈絕滅 Eradicate Undeath}</em></p>\n<p>你擁有終結生命和摧毀不死生物的能力。</p>"
		},
		"Decay Domain": {
			"name": "衰敗領域 Decay Domain",
			"description": "<p><strong>神祇</strong> @Compendium[pf2e.deities.oJPwMa9xG8oMnC14]{亞玻倫 Apollyon}, @Compendium[pf2e.deities.sILda7I8Ak20Ioj9]{阿撒託斯 Azathoth}, @Compendium[pf2e.deities.gXHoxuuiAD54LnWV]{切斯-烏蘇格 Cyth-V'sug}, @Compendium[pf2e.deities.oRvuLq3o2FxXizt9]{珈蘭德爾 Ghlaunder}, @Compendium[pf2e.deities.WloVxo6HXJdS4YTt]{格羅圖斯 Groetus}, @Compendium[pf2e.deities.s81N9hxffmRuy3ik]{刻爾卡莫斯 Kerkamoth}, @Compendium[pf2e.deities.E1dUhoSEf2XfklU2]{禿鷲之母 Mother Vulture}, @Compendium[pf2e.deities.8Oy4qHylOOp79JxD]{寧布洛斯 Nhimbaloth}, @Compendium[pf2e.deities.3INt1X4ijBYnZYbU]{夏依卡 Shyka}, @Compendium[pf2e.deities.pVQzTL5elNTxvffu]{綠母 The Green Mother}, @Compendium[pf2e.deities.9eltBjLngkR9x1Xm]{崔瑪瑞希 Trelmarixian}, @Compendium[pf2e.deities.22n3N47sqbqbDxbp]{厄加圖婭 Urgathoa}, @Compendium[pf2e.deities.mebdNVKeKuTmDDHj]{夏門-多 Xhamen-Dor}</p>\n<p><strong>領域法術</strong> <em>@Compendium[pf2e.spells-srd.7tp97g0UCJ9wOrd5]{萎縮之握 Withering Grasp}</em>； <strong>進階領域法術</strong> <em>@Compendium[pf2e.spells-srd.2RhZkHNv8ajq0yLq]{不生力場 Fallow Field}</em></p>\n<p>你有使物質腐敗衰退的力量。</p>"
		},
		"Delirium Domain": {
			"name": "癲狂領域 Delirium Domain",
			"description": "<p><strong>神祇</strong> @Compendium[pf2e.deities.65o189p2eUPbqaDK]{內瑞塞彌尼克 Narriseminek}, @Compendium[pf2e.deities.8Oy4qHylOOp79JxD]{寧布洛斯 Nhimbaloth}, @Compendium[pf2e.deities.3INt1X4ijBYnZYbU]{夏依卡 Shyka}, @Compendium[pf2e.deities.iJyhAFmHOLZBvWnJ]{西芙娜 Sivanah}, @Compendium[pf2e.deities.nuqIimigyt986WLE]{燈王 The Lantern King}, @Compendium[pf2e.deities.aTYy1WHwAZiuei4h]{月夜 Tsukiyo}, @Compendium[pf2e.deities.8ZSywyo8YQPduo92]{祖拉 Zura}</p>\n<p><strong>領域法術</strong> <em>@Compendium[pf2e.spells-srd.XhgMx9WC6NfXd9RP]{過集中 Hyperfocus}</em>； <strong>進階領域法術</strong> <em>@Compendium[pf2e.spells-srd.HisaZTk67YAxLGBq]{無實危害 Ephemeral Hazards}</em></p>\n<p>你可以召來幻覺與躁動。</p>"
		},
		"Destruction Domain": {
			"name": "毀滅領域 Destruction Domain",
			"description": "<p><strong>神祇</strong> @Compendium[pf2e.deities.bLI1JMpI2GXQT5AC]{阿巴拉克薩斯 Abraxas}, @Compendium[pf2e.deities.pCtJONJlhAugUXaG]{阿里曼 Ahriman}, @Compendium[pf2e.deities.cHAbE86pto5bvIWo]{安加贊 Angazhan}, @Compendium[pf2e.deities.aChBtIDfA59QQ7SN]{阿依爾祖 Ayrzul}, @Compendium[pf2e.deities.sILda7I8Ak20Ioj9]{阿撒託斯 Azathoth}, @Compendium[pf2e.deities.wkDOeK7ENz1ra8IC]{貝斯瑪拉 Besmara}, @Compendium[pf2e.deities.AHX89nhuVhmg8k6w]{大袞 Dagon}, @Compendium[pf2e.deities.Bzfc5mIUfMxOnQWu]{達哈卡 Dahak}, @Compendium[pf2e.deities.dcbf3pBSNa2q1Kkq]{達拉薇 Dhalavei}, @Compendium[pf2e.deities.XHDlP7o1jNz9851v]{迪奧馬祖 Diomazul}, @Compendium[pf2e.deities.aVyxfqY9GBjTqQul]{艾希斯 Eiseth}, @Compendium[pf2e.deities.6O4UGWcYERDEugzk]{文業王 Fumeiyoshi}, @Compendium[pf2e.deities.Zi1UARhode3FSFLr]{大將軍進 General Susumu}, @Compendium[pf2e.deities.88vRw2ZVPax4hhga]{古拉姆 Gorum}, @Compendium[pf2e.deities.WloVxo6HXJdS4YTt]{格羅圖斯 Groetus}, @Compendium[pf2e.deities.DEKKbg6riAdL2ARf]{黑風 Hei Feng}, @Compendium[pf2e.deities.A37XqON6QRPzQhp7]{舒爾哈 Hshurha}, @Compendium[pf2e.deities.KIEgpcmHYtFu1dpg]{伊莫特 Imot}, @Compendium[pf2e.deities.14GLsVobnZTEmJrs]{凱利贊德里 Kelizandri}, @Compendium[pf2e.deities.s81N9hxffmRuy3ik]{刻爾卡莫斯 Kerkamoth}, @Compendium[pf2e.deities.JcIf4uwKLxEWdplI]{科斯徹奇 Kostchtchie}, @Compendium[pf2e.deities.r6SFB1PzKsagDXff]{難婆 Lady Nanbyo}, @Compendium[pf2e.deities.CnDEoo6WruQCXo1o]{Lubaiko}, @Compendium[pf2e.deities.fTJLgTfEMZreJ19r]{密拉妮 Milani}, @Compendium[pf2e.deities.g1VxllMjs2YRIJAm]{摩洛克 Moloch}, @Compendium[pf2e.deities.9EKyWmjLUu42evxC]{內希斯 Nethys}, @Compendium[pf2e.deities.SAuFz101iP6VVwvw]{努加爾 Nurgal}, @Compendium[pf2e.deities.XYJupIPx0GW4s7eu]{拉格達恩 Ragadahn}, @Compendium[pf2e.deities.GEBaoeiv5CB9h2Bn]{拉賈瑟爾 Ragathiel}, @Compendium[pf2e.deities.Bhxji0kxIbMKqdkw]{洛瓦古格 Rovagug}, @Compendium[pf2e.deities.0nQItOlce5ua6Eaf]{塞赫麥特 Sekhmet}, @Compendium[pf2e.deities.rDTXcBJ8LyqA2TkL]{祖瑞爾 Szuriel}, @Compendium[pf2e.deities.ENzMYuzBZGIujSMx]{毀木者 Treerazer}, @Compendium[pf2e.deities.7L9KIqixgseSCY3X]{伊莫利 Ymeri}, @Compendium[pf2e.deities.8roijlQ03l9rWFFe]{澤烏伽瓦災布 Zevgavizeb}, @Compendium[pf2e.deities.ZfN7jkK6boU1FuiS]{宗-庫山 Zon-Kuthon}</p>\n<p><strong>領域法術</strong> <em>@Compendium[pf2e.spells-srd.0H1ozccQGGFLUwFI]{毀滅戰吼 Cry of Destruction}</em>； <strong>進階領域法術</strong> <em>@Compendium[pf2e.spells-srd.7d4DUTDIlzDa8OvX]{毀滅靈光 Destructive Aura}</em></p>\n<p>你是神祇蹂躪世間的嚮導。</p>"
		},
		"Dreams Domain": {
			"name": "夢境領域 Dreams Domain",
			"description": "<p><strong>神祇</strong> @Compendium[pf2e.deities.JgqH3BhuEuA4Zyqs]{黛絲娜 Desna}, @Compendium[pf2e.deities.VvxEvEKhCGRwrMJp]{因博萊克斯 Imbrex}, @Compendium[pf2e.deities.ub0PJ5QkrdoGzzb2]{路哈爾 Luhar}, @Compendium[pf2e.deities.mebdNVKeKuTmDDHj]{夏門-多 Xhamen-Dor}</p>\n<p><strong>領域法術</strong> <em>@Compendium[pf2e.spells-srd.BRtKFk0PKfWIlCAB]{甜蜜美夢 Sweet Dream}</em>； <strong>進階領域法術</strong> <em>@Compendium[pf2e.spells-srd.PztLrElcZfLwRnEq]{催眠指令 Dreamer's Call}</em></p>\n<p>你擁有進入和操控夢境的能力。</p>"
		},
		"Dust Domain": {
			"name": "沙塵領域 Dust Domain",
			"description": "<p><strong>神祇</strong> @Compendium[pf2e.deities.A37XqON6QRPzQhp7]{舒爾哈 Hshurha}, @Compendium[pf2e.deities.SAuFz101iP6VVwvw]{努加爾 Nurgal}, @Compendium[pf2e.deities.9eltBjLngkR9x1Xm]{崔瑪瑞希 Trelmarixian}, @Compendium[pf2e.deities.7L9KIqixgseSCY3X]{伊莫利 Ymeri}</p>\n<p><strong>領域法術</strong> <em>@Compendium[pf2e.spells-srd.7CUgqHunmHfW2lC5]{脫水術 Parch}</em>； <strong>進階領域法術</strong> <em>@Compendium[pf2e.spells-srd.K1wmI4qPmRhFczmy]{沙暴術 Dust Storm}</em></p>\n<p>你有使敵人乾燥崩解的能力。</p>"
		},
		"Duty Domain": {
			"name": "使命領域 Duty Domain",
			"description": "<p><strong>神祇</strong> @Compendium[pf2e.deities.d56paSkcwvll2OhR]{阿巴達爾 Abadar}, @Compendium[pf2e.deities.gutbzYTZvRTnq4on]{阿丹耶 Adanye}, @Compendium[pf2e.deities.QRkcFciCOmFoxF1B]{阿斯摩蒂斯 Asmodeus}, @Compendium[pf2e.deities.OlVCyRgOaPJji4qt]{丘哈爾 Chohar}, @Compendium[pf2e.deities.H1VrZ1QX0d2aPXT8]{達默裡奇 Dammerich}, @Compendium[pf2e.deities.CzHjFLx4hpIEIoWt]{迪斯帕特 Dispater}, @Compendium[pf2e.deities.39z55kowQFOUH2v0]{卓斯卡 Droskar}, @Compendium[pf2e.deities.6mgCX7lvKtaEYoa9]{矮人眾神 Dwarven Pantheon}, @Compendium[pf2e.deities.mm1j6UbHqFCI8fwB]{埃拉斯蒂爾 Erastil}, @Compendium[pf2e.deities.eErEiVmBqltYXFJ6]{艾奧梅黛 Iomedae}, @Compendium[pf2e.deities.zhPhYge7VJbIlJvA]{寇司 Kols}, @Compendium[pf2e.deities.nsiDGdgbAzkTQzOt]{馬格里姆 Magrim}, @Compendium[pf2e.deities.g1VxllMjs2YRIJAm]{摩洛克 Moloch}, @Compendium[pf2e.deities.GEBaoeiv5CB9h2Bn]{拉賈瑟爾 Ragathiel}, @Compendium[pf2e.deities.s9opv94lGDRKnw6W]{靜瑠 Shizuru}, @Compendium[pf2e.deities.DFxbPmQLOqcmbPTz]{塔納嘎 Tanagaar}, @Compendium[pf2e.deities.JndhOIHnQoMwnsw3]{神爪五柱 The Godclaw}, @Compendium[pf2e.deities.sZrdzh0ANQnZGXJb]{托拉格 Torag}, @Compendium[pf2e.deities.N8a76dkGfUvxvSW0]{杜魯德 Trudd}, @Compendium[pf2e.deities.y93whGnGZjFyw5A0]{薇爾迪斯 Vildeis}, @Compendium[pf2e.deities.83jKKHQPoqVylmrF]{夜神 Yaezhing}</p>\n<p><strong>領域法術</strong> <em>@Compendium[pf2e.spells-srd.cokeXkDHUAo4zHsw]{誓約印記 Oathkeeper's Insignia}</em>； <strong>進階領域法術</strong> <em>@Compendium[pf2e.spells-srd.caehfpQz7yp9yNzz]{信義挑戰 Dutiful Challenge}</em></p>\n<p>你守護誓言，並以全身熱忱執行你的神聖任務。</p>"
		},
		"Earth Domain": {
			"name": "土領域 Earth Domain",
			"description": "<p><strong>神祇</strong> @Compendium[pf2e.deities.d56paSkcwvll2OhR]{阿巴達爾 Abadar}, @Compendium[pf2e.deities.RbslST0RZPXj6Eby]{阿什珈瑪 Ashukharma}, @Compendium[pf2e.deities.aChBtIDfA59QQ7SN]{阿依爾祖 Ayrzul}, @Compendium[pf2e.deities.eyGEoggFlTEUQmvJ]{拜斯 Bes}, @Compendium[pf2e.deities.vEMCpm7iidycRT5D]{布萊 Brigh}, @Compendium[pf2e.deities.XHDlP7o1jNz9851v]{迪奧馬祖 Diomazul}, @Compendium[pf2e.deities.39z55kowQFOUH2v0]{卓斯卡 Droskar}, @Compendium[pf2e.deities.mm1j6UbHqFCI8fwB]{埃拉斯蒂爾 Erastil}, @Compendium[pf2e.deities.6O4UGWcYERDEugzk]{文業王 Fumeiyoshi}, @Compendium[pf2e.deities.3ffVxwgtvR1imHm8]{根多溫 Gendowyn}, @Compendium[pf2e.deities.VvxEvEKhCGRwrMJp]{因博萊克斯 Imbrex}, @Compendium[pf2e.deities.Mv6uTJLh3VGEoGLH]{妮薇·炫稜 Nivi Rhombodazzle}, @Compendium[pf2e.deities.Bhxji0kxIbMKqdkw]{洛瓦古格 Rovagug}, @Compendium[pf2e.deities.1NxkZf6ndijKeufX]{莎萊祖爾 Sairazul}, @Compendium[pf2e.deities.vnmoAGURp8oWCY6R]{索拉勇 Soralyon}, @Compendium[pf2e.deities.sZrdzh0ANQnZGXJb]{托拉格 Torag}, @Compendium[pf2e.deities.9eltBjLngkR9x1Xm]{崔瑪瑞希 Trelmarixian}, @Compendium[pf2e.deities.tb0oADxOoMhyrYRA]{山積 Yamatsumi}, @Compendium[pf2e.deities.uYpxTi4byHc5w78R]{約拉爾 Yuelral}</p>\n<p><strong>領域法術</strong> <em>@Compendium[pf2e.spells-srd.pRKaEXnjGJXbPHPC]{投石術 Hurtling Stone}</em>； <strong>進階領域法術</strong> <em>@Compendium[pf2e.spells-srd.cBUuG1yJHGeKffpg]{區域性地震 Localized Quake}</em></p>\n<p>你可以操控土壤和岩石。</p>"
		},
		"Family Domain": {
			"name": "家庭領域 Family Domain",
			"description": "<p><strong>神祇</strong> @Compendium[pf2e.deities.gutbzYTZvRTnq4on]{阿丹耶 Adanye}, @Compendium[pf2e.deities.CDkr6eXR1lgu7g6A]{安多萊塔 Andoletta}, @Compendium[pf2e.deities.eyGEoggFlTEUQmvJ]{拜斯 Bes}, @Compendium[pf2e.deities.HD7g8T8ioy1EH3M8]{波絡卡 Bolka}, @Compendium[pf2e.deities.OlVCyRgOaPJji4qt]{丘哈爾 Chohar}, @Compendium[pf2e.deities.M3eb94Nd6uXti2IK]{大狐女 Daikitsu}, @Compendium[pf2e.deities.6mgCX7lvKtaEYoa9]{矮人眾神 Dwarven Pantheon}, @Compendium[pf2e.deities.mm1j6UbHqFCI8fwB]{埃拉斯蒂爾 Erastil}, @Compendium[pf2e.deities.liXIbl7y8www2eAn]{芬德烈萊拉 Findeladlara}, @Compendium[pf2e.deities.VEyowuhC4FsBnG8c]{福格瑞特 Folgrit}, @Compendium[pf2e.deities.xxUGdZYUj5IW7E0L]{命運追隨者 Followers of Fate}, @Compendium[pf2e.deities.3ffVxwgtvR1imHm8]{根多溫 Gendowyn}, @Compendium[pf2e.deities.fuPTR1laXO6EionS]{祖母蜘蛛 Grandmother Spider}, @Compendium[pf2e.deities.tk7gRxXsqvBwQrUF]{奎因迪勒 Grundinnar}, @Compendium[pf2e.deities.TpAMy8tb5LrRgvqN]{哈索爾 Hathor}, @Compendium[pf2e.deities.VvxEvEKhCGRwrMJp]{因博萊克斯 Imbrex}, @Compendium[pf2e.deities.EFyDjlH7XjGq7Erd]{伊西絲 Isis}, @Compendium[pf2e.deities.aLCfEgt48SRUHnMC]{賈迪 Jaidi}, @Compendium[pf2e.deities.iXvyp9rGnqvFfy4q]{卡祖塔爾 Kazutal}, @Compendium[pf2e.deities.aipkJQxP4GBsTaGq]{拉瑪什圖 Lamashtu}, @Compendium[pf2e.deities.v1fsLP6nTkiy5ghB]{瑪茲盧德赫 Mazludeh}, @Compendium[pf2e.deities.Mv6uTJLh3VGEoGLH]{妮薇·炫稜 Nivi Rhombodazzle}, @Compendium[pf2e.deities.1NxkZf6ndijKeufX]{莎萊祖爾 Sairazul}, @Compendium[pf2e.deities.ra7mnjAZcEuJxI37]{雪 Shei}, @Compendium[pf2e.deities.gxwmzxUWBOhdgFSN]{莎琳 Shelyn}, @Compendium[pf2e.deities.fTs56epghXwclPcX]{石林鹿母 Stag Mother of the Forest of Stones}, @Compendium[pf2e.deities.6nq25AjImkT5GxDT]{虹光之神 The Prismatic Ray}, @Compendium[pf2e.deities.sZrdzh0ANQnZGXJb]{托拉格 Torag}, @Compendium[pf2e.deities.g1AVEGi8QibhS007]{瓦爾克納 Walkena}, @Compendium[pf2e.deities.ZynnoQJFz12FD0Xn]{守護法老 Wards of the Pharaoh}</p>\n<p><strong>領域法術</strong> <em>@Compendium[pf2e.spells-srd.YGRpHU5yxw73mls8]{慰心之語 Soothing Words}</em>； <strong>進階領域法術</strong> <em>@Compendium[pf2e.spells-srd.tYLBjOTvBVn9JtRb]{團結 Unity}</em></p>\n<p>你能更有效地幫助與保護你的家庭和社群。</p>"
		},
		"Fate Domain": {
			"name": "命運領域 Fate Domain",
			"description": "<p><strong>神祇</strong> @Compendium[pf2e.deities.Xb1N5YfxboJH26Jh]{安哥拉德 Angradd}, @Compendium[pf2e.deities.oV5cnlPJQS8JfMIg]{篷車星座群神系 Cosmic Caravan}, @Compendium[pf2e.deities.Dm8qlzpUj7g82QFv]{艾蕾卡拉 Erecura}, @Compendium[pf2e.deities.xxUGdZYUj5IW7E0L]{命運追隨者 Followers of Fate}, @Compendium[pf2e.deities.fuPTR1laXO6EionS]{祖母蜘蛛 Grandmother Spider}, @Compendium[pf2e.deities.KIEgpcmHYtFu1dpg]{伊莫特 Imot}, @Compendium[pf2e.deities.lSciGZGcbU9PJxQy]{伊芮茲 Irez}, @Compendium[pf2e.deities.w66gCNiZ7dslqG8K]{璃殤 Lissala}, @Compendium[pf2e.deities.ub0PJ5QkrdoGzzb2]{路哈爾 Luhar}, @Compendium[pf2e.deities.SCMlQDcoU1QcF3AS]{呂西阿娜 Lysianassa}, @Compendium[pf2e.deities.iMRXc519Uepf8yH3]{瑪芙 Magdh}, @Compendium[pf2e.deities.nsiDGdgbAzkTQzOt]{馬格里姆 Magrim}, @Compendium[pf2e.deities.Af4TSJjutVi9Vdwi]{瑪哈薩拉 Mahathallah}, @Compendium[pf2e.deities.JgDqFUB1NtQkGmzp]{奧托門斯 Otolmens}, @Compendium[pf2e.deities.QZD0u1jxwz0kj8uI]{法萊斯瑪 Pharasma}, @Compendium[pf2e.deities.1nQVLOyWv5kC0bCU]{拉維塔 Ravithra}, @Compendium[pf2e.deities.3INt1X4ijBYnZYbU]{夏依卡 Shyka}, @Compendium[pf2e.deities.9FWBJcADLEeP8Krf]{瓦爾馬洛斯 Valmallos}</p>\n<p><strong>領域法術</strong> <em>@Compendium[pf2e.spells-srd.Vvxgn7saUPW2bJhb]{閱讀命運 Read Fate}</em>； <strong>進階領域法術</strong> <em>@Compendium[pf2e.spells-srd.GqvKSxzN7A7kuFk4]{挑戰命運 Tempt Fate}</em></p>\n<p>你能預見與理解潛藏的無法避免的事情。</p>"
		},
		"Fire Domain": {
			"name": "火領域 Fire Domain",
			"description": "<p><strong>神祇</strong> @Compendium[pf2e.deities.gutbzYTZvRTnq4on]{阿丹耶 Adanye}, @Compendium[pf2e.deities.Xb1N5YfxboJH26Jh]{安哥拉德 Angradd}, @Compendium[pf2e.deities.QRkcFciCOmFoxF1B]{阿斯摩蒂斯 Asmodeus}, @Compendium[pf2e.deities.R0DvoLO8WbYIYhb3]{奧特雷亞 Atreia}, @Compendium[pf2e.deities.vEMCpm7iidycRT5D]{布萊 Brigh}, @Compendium[pf2e.deities.OlVCyRgOaPJji4qt]{丘哈爾 Chohar}, @Compendium[pf2e.deities.Bzfc5mIUfMxOnQWu]{達哈卡 Dahak}, @Compendium[pf2e.deities.39z55kowQFOUH2v0]{卓斯卡 Droskar}, @Compendium[pf2e.deities.r6SFB1PzKsagDXff]{難婆 Lady Nanbyo}, @Compendium[pf2e.deities.CnDEoo6WruQCXo1o]{Lubaiko}, @Compendium[pf2e.deities.g1VxllMjs2YRIJAm]{摩洛克 Moloch}, @Compendium[pf2e.deities.SAuFz101iP6VVwvw]{努加爾 Nurgal}, @Compendium[pf2e.deities.woDEgBs1MznhzpJ4]{拉 Ra}, @Compendium[pf2e.deities.GEBaoeiv5CB9h2Bn]{拉賈瑟爾 Ragathiel}, @Compendium[pf2e.deities.BNycwu3I21dTh4D9]{塞恩蕾 Sarenrae}, @Compendium[pf2e.deities.rDTXcBJ8LyqA2TkL]{祖瑞爾 Szuriel}, @Compendium[pf2e.deities.tb0oADxOoMhyrYRA]{山積 Yamatsumi}, @Compendium[pf2e.deities.7L9KIqixgseSCY3X]{伊莫利 Ymeri}</p>\n<p><strong>領域法術</strong> <em>@Compendium[pf2e.spells-srd.oJKZi8OQgmVXHOc0]{火焰射線 Fire Ray}</em>； <strong>進階領域法術</strong> <em>@Compendium[pf2e.spells-srd.y7Tusv3CieZktkkV]{火焰屏障 Flame Barrier}</em></p>\n<p>你可以控制火焰。</p>"
		},
		"Freedom Domain": {
			"name": "自由領域 Freedom Domain",
			"description": "<p><strong>神祇</strong> @Compendium[pf2e.deities.HtRxo4J3elFteIqu]{阿拉茲尼 Arazni}, @Compendium[pf2e.deities.KDFujU3Yug6AwCOz]{阿謝伊 Arshea}, @Compendium[pf2e.deities.c9NFjRR8gr6CWpjl]{黑蝴蝶 Black Butterfly}, @Compendium[pf2e.deities.soiVh53y9RAeSLEk]{卡珊德拉 Casandalee}, @Compendium[pf2e.deities.v67fHklTZ6LoU54q]{凱登·凱連 Cayden Cailean}, @Compendium[pf2e.deities.oV5cnlPJQS8JfMIg]{篷車星座群神系 Cosmic Caravan}, @Compendium[pf2e.deities.IXLzDSMGndFb5rGY]{法蕾納 Falayna}, @Compendium[pf2e.deities.iXvyp9rGnqvFfy4q]{卡祖塔爾 Kazutal}, @Compendium[pf2e.deities.fTJLgTfEMZreJ19r]{密拉妮 Milani}, @Compendium[pf2e.deities.65o189p2eUPbqaDK]{內瑞塞彌尼克 Narriseminek}, @Compendium[pf2e.deities.Ij1KRM8ufkEjGnR3]{蘭基諾瑞 Ranginori}, @Compendium[pf2e.deities.1xHnoMlCyCV70TnT]{薩洛克 Saloc}, @Compendium[pf2e.deities.ra7mnjAZcEuJxI37]{雪 Shei}, @Compendium[pf2e.deities.g1AVEGi8QibhS007]{瓦爾克納 Walkena}</p>\n<p><strong>領域法術</strong> <em>@Compendium[pf2e.spells-srd.gwOYh5zMVZB0HNcT]{無礙步伐 Unimpeded Stride}</em>； <strong>進階領域法術</strong> <em>@Compendium[pf2e.spells-srd.2jB9eyX7YekwoCvA]{自由之語 Word of Freedom}</em></p>\n<p>你從鐐銬或制約中解放你自己或其他人。</p>"
		},
		"Glyph Domain": {
			"name": "字圖領域 Glyph Domain",
			"description": "<p><strong>神祇</strong> @Compendium[pf2e.deities.QRkcFciCOmFoxF1B]{阿斯摩蒂斯 Asmodeus}, @Compendium[pf2e.deities.6mgCX7lvKtaEYoa9]{矮人眾神 Dwarven Pantheon}, @Compendium[pf2e.deities.8DXel4AvpyUy6oJ0]{艾瑞翠絲 Eritrice}, @Compendium[pf2e.deities.tcvobm8O84qv0aO5]{格魯哈斯撒 Gruhastha}, @Compendium[pf2e.deities.WvoMr86bSSYxXKtI]{哈斯塔 Hastur}, @Compendium[pf2e.deities.KIEgpcmHYtFu1dpg]{伊莫特 Imot}, @Compendium[pf2e.deities.lSciGZGcbU9PJxQy]{伊芮茲 Irez}, @Compendium[pf2e.deities.xu05XGotyT5st56H]{晶茜女士 Lady Jingxi}, @Compendium[pf2e.deities.w66gCNiZ7dslqG8K]{璃殤 Lissala}, @Compendium[pf2e.deities.iMRXc519Uepf8yH3]{瑪芙 Magdh}, @Compendium[pf2e.deities.nsiDGdgbAzkTQzOt]{馬格里姆 Magrim}, @Compendium[pf2e.deities.KWVdoAm3b01M8Lcp]{墨菲斯托菲勒斯 Mephistopheles}, @Compendium[pf2e.deities.gsFaxWHbZmc1moY6]{娜麗妮瓦蒂 Nalinivati}, @Compendium[pf2e.deities.9EKyWmjLUu42evxC]{內希斯 Nethys}, @Compendium[pf2e.deities.WO9UsCY41oTtC2G0]{知識之神 Pillars of Knowledge}, @Compendium[pf2e.deities.iJyhAFmHOLZBvWnJ]{西芙娜 Sivanah}, @Compendium[pf2e.deities.aievwuZalZ2abs2q]{托特 Thoth}, @Compendium[pf2e.deities.9FWBJcADLEeP8Krf]{瓦爾馬洛斯 Valmallos}, @Compendium[pf2e.deities.ZynnoQJFz12FD0Xn]{守護法老 Wards of the Pharaoh}, @Compendium[pf2e.deities.8wOAwLMgB1HFLo9n]{文拉斯 Winlas}, @Compendium[pf2e.deities.iEt6idGIEPXY2HzV]{伊達吉絲克 Ydajisk}</p>\n<p><strong>領域法術</strong> <em>@Compendium[pf2e.spells-srd.ifXNOhtmU4fKL68v]{篡輯術 Redact}</em>； <strong>進階領域法術</strong> <em>@Compendium[pf2e.spells-srd.vhe9DduqaivMs8FV]{字幕聽寫 Ghostly Transcription}</em></p>\n<p>你擁有影響文書與記號的能力。</p>"
		},
		"Healing Domain": {
			"name": "治療領域 Healing Domain",
			"description": "<p><strong>神祇</strong> @Compendium[pf2e.deities.jrPmEfubRDzMKbxl]{阿倫德哈特 Arundhat}, @Compendium[pf2e.deities.R0DvoLO8WbYIYhb3]{奧特雷亞 Atreia}, @Compendium[pf2e.deities.HD7g8T8ioy1EH3M8]{波絡卡 Bolka}, @Compendium[pf2e.deities.yiKle2URZ43KYVKQ]{查米都 Chamidu}, @Compendium[pf2e.deities.McUqN13BGLTpYWCg]{綠境公 Green Man}, @Compendium[pf2e.deities.EFyDjlH7XjGq7Erd]{伊西絲 Isis}, @Compendium[pf2e.deities.5ZIvg8CkqRMepVcX]{孔冉達 Korada}, @Compendium[pf2e.deities.nuvfUC4TcOvFbKxx]{奧西里斯 Osiris}, @Compendium[pf2e.deities.QZD0u1jxwz0kj8uI]{法萊斯瑪 Pharasma}, @Compendium[pf2e.deities.giAsBYiL2omr0x2L]{齊仲 Qi Zhong}, @Compendium[pf2e.deities.BNycwu3I21dTh4D9]{塞恩蕾 Sarenrae}, @Compendium[pf2e.deities.0nQItOlce5ua6Eaf]{塞赫麥特 Sekhmet}, @Compendium[pf2e.deities.xTD0XFaguBX6QQ2L]{塞勒凱特 Selket}, @Compendium[pf2e.deities.ra7mnjAZcEuJxI37]{雪 Shei}, @Compendium[pf2e.deities.fTs56epghXwclPcX]{石林鹿母 Stag Mother of the Forest of Stones}, @Compendium[pf2e.deities.6nq25AjImkT5GxDT]{虹光之神 The Prismatic Ray}, @Compendium[pf2e.deities.0R2BjVb7d9tYCIbk]{鐵哈爾 Tlehar}, @Compendium[pf2e.deities.w4fDrwL8VIqJDPfR]{Uvuko}, @Compendium[pf2e.deities.ZynnoQJFz12FD0Xn]{守護法老 Wards of the Pharaoh}</p>\n<p><strong>領域法術</strong> <em>@Compendium[pf2e.spells-srd.rhJyqB9g3ziImQgM]{醫者祝福 Healer's Blessing}</em>； <strong>進階領域法術</strong> <em>@Compendium[pf2e.spells-srd.4nHYSMHito1GUXlm]{制止死亡 Rebuke Death}</em></p>\n<p>你的治癒魔法尤其強力。</p>"
		},
		"Indulgence Domain": {
			"name": "暴食領域 Indulgence Domain",
			"description": "<p><strong>神祇</strong> @Compendium[pf2e.deities.aj4ChTlDcZCmrtJD]{巴菲門特 Baphomet}, @Compendium[pf2e.deities.v67fHklTZ6LoU54q]{凱登·凱連 Cayden Cailean}, @Compendium[pf2e.deities.RUzMtIQal0drPwQY]{果甘蜍 Gogunta}, @Compendium[pf2e.deities.K1tzUClsozKcdpIe]{哈卡莫拉 Halcamora}, @Compendium[pf2e.deities.DEKKbg6riAdL2ARf]{黑風 Hei Feng}, @Compendium[pf2e.deities.V5PbbkZUP9N7kl6h]{卡布裡裡 Kabriri}, @Compendium[pf2e.deities.ItYptsfjV8XvfhOV]{拉耆亞 Lahkgya}, @Compendium[pf2e.deities.0nQItOlce5ua6Eaf]{塞赫麥特 Sekhmet}, @Compendium[pf2e.deities.BLNXYqvzmLgjMq2p]{孫悟空 Sun Wukong}, @Compendium[pf2e.deities.pVQzTL5elNTxvffu]{綠母 The Green Mother}, @Compendium[pf2e.deities.22n3N47sqbqbDxbp]{厄加圖婭 Urgathoa}, @Compendium[pf2e.deities.4bEPoujxhYdUyUOg]{伊德修斯 Ydersius}, @Compendium[pf2e.deities.8ZSywyo8YQPduo92]{祖拉 Zura}</p>\n<p><strong>領域法術</strong> <em>@Compendium[pf2e.spells-srd.mFHQ2u4LWiejqKQG]{強迫填食 Overstuff}</em>； <strong>進階領域法術</strong> <em>@Compendium[pf2e.spells-srd.ZeHeNQ5BNq6m5F1j]{自然發作 Take its Course}</em></p>\n<p>你山吃海喝，並且可以消除過度放縱的危害。</p>"
		},
		"Knowledge Domain": {
			"name": "知識領域 Knowledge Domain",
			"description": "<p><strong>神祇</strong> @Compendium[pf2e.deities.bLI1JMpI2GXQT5AC]{阿巴拉克薩斯 Abraxas}, @Compendium[pf2e.deities.CDkr6eXR1lgu7g6A]{安多萊塔 Andoletta}, @Compendium[pf2e.deities.UUcAqU3KeJSMNxGF]{巴爾扎克 Barzahk}, @Compendium[pf2e.deities.vEMCpm7iidycRT5D]{布萊 Brigh}, @Compendium[pf2e.deities.soiVh53y9RAeSLEk]{卡珊德拉 Casandalee}, @Compendium[pf2e.deities.tcXrtRYCOr2EmgGB]{卡戎 Charon}, @Compendium[pf2e.deities.dcbf3pBSNa2q1Kkq]{達拉薇 Dhalavei}, @Compendium[pf2e.deities.oyp2E685VsQFKMXi]{德郎維特 Dranngvit}, @Compendium[pf2e.deities.8DXel4AvpyUy6oJ0]{艾瑞翠絲 Eritrice}, @Compendium[pf2e.deities.xxUGdZYUj5IW7E0L]{命運追隨者 Followers of Fate}, @Compendium[pf2e.deities.tcvobm8O84qv0aO5]{格魯哈斯撒 Gruhastha}, @Compendium[pf2e.deities.qqqrbq4uCrelQvgH]{義洛理 Irori}, @Compendium[pf2e.deities.V5PbbkZUP9N7kl6h]{卡布裡裡 Kabriri}, @Compendium[pf2e.deities.zhPhYge7VJbIlJvA]{寇司 Kols}, @Compendium[pf2e.deities.xu05XGotyT5st56H]{晶茜女士 Lady Jingxi}, @Compendium[pf2e.deities.lUFMwdv1UOyzFhIM]{利卡 Likha}, @Compendium[pf2e.deities.ArmPZQrl0SFAKvrY]{瑪艾特 Ma'at}, @Compendium[pf2e.deities.iMRXc519Uepf8yH3]{瑪芙 Magdh}, @Compendium[pf2e.deities.v1fsLP6nTkiy5ghB]{瑪茲盧德赫 Mazludeh}, @Compendium[pf2e.deities.KWVdoAm3b01M8Lcp]{墨菲斯托菲勒斯 Mephistopheles}, @Compendium[pf2e.deities.W4QGkdn9V5ACRpkh]{莫那德 Monad}, @Compendium[pf2e.deities.65o189p2eUPbqaDK]{內瑞塞彌尼克 Narriseminek}, @Compendium[pf2e.deities.9EKyWmjLUu42evxC]{內希斯 Nethys}, @Compendium[pf2e.deities.RzTd9PmgnfHNlFVf]{無 Ng}, @Compendium[pf2e.deities.iKgERiIc8rt3fatf]{奈亞拉託提普(獵黑行者) Nyarlathotep (Haunter in the Dark)}, @Compendium[pf2e.deities.3nxIpMGeCvcBIVov]{奈亞拉託提普(伏行之混沌) Nyarlathotep (The Crawling Chaos)}, @Compendium[pf2e.deities.JgDqFUB1NtQkGmzp]{奧托門斯 Otolmens}, @Compendium[pf2e.deities.QZD0u1jxwz0kj8uI]{法萊斯瑪 Pharasma}, @Compendium[pf2e.deities.WO9UsCY41oTtC2G0]{知識之神 Pillars of Knowledge}, @Compendium[pf2e.deities.giAsBYiL2omr0x2L]{齊仲 Qi Zhong}, @Compendium[pf2e.deities.u3YfcJh1C4w6n75j]{勞米亞 Raumya}, @Compendium[pf2e.deities.1xHnoMlCyCV70TnT]{薩洛克 Saloc}, @Compendium[pf2e.deities.HbuynQRCjGKtbhcC]{失落王子 The Lost Prince}, @Compendium[pf2e.deities.9FWBJcADLEeP8Krf]{瓦爾馬洛斯 Valmallos}, @Compendium[pf2e.deities.ZynnoQJFz12FD0Xn]{守護法老 Wards of the Pharaoh}, @Compendium[pf2e.deities.8wOAwLMgB1HFLo9n]{文拉斯 Winlas}, @Compendium[pf2e.deities.iEt6idGIEPXY2HzV]{伊達吉絲克 Ydajisk}, @Compendium[pf2e.deities.SUaGdvQXxSAQAw03]{猶格-索托斯 Yog-Sothoth}, @Compendium[pf2e.deities.uYpxTi4byHc5w78R]{約拉爾 Yuelral}, @Compendium[pf2e.deities.SCGdJmm7Wzle9jFP]{柔思 Zohls}</p>\n<p><strong>領域法術</strong> <em>@Compendium[pf2e.spells-srd.dXIRotMLsABDQQSB]{博學強記 Scholarly Recollection}</em>； <strong>進階領域法術</strong> <em>@Compendium[pf2e.spells-srd.l6zjNysNedpJcmDT]{知敵要害 Know the Enemy}</em></p>\n<p>你通過神術看透世界本貌。</p>"
		},
		"Lightning Domain": {
			"name": "雷電領域 Lightning Domain",
			"description": "<p><strong>神祇</strong> @Compendium[pf2e.deities.soiVh53y9RAeSLEk]{卡珊德拉 Casandalee}, @Compendium[pf2e.deities.EE8sNM4JraOPN669]{薩那諾斯 Cernunnos}, @Compendium[pf2e.deities.yiKle2URZ43KYVKQ]{查米都 Chamidu}, @Compendium[pf2e.deities.swwwP7eVmlNuWTb7]{哥茲萊 Gozreh}, @Compendium[pf2e.deities.DEKKbg6riAdL2ARf]{黑風 Hei Feng}, @Compendium[pf2e.deities.CnDEoo6WruQCXo1o]{Lubaiko}, @Compendium[pf2e.deities.Ij1KRM8ufkEjGnR3]{蘭基諾瑞 Ranginori}</p>\n<p><strong>領域法術</strong> <em>@Compendium[pf2e.spells-srd.g1eY1vN44mgluE33]{雷霆標槍 Charged Javelin}</em>； <strong>進階領域法術</strong> <em>@Compendium[pf2e.spells-srd.VUwpDY4Z91s9QCg0]{收放雷電 Bottle the Storm}</em></p>\n<p>你掌握雷電與風暴。</p>"
		},
		"Luck Domain": {
			"name": "機運領域 Luck Domain",
			"description": "<p><strong>神祇</strong> @Compendium[pf2e.deities.eyGEoggFlTEUQmvJ]{拜斯 Bes}, @Compendium[pf2e.deities.JgqH3BhuEuA4Zyqs]{黛絲娜 Desna}, @Compendium[pf2e.deities.3ffVxwgtvR1imHm8]{根多溫 Gendowyn}, @Compendium[pf2e.deities.K1tzUClsozKcdpIe]{哈卡莫拉 Halcamora}, @Compendium[pf2e.deities.lSciGZGcbU9PJxQy]{伊芮茲 Irez}, @Compendium[pf2e.deities.AIcDyoff265z9285]{國府幸 Kofusachi}, @Compendium[pf2e.deities.MbJ93Nw39h2cBYi5]{老鼠婆 Lao Shu Po}, @Compendium[pf2e.deities.Mv6uTJLh3VGEoGLH]{妮薇·炫稜 Nivi Rhombodazzle}</p>\n<p><strong>領域法術</strong> <em>@Compendium[pf2e.spells-srd.Fr2CGvWcgSyLcUi7]{小幸運 Bit of Luck}</em>； <strong>進階領域法術</strong> <em>@Compendium[pf2e.spells-srd.7OwZHalOdRCRnFmZ]{時來運轉 Lucky Break}</em></p>\n<p>你不尋常地走運，並且遠離不好的選擇。</p>"
		},
		"Magic Domain": {
			"name": "魔法領域 Magic Domain",
			"description": "<p><strong>神祇</strong> @Compendium[pf2e.deities.bLI1JMpI2GXQT5AC]{阿巴拉克薩斯 Abraxas}, @Compendium[pf2e.deities.9n2CI0B3EA4y3BuU]{奧爾塞塔 Alseta}, @Compendium[pf2e.deities.jrPmEfubRDzMKbxl]{阿倫德哈特 Arundhat}, @Compendium[pf2e.deities.9WD0hbUT0IbnuTiM]{巴爾澤布 Baalzebul}, @Compendium[pf2e.deities.oiEo6tDP3gICHtfZ]{巴爾巴託斯 Barbatos}, @Compendium[pf2e.deities.Zw8nhcpRxinoYRSa]{精靈眾神 Elven Pantheon}, @Compendium[pf2e.deities.lSciGZGcbU9PJxQy]{伊芮茲 Irez}, @Compendium[pf2e.deities.EFyDjlH7XjGq7Erd]{伊西絲 Isis}, @Compendium[pf2e.deities.5ZIvg8CkqRMepVcX]{孔冉達 Korada}, @Compendium[pf2e.deities.w66gCNiZ7dslqG8K]{璃殤 Lissala}, @Compendium[pf2e.deities.gsFaxWHbZmc1moY6]{娜麗妮瓦蒂 Nalinivati}, @Compendium[pf2e.deities.9EKyWmjLUu42evxC]{內希斯 Nethys}, @Compendium[pf2e.deities.RzTd9PmgnfHNlFVf]{無 Ng}, @Compendium[pf2e.deities.3nxIpMGeCvcBIVov]{奈亞拉託提普(伏行之混沌) Nyarlathotep (The Crawling Chaos)}, @Compendium[pf2e.deities.giAsBYiL2omr0x2L]{齊仲 Qi Zhong}, @Compendium[pf2e.deities.xTD0XFaguBX6QQ2L]{塞勒凱特 Selket}, @Compendium[pf2e.deities.iJyhAFmHOLZBvWnJ]{西芙娜 Sivanah}, @Compendium[pf2e.deities.vnmoAGURp8oWCY6R]{索拉勇 Soralyon}, @Compendium[pf2e.deities.22n3N47sqbqbDxbp]{厄加圖婭 Urgathoa}, @Compendium[pf2e.deities.9FWBJcADLEeP8Krf]{瓦爾馬洛斯 Valmallos}, @Compendium[pf2e.deities.ZynnoQJFz12FD0Xn]{守護法老 Wards of the Pharaoh}, @Compendium[pf2e.deities.uYpxTi4byHc5w78R]{約拉爾 Yuelral}</p>\n<p><strong>領域法術</strong> <em>@Compendium[pf2e.spells-srd.u4FGIUQgruLjml7J]{魔力傳導 Magic's Vessel}</em>； <strong>進階領域法術</strong> <em>@Compendium[pf2e.spells-srd.2SYq0ZTsOtJEigFx]{神祕信標 Mystic Beacon}</em></p>\n<p>你製造毫無預兆或無法解釋的現象。</p>"
		},
		"Might Domain": {
			"name": "威力領域 Might Domain",
			"description": "<p><strong>神祇</strong> @Compendium[pf2e.deities.51kMMWaT6CqpGlGk]{阿卡艾剋剋 Achaekek}, @Compendium[pf2e.deities.uXkMGx0OD896ZQlT]{艾格倫薇絲 Alglenweis}, @Compendium[pf2e.deities.cHAbE86pto5bvIWo]{安加贊 Angazhan}, @Compendium[pf2e.deities.RbslST0RZPXj6Eby]{阿什珈瑪 Ashukharma}, @Compendium[pf2e.deities.aChBtIDfA59QQ7SN]{阿依爾祖 Ayrzul}, @Compendium[pf2e.deities.1fmTXGRPa8fLXZKL]{Balumbdar}, @Compendium[pf2e.deities.aj4ChTlDcZCmrtJD]{巴菲門特 Baphomet}, @Compendium[pf2e.deities.v67fHklTZ6LoU54q]{凱登·凱連 Cayden Cailean}, @Compendium[pf2e.deities.oyp2E685VsQFKMXi]{德郎維特 Dranngvit}, @Compendium[pf2e.deities.aVyxfqY9GBjTqQul]{艾希斯 Eiseth}, @Compendium[pf2e.deities.IXLzDSMGndFb5rGY]{法蕾納 Falayna}, @Compendium[pf2e.deities.Zi1UARhode3FSFLr]{大將軍進 General Susumu}, @Compendium[pf2e.deities.WOiSJ4IWjaRsSgRO]{格殷永 Geryon}, @Compendium[pf2e.deities.RUzMtIQal0drPwQY]{果甘蜍 Gogunta}, @Compendium[pf2e.deities.88vRw2ZVPax4hhga]{古拉姆 Gorum}, @Compendium[pf2e.deities.McUqN13BGLTpYWCg]{綠境公 Green Man}, @Compendium[pf2e.deities.VvxEvEKhCGRwrMJp]{因博萊克斯 Imbrex}, @Compendium[pf2e.deities.eErEiVmBqltYXFJ6]{艾奧梅黛 Iomedae}, @Compendium[pf2e.deities.qqqrbq4uCrelQvgH]{義洛理 Irori}, @Compendium[pf2e.deities.aLCfEgt48SRUHnMC]{賈迪 Jaidi}, @Compendium[pf2e.deities.iXvyp9rGnqvFfy4q]{卡祖塔爾 Kazutal}, @Compendium[pf2e.deities.zhPhYge7VJbIlJvA]{寇司 Kols}, @Compendium[pf2e.deities.JcIf4uwKLxEWdplI]{科斯徹奇 Kostchtchie}, @Compendium[pf2e.deities.r5vooG7NfvA9prJK]{庫爾吉斯 Kurgess}, @Compendium[pf2e.deities.aipkJQxP4GBsTaGq]{拉瑪什圖 Lamashtu}, @Compendium[pf2e.deities.g1VxllMjs2YRIJAm]{摩洛克 Moloch}, @Compendium[pf2e.deities.o9tK1T28LNEVzpFV]{臘格迪亞 Ragdya}, @Compendium[pf2e.deities.u3YfcJh1C4w6n75j]{勞米亞 Raumya}, @Compendium[pf2e.deities.0nQItOlce5ua6Eaf]{塞赫麥特 Sekhmet}, @Compendium[pf2e.deities.TvxsVRztDlGcWpcI]{索貝克 Sobek}, @Compendium[pf2e.deities.BLNXYqvzmLgjMq2p]{孫悟空 Sun Wukong}, @Compendium[pf2e.deities.rDTXcBJ8LyqA2TkL]{祖瑞爾 Szuriel}, @Compendium[pf2e.deities.N8a76dkGfUvxvSW0]{杜魯德 Trudd}, @Compendium[pf2e.deities.22n3N47sqbqbDxbp]{厄加圖婭 Urgathoa}, @Compendium[pf2e.deities.tb0oADxOoMhyrYRA]{山積 Yamatsumi}, @Compendium[pf2e.deities.4bEPoujxhYdUyUOg]{伊德修斯 Ydersius}, @Compendium[pf2e.deities.8roijlQ03l9rWFFe]{澤烏伽瓦災布 Zevgavizeb}</p>\n<p><strong>領域法術</strong> <em>@Compendium[pf2e.spells-srd.UGJzJRJDoonfWqqI]{體能爆發 Athletic Rush}</em>； <strong>進階領域法術</strong> <em>@Compendium[pf2e.spells-srd.eG1fBodYwolaXK98]{忍耐之力 Enduring Might}</em></p>\n<p>神術力量強化了你的身體能力。</p>"
		},
		"Moon Domain": {
			"name": "月亮領域 Moon Domain",
			"description": "<p><strong>神祇</strong> @Compendium[pf2e.deities.DJ7LDFTtns6YFodT]{伊沙瓦 Ashava}, @Compendium[pf2e.deities.oV5cnlPJQS8JfMIg]{篷車星座群神系 Cosmic Caravan}, @Compendium[pf2e.deities.JgqH3BhuEuA4Zyqs]{黛絲娜 Desna}, @Compendium[pf2e.deities.liXIbl7y8www2eAn]{芬德烈萊拉 Findeladlara}, @Compendium[pf2e.deities.rRuxBgC58PxrLzRv]{荷魯斯 Horus}, @Compendium[pf2e.deities.wjXNXFWBLbJaeZQR]{克忒菲斯 Ketephys}, @Compendium[pf2e.deities.VG51y4FbTLdeGHZB]{天幕引路 The Path of the Heavens}, @Compendium[pf2e.deities.6nq25AjImkT5GxDT]{虹光之神 The Prismatic Ray}, @Compendium[pf2e.deities.aievwuZalZ2abs2q]{托特 Thoth}, @Compendium[pf2e.deities.aTYy1WHwAZiuei4h]{月夜 Tsukiyo}</p>\n<p><strong>領域法術</strong> <em>@Compendium[pf2e.spells-srd.SuBtUJiU6DbSJYIw]{月亮射線 Moonbeam}</em>； <strong>進階領域法術</strong> <em>@Compendium[pf2e.spells-srd.oXCwHBeDja4e0Mx0]{月相觸禮 Touch of the Moon}</em></p>\n<p>你可以驅使與月亮相關的力量。</p>"
		},
		"Naga Domain": {
			"name": "娜迦領域 Naga Domain",
			"description": "<p><strong>神祇</strong> @Compendium[pf2e.deities.1nQVLOyWv5kC0bCU]{拉維塔 Ravithra}</p>\n<p><strong>領域法術</strong> <em>@Compendium[pf2e.spells-srd.lXxP1ziyf4ozkpmv]{Split the Tongue}</em>； <strong>進階領域法術</strong> <em>@Compendium[pf2e.spells-srd.CPNlhDQP3aDmLzB3]{Ordained Purpose}</em></p>\n<p>Like the serpentine nagas, you're in tune with cosmic forces that Ravithra once controlled.</p>"
		},
		"Nature Domain": {
			"name": "自然領域 Nature Domain",
			"description": "<p><strong>神祇</strong> @Compendium[pf2e.deities.cHAbE86pto5bvIWo]{安加贊 Angazhan}, @Compendium[pf2e.deities.jrPmEfubRDzMKbxl]{阿倫德哈特 Arundhat}, @Compendium[pf2e.deities.1fmTXGRPa8fLXZKL]{Balumbdar}, @Compendium[pf2e.deities.oiEo6tDP3gICHtfZ]{巴爾巴託斯 Barbatos}, @Compendium[pf2e.deities.zRmAXj7FSlrMfDeA]{芭絲特 Bastet}, @Compendium[pf2e.deities.EE8sNM4JraOPN669]{薩那諾斯 Cernunnos}, @Compendium[pf2e.deities.yiKle2URZ43KYVKQ]{查米都 Chamidu}, @Compendium[pf2e.deities.gXHoxuuiAD54LnWV]{切斯-烏蘇格 Cyth-V'sug}, @Compendium[pf2e.deities.M3eb94Nd6uXti2IK]{大狐女 Daikitsu}, @Compendium[pf2e.deities.Zw8nhcpRxinoYRSa]{精靈眾神 Elven Pantheon}, @Compendium[pf2e.deities.mm1j6UbHqFCI8fwB]{埃拉斯蒂爾 Erastil}, @Compendium[pf2e.deities.3ffVxwgtvR1imHm8]{根多溫 Gendowyn}, @Compendium[pf2e.deities.swwwP7eVmlNuWTb7]{哥茲萊 Gozreh}, @Compendium[pf2e.deities.McUqN13BGLTpYWCg]{綠境公 Green Man}, @Compendium[pf2e.deities.tcvobm8O84qv0aO5]{格魯哈斯撒 Gruhastha}, @Compendium[pf2e.deities.K1tzUClsozKcdpIe]{哈卡莫拉 Halcamora}, @Compendium[pf2e.deities.aLCfEgt48SRUHnMC]{賈迪 Jaidi}, @Compendium[pf2e.deities.kiTcZxmKxGPCwDpg]{凱爾寇特 Kalekot}, @Compendium[pf2e.deities.wjXNXFWBLbJaeZQR]{克忒菲斯 Ketephys}, @Compendium[pf2e.deities.ItYptsfjV8XvfhOV]{拉耆亞 Lahkgya}, @Compendium[pf2e.deities.SCMlQDcoU1QcF3AS]{呂西阿娜 Lysianassa}, @Compendium[pf2e.deities.hWTTS0e7J9hJfsp3]{馬崔瓦許 Matravash}, @Compendium[pf2e.deities.v1fsLP6nTkiy5ghB]{瑪茲盧德赫 Mazludeh}, @Compendium[pf2e.deities.E1dUhoSEf2XfklU2]{禿鷲之母 Mother Vulture}, @Compendium[pf2e.deities.8Oy4qHylOOp79JxD]{寧布洛斯 Nhimbaloth}, @Compendium[pf2e.deities.nuvfUC4TcOvFbKxx]{奧西里斯 Osiris}, @Compendium[pf2e.deities.woDEgBs1MznhzpJ4]{拉 Ra}, @Compendium[pf2e.deities.xTD0XFaguBX6QQ2L]{塞勒凱特 Selket}, @Compendium[pf2e.deities.fTs56epghXwclPcX]{石林鹿母 Stag Mother of the Forest of Stones}, @Compendium[pf2e.deities.BLNXYqvzmLgjMq2p]{孫悟空 Sun Wukong}, @Compendium[pf2e.deities.DFxbPmQLOqcmbPTz]{塔納嘎 Tanagaar}, @Compendium[pf2e.deities.pVQzTL5elNTxvffu]{綠母 The Green Mother}, @Compendium[pf2e.deities.ENzMYuzBZGIujSMx]{毀木者 Treerazer}, @Compendium[pf2e.deities.mebdNVKeKuTmDDHj]{夏門-多 Xhamen-Dor}, @Compendium[pf2e.deities.YXmeBdOZfWgUljW1]{尤麗曼徹 Ylimancha}, @Compendium[pf2e.deities.8roijlQ03l9rWFFe]{澤烏伽瓦災布 Zevgavizeb}</p>\n<p><strong>領域法術</strong> <em>@Compendium[pf2e.spells-srd.nnSipUPNd3sm5vYL]{護體棘刺 Vibrant Thorns}</em>； <strong>進階領域法術</strong> <em>@Compendium[pf2e.spells-srd.vSSKyUdrHu86E5Gk]{自然饋贈 Nature's Bounty}</em></p>\n<p>你擁有掌控動物與植物的力量。</p>"
		},
		"Nightmares Domain": {
			"name": "夢魘領域 Nightmares Domain",
			"description": "<p><strong>神祇</strong> @Compendium[pf2e.deities.sILda7I8Ak20Ioj9]{阿撒託斯 Azathoth}, @Compendium[pf2e.deities.yiKle2URZ43KYVKQ]{查米都 Chamidu}, @Compendium[pf2e.deities.WloVxo6HXJdS4YTt]{格羅圖斯 Groetus}, @Compendium[pf2e.deities.zlJGKpeLBwajP91o]{吉羅娜 Gyronna}, @Compendium[pf2e.deities.bF77ydtptI54STl9]{傑茲 Jaidz}, @Compendium[pf2e.deities.kiTcZxmKxGPCwDpg]{凱爾寇特 Kalekot}, @Compendium[pf2e.deities.14GLsVobnZTEmJrs]{凱利贊德里 Kelizandri}, @Compendium[pf2e.deities.aipkJQxP4GBsTaGq]{拉瑪什圖 Lamashtu}, @Compendium[pf2e.deities.iKgERiIc8rt3fatf]{奈亞拉託提普(獵黑行者) Nyarlathotep (Haunter in the Dark)}, @Compendium[pf2e.deities.3nxIpMGeCvcBIVov]{奈亞拉託提普(伏行之混沌) Nyarlathotep (The Crawling Chaos)}, @Compendium[pf2e.deities.BrbXGyzCeORNyJT5]{希芙珂什 Sifkesh}, @Compendium[pf2e.deities.ENzMYuzBZGIujSMx]{毀木者 Treerazer}, @Compendium[pf2e.deities.9eltBjLngkR9x1Xm]{崔瑪瑞希 Trelmarixian}, @Compendium[pf2e.deities.8ZSywyo8YQPduo92]{祖拉 Zura}</p>\n<p><strong>領域法術</strong> <em>@Compendium[pf2e.spells-srd.DU5daB09xwfE1y38]{白日噩夢 Waking Nightmare}</em>； <strong>進階領域法術</strong> <em>@Compendium[pf2e.spells-srd.skvgOWNTitLehL0b]{噩夢連結 Shared Nightmare}</em></p>\n<p>你將恐怖與畏懼填入無數意識中。</p>"
		},
		"Pain Domain": {
			"name": "痛苦領域 Pain Domain",
			"description": "<p><strong>神祇</strong> @Compendium[pf2e.deities.HtRxo4J3elFteIqu]{阿拉茲尼 Arazni}, @Compendium[pf2e.deities.AlL9GtlTldbqNoVm]{卡莉斯翠 Calistria}, @Compendium[pf2e.deities.AMFkYKUNQ3kCD0ob]{多洛蕾絲 Doloras}, @Compendium[pf2e.deities.zlJGKpeLBwajP91o]{吉羅娜 Gyronna}, @Compendium[pf2e.deities.hhV2g6aU8jKLEca1]{那拉卡斯 Narakaas}, @Compendium[pf2e.deities.zzhYFcShT9JoE2Mp]{煞克斯 Shax}, @Compendium[pf2e.deities.BrbXGyzCeORNyJT5]{希芙珂什 Sifkesh}, @Compendium[pf2e.deities.fTs56epghXwclPcX]{石林鹿母 Stag Mother of the Forest of Stones}, @Compendium[pf2e.deities.y93whGnGZjFyw5A0]{薇爾迪斯 Vildeis}, @Compendium[pf2e.deities.83jKKHQPoqVylmrF]{夜神 Yaezhing}, @Compendium[pf2e.deities.ZfN7jkK6boU1FuiS]{宗-庫山 Zon-Kuthon}</p>\n<p><strong>領域法術</strong> <em>@Compendium[pf2e.spells-srd.xn0V2HDrmDWNzPEt]{品嚐劇痛 Savor the Sting}</em>； <strong>進階領域法術</strong> <em>@Compendium[pf2e.spells-srd.SSsUC7rZo0CwayPn]{苦痛報應 Retributive Pain}</em></p>\n<p>你用可怕的痛苦來折磨令你不快的人。</p>"
		},
		"Passion Domain": {
			"name": "熱情領域 Passion Domain",
			"description": "<p><strong>神祇</strong> @Compendium[pf2e.deities.uydTiyN5AzhBnQY8]{阿達德·莉莉 Ardad Lili}, @Compendium[pf2e.deities.KDFujU3Yug6AwCOz]{阿謝伊 Arshea}, @Compendium[pf2e.deities.zRmAXj7FSlrMfDeA]{芭絲特 Bastet}, @Compendium[pf2e.deities.remyY1BwhEVmBwya]{貝利亞 Belial}, @Compendium[pf2e.deities.HD7g8T8ioy1EH3M8]{波絡卡 Bolka}, @Compendium[pf2e.deities.AlL9GtlTldbqNoVm]{卡莉斯翠 Calistria}, @Compendium[pf2e.deities.EE8sNM4JraOPN669]{薩那諾斯 Cernunnos}, @Compendium[pf2e.deities.TpAMy8tb5LrRgvqN]{哈索爾 Hathor}, @Compendium[pf2e.deities.EFyDjlH7XjGq7Erd]{伊西絲 Isis}, @Compendium[pf2e.deities.AIcDyoff265z9285]{國府幸 Kofusachi}, @Compendium[pf2e.deities.lUFMwdv1UOyzFhIM]{利卡 Likha}, @Compendium[pf2e.deities.QibpLccM5bLUMopj]{林尼芮斯 Lymnieris}, @Compendium[pf2e.deities.pm8H2DbtrHM01KNV]{娜德瑞 Naderi}, @Compendium[pf2e.deities.gsFaxWHbZmc1moY6]{娜麗妮瓦蒂 Nalinivati}, @Compendium[pf2e.deities.gxwmzxUWBOhdgFSN]{莎琳 Shelyn}, @Compendium[pf2e.deities.pVQzTL5elNTxvffu]{綠母 The Green Mother}, @Compendium[pf2e.deities.nuqIimigyt986WLE]{燈王 The Lantern King}, @Compendium[pf2e.deities.0R2BjVb7d9tYCIbk]{鐵哈爾 Tlehar}</p>\n<p><strong>領域法術</strong> <em>@Compendium[pf2e.spells-srd.ut9IhJ9jSZSHDUop]{魅惑之觸 Charming Touch}</em>； <strong>進階領域法術</strong> <em>@Compendium[pf2e.spells-srd.jJphHQlENHFlSElH]{迷人情態 Captivating Adoration}</em></p>\n<p>你創造熱情，不管是通過熱愛還是慾望。</p>"
		},
		"Perfection Domain": {
			"name": "完美領域 Perfection Domain",
			"description": "<p><strong>神祇</strong> @Compendium[pf2e.deities.KDFujU3Yug6AwCOz]{阿謝伊 Arshea}, @Compendium[pf2e.deities.1fmTXGRPa8fLXZKL]{Balumbdar}, @Compendium[pf2e.deities.soiVh53y9RAeSLEk]{卡珊德拉 Casandalee}, @Compendium[pf2e.deities.tcvobm8O84qv0aO5]{格魯哈斯撒 Gruhastha}, @Compendium[pf2e.deities.qqqrbq4uCrelQvgH]{義洛理 Irori}, @Compendium[pf2e.deities.v1fsLP6nTkiy5ghB]{瑪茲盧德赫 Mazludeh}, @Compendium[pf2e.deities.65o189p2eUPbqaDK]{內瑞塞彌尼克 Narriseminek}, @Compendium[pf2e.deities.JgDqFUB1NtQkGmzp]{奧托門斯 Otolmens}, @Compendium[pf2e.deities.WO9UsCY41oTtC2G0]{知識之神 Pillars of Knowledge}, @Compendium[pf2e.deities.o9tK1T28LNEVzpFV]{臘格迪亞 Ragdya}, @Compendium[pf2e.deities.ra7mnjAZcEuJxI37]{雪 Shei}, @Compendium[pf2e.deities.s9opv94lGDRKnw6W]{靜瑠 Shizuru}, @Compendium[pf2e.deities.JndhOIHnQoMwnsw3]{神爪五柱 The Godclaw}</p>\n<p><strong>領域法術</strong> <em>@Compendium[pf2e.spells-srd.cDFAQN7Z3es07WSA]{純粹意志 Perfected Mind}</em>； <strong>進階領域法術</strong> <em>@Compendium[pf2e.spells-srd.8ifpNZkaxrbs3dBJ]{無暇形態 Perfected Form}</em></p>\n<p>你盡你所能，來完美你的意志，身體與精神。</p>"
		},
		"Plague Domain": {
			"name": "瘟疫領域 Plague Domain",
			"description": "<p><strong>神祇</strong> @Compendium[pf2e.deities.oJPwMa9xG8oMnC14]{亞玻倫 Apollyon}, @Compendium[pf2e.deities.gXHoxuuiAD54LnWV]{切斯-烏蘇格 Cyth-V'sug}, @Compendium[pf2e.deities.oRvuLq3o2FxXizt9]{珈蘭德爾 Ghlaunder}, @Compendium[pf2e.deities.r6SFB1PzKsagDXff]{難婆 Lady Nanbyo}</p>\n<p><strong>領域法術</strong> <em>@Compendium[pf2e.spells-srd.NkeLctXo9FLGnDhi]{神疫術 Divine Plagues}</em>； <strong>進階領域法術</strong> <em>@Compendium[pf2e.spells-srd.6nTBr5XNuKOuPM5m]{傳染瘴氣 Foul Miasma}</em></p>\n<p>你以疾患疫病為武器。</p>"
		},
		"Protection Domain": {
			"name": "防護領域 Protection Domain",
			"description": "<p><strong>神祇</strong> @Compendium[pf2e.deities.gutbzYTZvRTnq4on]{阿丹耶 Adanye}, @Compendium[pf2e.deities.9n2CI0B3EA4y3BuU]{奧爾塞塔 Alseta}, @Compendium[pf2e.deities.CDkr6eXR1lgu7g6A]{安多萊塔 Andoletta}, @Compendium[pf2e.deities.Xb1N5YfxboJH26Jh]{安哥拉德 Angradd}, @Compendium[pf2e.deities.5YUNikBpJZ596MRD]{阿努比斯 Anubis}, @Compendium[pf2e.deities.o8ayCv3LAHWlu0vQ]{阿普蘇 Apsu}, @Compendium[pf2e.deities.HtRxo4J3elFteIqu]{阿拉茲尼 Arazni}, @Compendium[pf2e.deities.jrPmEfubRDzMKbxl]{阿倫德哈特 Arundhat}, @Compendium[pf2e.deities.RbslST0RZPXj6Eby]{阿什珈瑪 Ashukharma}, @Compendium[pf2e.deities.R0DvoLO8WbYIYhb3]{奧特雷亞 Atreia}, @Compendium[pf2e.deities.1fmTXGRPa8fLXZKL]{Balumbdar}, @Compendium[pf2e.deities.zRmAXj7FSlrMfDeA]{芭絲特 Bastet}, @Compendium[pf2e.deities.eyGEoggFlTEUQmvJ]{拜斯 Bes}, @Compendium[pf2e.deities.6mgCX7lvKtaEYoa9]{矮人眾神 Dwarven Pantheon}, @Compendium[pf2e.deities.VEyowuhC4FsBnG8c]{福格瑞特 Folgrit}, @Compendium[pf2e.deities.McUqN13BGLTpYWCg]{綠境公 Green Man}, @Compendium[pf2e.deities.tk7gRxXsqvBwQrUF]{奎因迪勒 Grundinnar}, @Compendium[pf2e.deities.rRuxBgC58PxrLzRv]{荷魯斯 Horus}, @Compendium[pf2e.deities.bF77ydtptI54STl9]{傑茲 Jaidz}, @Compendium[pf2e.deities.iXvyp9rGnqvFfy4q]{卡祖塔爾 Kazutal}, @Compendium[pf2e.deities.5ZIvg8CkqRMepVcX]{孔冉達 Korada}, @Compendium[pf2e.deities.QibpLccM5bLUMopj]{林尼芮斯 Lymnieris}, @Compendium[pf2e.deities.ArmPZQrl0SFAKvrY]{瑪艾特 Ma'at}, @Compendium[pf2e.deities.9EKyWmjLUu42evxC]{內希斯 Nethys}, @Compendium[pf2e.deities.giAsBYiL2omr0x2L]{齊仲 Qi Zhong}, @Compendium[pf2e.deities.xTD0XFaguBX6QQ2L]{塞勒凱特 Selket}, @Compendium[pf2e.deities.gxwmzxUWBOhdgFSN]{莎琳 Shelyn}, @Compendium[pf2e.deities.TvxsVRztDlGcWpcI]{索貝克 Sobek}, @Compendium[pf2e.deities.vnmoAGURp8oWCY6R]{索拉勇 Soralyon}, @Compendium[pf2e.deities.JndhOIHnQoMwnsw3]{神爪五柱 The Godclaw}, @Compendium[pf2e.deities.6nq25AjImkT5GxDT]{虹光之神 The Prismatic Ray}, @Compendium[pf2e.deities.sZrdzh0ANQnZGXJb]{托拉格 Torag}, @Compendium[pf2e.deities.N8a76dkGfUvxvSW0]{杜魯德 Trudd}, @Compendium[pf2e.deities.GUmYLD7PGmE2TOx6]{瓦吉特 Wadjet}, @Compendium[pf2e.deities.ZynnoQJFz12FD0Xn]{守護法老 Wards of the Pharaoh}, @Compendium[pf2e.deities.8wOAwLMgB1HFLo9n]{文拉斯 Winlas}</p>\n<p><strong>領域法術</strong> <em>@Compendium[pf2e.spells-srd.rQYob0QMJ0I1U2sU]{獻身守護 Protector's Sacrifice}</em>； <strong>進階領域法術</strong> <em>@Compendium[pf2e.spells-srd.DH9Y3RQGWO0GzXGU]{防護領域 Protector's Sphere}</em></p>\n<p>你保護自身和他人。</p>"
		},
		"Repose Domain": {
			"name": "心療領域 Repose Domain",
			"description": "<p><strong>神祇</strong> @Compendium[pf2e.deities.gutbzYTZvRTnq4on]{阿丹耶 Adanye}, @Compendium[pf2e.deities.DJ7LDFTtns6YFodT]{伊沙瓦 Ashava}, @Compendium[pf2e.deities.RbslST0RZPXj6Eby]{阿什珈瑪 Ashukharma}, @Compendium[pf2e.deities.AMFkYKUNQ3kCD0ob]{多洛蕾絲 Doloras}, @Compendium[pf2e.deities.VEyowuhC4FsBnG8c]{福格瑞特 Folgrit}, @Compendium[pf2e.deities.xu05XGotyT5st56H]{晶茜女士 Lady Jingxi}, @Compendium[pf2e.deities.QibpLccM5bLUMopj]{林尼芮斯 Lymnieris}, @Compendium[pf2e.deities.BNycwu3I21dTh4D9]{塞恩蕾 Sarenrae}, @Compendium[pf2e.deities.gxwmzxUWBOhdgFSN]{莎琳 Shelyn}, @Compendium[pf2e.deities.HbuynQRCjGKtbhcC]{失落王子 The Lost Prince}, @Compendium[pf2e.deities.aTYy1WHwAZiuei4h]{月夜 Tsukiyo}</p>\n<p><strong>領域法術</strong> <em>@Compendium[pf2e.spells-srd.cJq5NarY0eOZN74A]{分擔辛酸 Share Burden}</em>； <strong>進階領域法術</strong> <em>@Compendium[pf2e.spells-srd.yY1H5zhO5dHmD8lz]{靜心泉源 Font of Serenity}</em></p>\n<p>你撫平心靈的傷痛。</p>"
		},
		"Secrecy Domain": {
			"name": "祕密領域 Secrecy Domain",
			"description": "<p><strong>神祇</strong> @Compendium[pf2e.deities.aChBtIDfA59QQ7SN]{阿依爾祖 Ayrzul}, @Compendium[pf2e.deities.aj4ChTlDcZCmrtJD]{巴菲門特 Baphomet}, @Compendium[pf2e.deities.c9NFjRR8gr6CWpjl]{黑蝴蝶 Black Butterfly}, @Compendium[pf2e.deities.AlL9GtlTldbqNoVm]{卡莉斯翠 Calistria}, @Compendium[pf2e.deities.dcbf3pBSNa2q1Kkq]{達拉薇 Dhalavei}, @Compendium[pf2e.deities.Dm8qlzpUj7g82QFv]{艾蕾卡拉 Erecura}, @Compendium[pf2e.deities.WvoMr86bSSYxXKtI]{哈斯塔 Hastur}, @Compendium[pf2e.deities.kiTcZxmKxGPCwDpg]{凱爾寇特 Kalekot}, @Compendium[pf2e.deities.wjXNXFWBLbJaeZQR]{克忒菲斯 Ketephys}, @Compendium[pf2e.deities.KWVdoAm3b01M8Lcp]{墨菲斯托菲勒斯 Mephistopheles}, @Compendium[pf2e.deities.RzTd9PmgnfHNlFVf]{無 Ng}, @Compendium[pf2e.deities.GX6PF9ifR47Xyjg9]{諾格巴 Norgorber}, @Compendium[pf2e.deities.WO9UsCY41oTtC2G0]{知識之神 Pillars of Knowledge}, @Compendium[pf2e.deities.iJyhAFmHOLZBvWnJ]{西芙娜 Sivanah}</p>\n<p><strong>領域法術</strong> <em>@Compendium[pf2e.spells-srd.k43PIYwuQqjeJ3S3]{強迫安靜 Forced Quiet}</em>； <strong>進階領域法術</strong> <em>@Compendium[pf2e.spells-srd.OsrtOeG0TvDNnEFH]{保衛機密 Safeguard Secret}</em></p>\n<p>你保護祕密，並保證它們不為人知。</p>"
		},
		"Sorrow Domain": {
			"name": "悲傷領域 Sorrow Domain",
			"description": "<p><strong>神祇</strong> @Compendium[pf2e.deities.CDkr6eXR1lgu7g6A]{安多萊塔 Andoletta}, @Compendium[pf2e.deities.HtRxo4J3elFteIqu]{阿拉茲尼 Arazni}, @Compendium[pf2e.deities.vSUz97Y29l1O50bC]{萊諾克伯爵 Count Ranalc}, @Compendium[pf2e.deities.AMFkYKUNQ3kCD0ob]{多洛蕾絲 Doloras}, @Compendium[pf2e.deities.lUFMwdv1UOyzFhIM]{利卡 Likha}, @Compendium[pf2e.deities.pm8H2DbtrHM01KNV]{娜德瑞 Naderi}, @Compendium[pf2e.deities.hhV2g6aU8jKLEca1]{那拉卡斯 Narakaas}, @Compendium[pf2e.deities.Vzxm5FyIA40b2OSP]{普露菈 Pulura}, @Compendium[pf2e.deities.1nQVLOyWv5kC0bCU]{拉維塔 Ravithra}, @Compendium[pf2e.deities.s9opv94lGDRKnw6W]{靜瑠 Shizuru}, @Compendium[pf2e.deities.BrbXGyzCeORNyJT5]{希芙珂什 Sifkesh}, @Compendium[pf2e.deities.HbuynQRCjGKtbhcC]{失落王子 The Lost Prince}, @Compendium[pf2e.deities.y93whGnGZjFyw5A0]{薇爾迪斯 Vildeis}, @Compendium[pf2e.deities.LLMTMgARSTlO7S9U]{澤弗斯 Zyphus}</p>\n<p><strong>領域法術</strong> <em>@Compendium[pf2e.spells-srd.T90ij2uu6ZaBaSXV]{哀悼嘶吼 Lament}</em>； <strong>進階領域法術</strong> <em>@Compendium[pf2e.spells-srd.eCniO6INHNfc9Svr]{悲悼滿溢 Overflowing Sorrow}</em></p>\n<p>你與悲苦哀愁間有著痛苦的連結。</p>"
		},
		"Soul Domain": {
			"name": "靈魂領域 Soul Domain",
			"description": "<p><strong>神祇</strong> @Compendium[pf2e.deities.uXkMGx0OD896ZQlT]{艾格倫薇絲 Alglenweis}, @Compendium[pf2e.deities.5YUNikBpJZ596MRD]{阿努比斯 Anubis}, @Compendium[pf2e.deities.DJ7LDFTtns6YFodT]{伊沙瓦 Ashava}, @Compendium[pf2e.deities.tcXrtRYCOr2EmgGB]{卡戎 Charon}, @Compendium[pf2e.deities.ub0PJ5QkrdoGzzb2]{路哈爾 Luhar}, @Compendium[pf2e.deities.QZD0u1jxwz0kj8uI]{法萊斯瑪 Pharasma}, @Compendium[pf2e.deities.1nQVLOyWv5kC0bCU]{拉維塔 Ravithra}, @Compendium[pf2e.deities.aTYy1WHwAZiuei4h]{月夜 Tsukiyo}, @Compendium[pf2e.deities.LLMTMgARSTlO7S9U]{澤弗斯 Zyphus}</p>\n<p><strong>領域法術</strong> <em>@Compendium[pf2e.spells-srd.rVhHaWqUsVUO4GuY]{扯離幽體 Eject Soul}</em>； <strong>進階領域法術</strong> <em>@Compendium[pf2e.spells-srd.QE9f3OxvvBThymD4]{靈質凝結 Ectoplasmic Interstice}</em></p>\n<p>你擁有影響靈界的力量。</p>"
		},
		"Star Domain": {
			"name": "星辰領域 Star Domain",
			"description": "<p><strong>神祇</strong> @Compendium[pf2e.deities.c9NFjRR8gr6CWpjl]{黑蝴蝶 Black Butterfly}, @Compendium[pf2e.deities.oV5cnlPJQS8JfMIg]{篷車星座群神系 Cosmic Caravan}, @Compendium[pf2e.deities.JgqH3BhuEuA4Zyqs]{黛絲娜 Desna}, @Compendium[pf2e.deities.liXIbl7y8www2eAn]{芬德烈萊拉 Findeladlara}, @Compendium[pf2e.deities.ub0PJ5QkrdoGzzb2]{路哈爾 Luhar}, @Compendium[pf2e.deities.ArmPZQrl0SFAKvrY]{瑪艾特 Ma'at}, @Compendium[pf2e.deities.Vzxm5FyIA40b2OSP]{普露菈 Pulura}, @Compendium[pf2e.deities.VG51y4FbTLdeGHZB]{天幕引路 The Path of the Heavens}</p>\n<p><strong>領域法術</strong> <em>@Compendium[pf2e.spells-srd.Yrek2Yd4k3DPC2zV]{天頂明星 Zenith Star}</em>； <strong>進階領域法術</strong> <em>@Compendium[pf2e.spells-srd.KG7amdeXWc7MjGXe]{星座連線 Asterism}</em></p>\n<p>你可驅使星辰之力。</p>"
		},
		"Sun Domain": {
			"name": "太陽領域 Sun Domain",
			"description": "<p><strong>神祇</strong> @Compendium[pf2e.deities.R0DvoLO8WbYIYhb3]{奧特雷亞 Atreia}, @Compendium[pf2e.deities.OlVCyRgOaPJji4qt]{丘哈爾 Chohar}, @Compendium[pf2e.deities.TpAMy8tb5LrRgvqN]{哈索爾 Hathor}, @Compendium[pf2e.deities.rRuxBgC58PxrLzRv]{荷魯斯 Horus}, @Compendium[pf2e.deities.aLCfEgt48SRUHnMC]{賈迪 Jaidi}, @Compendium[pf2e.deities.ub0PJ5QkrdoGzzb2]{路哈爾 Luhar}, @Compendium[pf2e.deities.SAuFz101iP6VVwvw]{努加爾 Nurgal}, @Compendium[pf2e.deities.woDEgBs1MznhzpJ4]{拉 Ra}, @Compendium[pf2e.deities.BNycwu3I21dTh4D9]{塞恩蕾 Sarenrae}, @Compendium[pf2e.deities.s9opv94lGDRKnw6W]{靜瑠 Shizuru}, @Compendium[pf2e.deities.97Qe42wJN5EVUS14]{斯圖羅韋寧 Sturovenen}, @Compendium[pf2e.deities.VG51y4FbTLdeGHZB]{天幕引路 The Path of the Heavens}, @Compendium[pf2e.deities.6nq25AjImkT5GxDT]{虹光之神 The Prismatic Ray}, @Compendium[pf2e.deities.0R2BjVb7d9tYCIbk]{鐵哈爾 Tlehar}, @Compendium[pf2e.deities.g1AVEGi8QibhS007]{瓦爾克納 Walkena}</p>\n<p><strong>領域法術</strong> <em>@Compendium[pf2e.spells-srd.zul5cBTfr7NXHBZf]{耀眼閃光 Dazzling Flash}</em>； <strong>進階領域法術</strong> <em>@Compendium[pf2e.spells-srd.8XuNn0h0rHE24m3B]{神聖光輝 Positive Luminance}</em></p>\n<p>你操控太陽和其他光源的力量，為亡靈帶來懲戒。</p>"
		},
		"Swarm Domain": {
			"name": "叢集領域 Swarm Domain",
			"description": "<p><strong>神祇</strong> @Compendium[pf2e.deities.oJPwMa9xG8oMnC14]{亞玻倫 Apollyon}, @Compendium[pf2e.deities.oRvuLq3o2FxXizt9]{珈蘭德爾 Ghlaunder}, @Compendium[pf2e.deities.K1tzUClsozKcdpIe]{哈卡莫拉 Halcamora}, @Compendium[pf2e.deities.ItYptsfjV8XvfhOV]{拉耆亞 Lahkgya}, @Compendium[pf2e.deities.MbJ93Nw39h2cBYi5]{老鼠婆 Lao Shu Po}, @Compendium[pf2e.deities.IZcdF1G8ZsnMotaM]{帕祖祖 Pazuzu}, @Compendium[pf2e.deities.Bhxji0kxIbMKqdkw]{洛瓦古格 Rovagug}, @Compendium[pf2e.deities.22n3N47sqbqbDxbp]{厄加圖婭 Urgathoa}</p>\n<p><strong>領域法術</strong> <em>@Compendium[pf2e.spells-srd.5wjl0ZwEvvUh7sor]{叢集感官 Swarmsense}</em>； <strong>進階領域法術</strong> <em>@Compendium[pf2e.spells-srd.Pd2M1XY8EXrSfWgJ]{叢集型態 Swarm Form}</em></p>\n<p>你可以控制大量聚集的小生物。</p>"
		},
		"Time Domain": {
			"name": "時間領域 Time Domain",
			"description": "<p><strong>神祇</strong> @Compendium[pf2e.deities.9n2CI0B3EA4y3BuU]{奧爾塞塔 Alseta}, @Compendium[pf2e.deities.vEMCpm7iidycRT5D]{布萊 Brigh}, @Compendium[pf2e.deities.QZD0u1jxwz0kj8uI]{法萊斯瑪 Pharasma}, @Compendium[pf2e.deities.WO9UsCY41oTtC2G0]{知識之神 Pillars of Knowledge}, @Compendium[pf2e.deities.woDEgBs1MznhzpJ4]{拉 Ra}, @Compendium[pf2e.deities.3INt1X4ijBYnZYbU]{夏依卡 Shyka}, @Compendium[pf2e.deities.SUaGdvQXxSAQAw03]{猶格-索托斯 Yog-Sothoth}</p>\n<p><strong>領域法術</strong> <em>@Compendium[pf2e.spells-srd.3wmX7htzOXiHLdAn]{延遲損傷 Delay Consequence}</em>； <strong>進階領域法術</strong> <em>@Compendium[pf2e.spells-srd.cOwSsSXRsBaXUvlr]{靜滯術 Stasis}</em></p>\n<p>你可以控制時間的流動。</p>"
		},
		"Toil Domain": {
			"name": "苦勞領域 Toil Domain",
			"description": "<p><strong>神祇</strong> @Compendium[pf2e.deities.OlVCyRgOaPJji4qt]{丘哈爾 Chohar}, @Compendium[pf2e.deities.39z55kowQFOUH2v0]{卓斯卡 Droskar}, @Compendium[pf2e.deities.w66gCNiZ7dslqG8K]{璃殤 Lissala}, @Compendium[pf2e.deities.sNjPI1iaS8Z43YJf]{瑪門 Mammon}, @Compendium[pf2e.deities.1NxkZf6ndijKeufX]{莎萊祖爾 Sairazul}, @Compendium[pf2e.deities.VG51y4FbTLdeGHZB]{天幕引路 The Path of the Heavens}</p>\n<p><strong>領域法術</strong> <em>@Compendium[pf2e.spells-srd.HOj2YsTpkoMpYJH9]{熟能生巧 Practice Makes Perfect}</em>； <strong>進階領域法術</strong> <em>@Compendium[pf2e.spells-srd.gzvRDpM6EvcfYHeu]{不倦苦工 Tireless Worker}</em></p>\n<p>你不斷工作，並拒絕讓任何東西妨礙你。</p>"
		},
		"Travel Domain": {
			"name": "旅行領域 Travel Domain",
			"description": "<p><strong>神祇</strong> @Compendium[pf2e.deities.d56paSkcwvll2OhR]{阿巴達爾 Abadar}, @Compendium[pf2e.deities.o8ayCv3LAHWlu0vQ]{阿普蘇 Apsu}, @Compendium[pf2e.deities.oiEo6tDP3gICHtfZ]{巴爾巴託斯 Barbatos}, @Compendium[pf2e.deities.vSUz97Y29l1O50bC]{萊諾克伯爵 Count Ranalc}, @Compendium[pf2e.deities.JgqH3BhuEuA4Zyqs]{黛絲娜 Desna}, @Compendium[pf2e.deities.oyp2E685VsQFKMXi]{德郎維特 Dranngvit}, @Compendium[pf2e.deities.swwwP7eVmlNuWTb7]{哥茲萊 Gozreh}, @Compendium[pf2e.deities.tcvobm8O84qv0aO5]{格魯哈斯撒 Gruhastha}, @Compendium[pf2e.deities.QlDnoOwf0PppymTn]{翰斯普 Hanspur}, @Compendium[pf2e.deities.DEKKbg6riAdL2ARf]{黑風 Hei Feng}, @Compendium[pf2e.deities.bF77ydtptI54STl9]{傑茲 Jaidz}, @Compendium[pf2e.deities.14GLsVobnZTEmJrs]{凱利贊德里 Kelizandri}, @Compendium[pf2e.deities.AIcDyoff265z9285]{國府幸 Kofusachi}, @Compendium[pf2e.deities.hWTTS0e7J9hJfsp3]{馬崔瓦許 Matravash}, @Compendium[pf2e.deities.RzTd9PmgnfHNlFVf]{無 Ng}, @Compendium[pf2e.deities.jL1qiVOZBKXETtVD]{諾提庫拉 Nocticula}, @Compendium[pf2e.deities.Ij1KRM8ufkEjGnR3]{蘭基諾瑞 Ranginori}, @Compendium[pf2e.deities.VG51y4FbTLdeGHZB]{天幕引路 The Path of the Heavens}, @Compendium[pf2e.deities.6nq25AjImkT5GxDT]{虹光之神 The Prismatic Ray}, @Compendium[pf2e.deities.GUmYLD7PGmE2TOx6]{瓦吉特 Wadjet}, @Compendium[pf2e.deities.YXmeBdOZfWgUljW1]{尤麗曼徹 Ylimancha}, @Compendium[pf2e.deities.SUaGdvQXxSAQAw03]{猶格-索托斯 Yog-Sothoth}</p>\n<p><strong>領域法術</strong> <em>@Compendium[pf2e.spells-srd.cOjlzWerBwbPWVkX]{靈活腳步 Agile Feet}</em>； <strong>進階領域法術</strong> <em>@Compendium[pf2e.spells-srd.LrhTFHUtSS9ahogL]{行路無阻 Traveler's Transit}</em></p>\n<p>你擁有掌控移動和旅行的能力。</p>"
		},
		"Trickery Domain": {
			"name": "詭術領域 Trickery Domain",
			"description": "<p><strong>神祇</strong> @Compendium[pf2e.deities.51kMMWaT6CqpGlGk]{阿卡艾剋剋 Achaekek}, @Compendium[pf2e.deities.pCtJONJlhAugUXaG]{阿里曼 Ahriman}, @Compendium[pf2e.deities.QRkcFciCOmFoxF1B]{阿斯摩蒂斯 Asmodeus}, @Compendium[pf2e.deities.9WD0hbUT0IbnuTiM]{巴爾澤布 Baalzebul}, @Compendium[pf2e.deities.zRmAXj7FSlrMfDeA]{芭絲特 Bastet}, @Compendium[pf2e.deities.remyY1BwhEVmBwya]{貝利亞 Belial}, @Compendium[pf2e.deities.wkDOeK7ENz1ra8IC]{貝斯瑪拉 Besmara}, @Compendium[pf2e.deities.AlL9GtlTldbqNoVm]{卡莉斯翠 Calistria}, @Compendium[pf2e.deities.4GO4iT585ynLJnc8]{查爾迪菈 Chaldira}, @Compendium[pf2e.deities.dcbf3pBSNa2q1Kkq]{達拉薇 Dhalavei}, @Compendium[pf2e.deities.39z55kowQFOUH2v0]{卓斯卡 Droskar}, @Compendium[pf2e.deities.Dm8qlzpUj7g82QFv]{艾蕾卡拉 Erecura}, @Compendium[pf2e.deities.fuPTR1laXO6EionS]{祖母蜘蛛 Grandmother Spider}, @Compendium[pf2e.deities.ItYptsfjV8XvfhOV]{拉耆亞 Lahkgya}, @Compendium[pf2e.deities.aipkJQxP4GBsTaGq]{拉瑪什圖 Lamashtu}, @Compendium[pf2e.deities.MbJ93Nw39h2cBYi5]{老鼠婆 Lao Shu Po}, @Compendium[pf2e.deities.Af4TSJjutVi9Vdwi]{瑪哈薩拉 Mahathallah}, @Compendium[pf2e.deities.Mv6uTJLh3VGEoGLH]{妮薇·炫稜 Nivi Rhombodazzle}, @Compendium[pf2e.deities.GX6PF9ifR47Xyjg9]{諾格巴 Norgorber}, @Compendium[pf2e.deities.iKgERiIc8rt3fatf]{奈亞拉託提普(獵黑行者) Nyarlathotep (Haunter in the Dark)}, @Compendium[pf2e.deities.3nxIpMGeCvcBIVov]{奈亞拉託提普(伏行之混沌) Nyarlathotep (The Crawling Chaos)}, @Compendium[pf2e.deities.IZcdF1G8ZsnMotaM]{帕祖祖 Pazuzu}, @Compendium[pf2e.deities.zzhYFcShT9JoE2Mp]{煞克斯 Shax}, @Compendium[pf2e.deities.BrbXGyzCeORNyJT5]{希芙珂什 Sifkesh}, @Compendium[pf2e.deities.iJyhAFmHOLZBvWnJ]{西芙娜 Sivanah}, @Compendium[pf2e.deities.BLNXYqvzmLgjMq2p]{孫悟空 Sun Wukong}, @Compendium[pf2e.deities.PFp4Sdp2TDDKD62l]{薩米爾 Thamir}, @Compendium[pf2e.deities.nuqIimigyt986WLE]{燈王 The Lantern King}, @Compendium[pf2e.deities.83jKKHQPoqVylmrF]{夜神 Yaezhing}, @Compendium[pf2e.deities.iEt6idGIEPXY2HzV]{伊達吉絲克 Ydajisk}</p>\n<p><strong>領域法術</strong> <em>@Compendium[pf2e.spells-srd.P9bqJsF3WkxGAJKJ]{瞬息換位 Sudden Shift}</em>； <strong>進階領域法術</strong> <em>@Compendium[pf2e.spells-srd.ZhLYJlOZzUB1OKoe]{詭計替身 Trickster's Twin}</em></p>\n<p>你熱衷欺騙他人以及帶來誤解。</p>"
		},
		"Truth Domain": {
			"name": "真相領域 Truth Domain",
			"description": "<p><strong>神祇</strong> @Compendium[pf2e.deities.H1VrZ1QX0d2aPXT8]{達默裡奇 Dammerich}, @Compendium[pf2e.deities.Dm8qlzpUj7g82QFv]{艾蕾卡拉 Erecura}, @Compendium[pf2e.deities.xxUGdZYUj5IW7E0L]{命運追隨者 Followers of Fate}, @Compendium[pf2e.deities.WOiSJ4IWjaRsSgRO]{格殷永 Geryon}, @Compendium[pf2e.deities.tcvobm8O84qv0aO5]{格魯哈斯撒 Gruhastha}, @Compendium[pf2e.deities.eErEiVmBqltYXFJ6]{艾奧梅黛 Iomedae}, @Compendium[pf2e.deities.qqqrbq4uCrelQvgH]{義洛理 Irori}, @Compendium[pf2e.deities.zhPhYge7VJbIlJvA]{寇司 Kols}, @Compendium[pf2e.deities.r5vooG7NfvA9prJK]{庫爾吉斯 Kurgess}, @Compendium[pf2e.deities.ArmPZQrl0SFAKvrY]{瑪艾特 Ma'at}, @Compendium[pf2e.deities.iMRXc519Uepf8yH3]{瑪芙 Magdh}, @Compendium[pf2e.deities.Af4TSJjutVi9Vdwi]{瑪哈薩拉 Mahathallah}, @Compendium[pf2e.deities.W4QGkdn9V5ACRpkh]{莫那德 Monad}, @Compendium[pf2e.deities.WO9UsCY41oTtC2G0]{知識之神 Pillars of Knowledge}, @Compendium[pf2e.deities.1nQVLOyWv5kC0bCU]{拉維塔 Ravithra}, @Compendium[pf2e.deities.BNycwu3I21dTh4D9]{塞恩蕾 Sarenrae}, @Compendium[pf2e.deities.SCGdJmm7Wzle9jFP]{柔思 Zohls}</p>\n<p><strong>領域法術</strong> <em>@Compendium[pf2e.spells-srd.aF7RiG7c8GzSQLYt]{真實之語 Word of Truth}</em>； <strong>進階領域法術</strong> <em>@Compendium[pf2e.spells-srd.ZjbVgIIqMstmdkqP]{窺視真相 Glimpse the Truth}</em></p>\n<p>你識破謊言並發現真相。</p>"
		},
		"Tyranny Domain": {
			"name": "暴政領域 Tyranny Domain",
			"description": "<p><strong>神祇</strong> @Compendium[pf2e.deities.cHAbE86pto5bvIWo]{安加贊 Angazhan}, @Compendium[pf2e.deities.QRkcFciCOmFoxF1B]{阿斯摩蒂斯 Asmodeus}, @Compendium[pf2e.deities.oiEo6tDP3gICHtfZ]{巴爾巴託斯 Barbatos}, @Compendium[pf2e.deities.CzHjFLx4hpIEIoWt]{迪斯帕特 Dispater}, @Compendium[pf2e.deities.39z55kowQFOUH2v0]{卓斯卡 Droskar}, @Compendium[pf2e.deities.RUzMtIQal0drPwQY]{果甘蜍 Gogunta}, @Compendium[pf2e.deities.KWVdoAm3b01M8Lcp]{墨菲斯托菲勒斯 Mephistopheles}, @Compendium[pf2e.deities.IZcdF1G8ZsnMotaM]{帕祖祖 Pazuzu}, @Compendium[pf2e.deities.JndhOIHnQoMwnsw3]{神爪五柱 The Godclaw}, @Compendium[pf2e.deities.ENzMYuzBZGIujSMx]{毀木者 Treerazer}, @Compendium[pf2e.deities.g1AVEGi8QibhS007]{瓦爾克納 Walkena}</p>\n<p><strong>領域法術</strong> <em>@Compendium[pf2e.spells-srd.MmQiEc7aM9PDLO2J]{服從之觸 Touch of Obedience}</em>； <strong>進階領域法術</strong> <em>@Compendium[pf2e.spells-srd.4DaHIgtMBTyxebY3]{敕令打擊 Commanding Lash}</em></p>\n<p>你擁有支配和奴役他人的力量。</p>"
		},
		"Undeath Domain": {
			"name": "亡靈領域 Undeath Domain",
			"description": "<p><strong>神祇</strong> @Compendium[pf2e.deities.6O4UGWcYERDEugzk]{文業王 Fumeiyoshi}, @Compendium[pf2e.deities.V5PbbkZUP9N7kl6h]{卡布裡裡 Kabriri}, @Compendium[pf2e.deities.Af4TSJjutVi9Vdwi]{瑪哈薩拉 Mahathallah}, @Compendium[pf2e.deities.8Oy4qHylOOp79JxD]{寧布洛斯 Nhimbaloth}, @Compendium[pf2e.deities.22n3N47sqbqbDxbp]{厄加圖婭 Urgathoa}, @Compendium[pf2e.deities.8ZSywyo8YQPduo92]{祖拉 Zura}, @Compendium[pf2e.deities.LLMTMgARSTlO7S9U]{澤弗斯 Zyphus}</p>\n<p><strong>領域法術</strong> <em>@Compendium[pf2e.spells-srd.GYI4xloAgkm6tTrT]{亡靈之觸 Touch of Undeath}</em>； <strong>進階領域法術</strong> <em>@Compendium[pf2e.spells-srd.qzsQmpiQodHBBWYI]{惡靈再生 Malignant Sustenance}</em></p>\n<p>你的魔法與不死生物緊密相連。</p>"
		},
		"Vigil Domain": {
			"name": "追思領域 Vigil Domain",
			"description": "<p><strong>神祇</strong> @Compendium[pf2e.deities.5YUNikBpJZ596MRD]{阿努比斯 Anubis}, @Compendium[pf2e.deities.UUcAqU3KeJSMNxGF]{巴爾扎克 Barzahk}, @Compendium[pf2e.deities.OlVCyRgOaPJji4qt]{丘哈爾 Chohar}, @Compendium[pf2e.deities.H1VrZ1QX0d2aPXT8]{達默裡奇 Dammerich}, @Compendium[pf2e.deities.oyp2E685VsQFKMXi]{德郎維特 Dranngvit}, @Compendium[pf2e.deities.qqqrbq4uCrelQvgH]{義洛理 Irori}, @Compendium[pf2e.deities.V5PbbkZUP9N7kl6h]{卡布裡裡 Kabriri}, @Compendium[pf2e.deities.QZD0u1jxwz0kj8uI]{法萊斯瑪 Pharasma}, @Compendium[pf2e.deities.XYJupIPx0GW4s7eu]{拉格達恩 Ragadahn}, @Compendium[pf2e.deities.s9opv94lGDRKnw6W]{靜瑠 Shizuru}, @Compendium[pf2e.deities.HbuynQRCjGKtbhcC]{失落王子 The Lost Prince}, @Compendium[pf2e.deities.0R2BjVb7d9tYCIbk]{鐵哈爾 Tlehar}, @Compendium[pf2e.deities.8wOAwLMgB1HFLo9n]{文拉斯 Winlas}</p>\n<p><strong>領域法術</strong> <em>@Compendium[pf2e.spells-srd.RztmhJrLLQWoGVdB]{觸物回想 Object Memory}</em>； <strong>進階領域法術</strong> <em>@Compendium[pf2e.spells-srd.nrW6lGV4xDMqLS3P]{追憶逝者 Remember the Lost}</em></p>\n<p>你看顧古昔死者並保護其祕密。</p>"
		},
		"Void Domain": {
			"name": "虛空領域 Void Domain",
			"description": "<p><strong>神祇</strong> @Compendium[pf2e.deities.sILda7I8Ak20Ioj9]{阿撒託斯 Azathoth}, @Compendium[pf2e.deities.c9NFjRR8gr6CWpjl]{黑蝴蝶 Black Butterfly}, @Compendium[pf2e.deities.oV5cnlPJQS8JfMIg]{篷車星座群神系 Cosmic Caravan}, @Compendium[pf2e.deities.JgqH3BhuEuA4Zyqs]{黛絲娜 Desna}, @Compendium[pf2e.deities.WloVxo6HXJdS4YTt]{格羅圖斯 Groetus}, @Compendium[pf2e.deities.WvoMr86bSSYxXKtI]{哈斯塔 Hastur}, @Compendium[pf2e.deities.s81N9hxffmRuy3ik]{刻爾卡莫斯 Kerkamoth}, @Compendium[pf2e.deities.W4QGkdn9V5ACRpkh]{莫那德 Monad}, @Compendium[pf2e.deities.8Oy4qHylOOp79JxD]{寧布洛斯 Nhimbaloth}, @Compendium[pf2e.deities.Bhxji0kxIbMKqdkw]{洛瓦古格 Rovagug}, @Compendium[pf2e.deities.VG51y4FbTLdeGHZB]{天幕引路 The Path of the Heavens}, @Compendium[pf2e.deities.SUaGdvQXxSAQAw03]{猶格-索托斯 Yog-Sothoth}, @Compendium[pf2e.deities.ZfN7jkK6boU1FuiS]{宗-庫山 Zon-Kuthon}</p>\n<p><strong>領域法術</strong> <em>@Compendium[pf2e.spells-srd.0cF9HvHzzWSbCFBP]{放空心靈 Empty Inside}</em>； <strong>進階領域法術</strong> <em>@Compendium[pf2e.spells-srd.iMmexY6ZosLS4I5R]{彼方之門 Door to Beyond}</em></p>\n<p>你從無中汲取力量。</p>"
		},
		"Water Domain": {
			"name": "水領域 Water Domain",
			"description": "<p><strong>神祇</strong> @Compendium[pf2e.deities.wkDOeK7ENz1ra8IC]{貝斯瑪拉 Besmara}, @Compendium[pf2e.deities.tcXrtRYCOr2EmgGB]{卡戎 Charon}, @Compendium[pf2e.deities.AHX89nhuVhmg8k6w]{大袞 Dagon}, @Compendium[pf2e.deities.XHDlP7o1jNz9851v]{迪奧馬祖 Diomazul}, @Compendium[pf2e.deities.WOiSJ4IWjaRsSgRO]{格殷永 Geryon}, @Compendium[pf2e.deities.RUzMtIQal0drPwQY]{果甘蜍 Gogunta}, @Compendium[pf2e.deities.swwwP7eVmlNuWTb7]{哥茲萊 Gozreh}, @Compendium[pf2e.deities.QlDnoOwf0PppymTn]{翰斯普 Hanspur}, @Compendium[pf2e.deities.DEKKbg6riAdL2ARf]{黑風 Hei Feng}, @Compendium[pf2e.deities.14GLsVobnZTEmJrs]{凱利贊德里 Kelizandri}, @Compendium[pf2e.deities.r6SFB1PzKsagDXff]{難婆 Lady Nanbyo}, @Compendium[pf2e.deities.SCMlQDcoU1QcF3AS]{呂西阿娜 Lysianassa}, @Compendium[pf2e.deities.hWTTS0e7J9hJfsp3]{馬崔瓦許 Matravash}, @Compendium[pf2e.deities.pm8H2DbtrHM01KNV]{娜德瑞 Naderi}, @Compendium[pf2e.deities.XYJupIPx0GW4s7eu]{拉格達恩 Ragadahn}, @Compendium[pf2e.deities.TvxsVRztDlGcWpcI]{索貝克 Sobek}, @Compendium[pf2e.deities.GUmYLD7PGmE2TOx6]{瓦吉特 Wadjet}, @Compendium[pf2e.deities.YXmeBdOZfWgUljW1]{尤麗曼徹 Ylimancha}</p>\n<p><strong>領域法術</strong> <em>@Compendium[pf2e.spells-srd.iAnpxrLaBU4V6Sej]{潮汐湧流 Tidal Surge}</em>； <strong>進階領域法術</strong> <em>@Compendium[pf2e.spells-srd.K4LXpaBWrGy6jIER]{滂沱驟雨 Downpour}</em></p>\n<p>你可以控制水和水的各種形態。</p>"
		},
		"Wealth Domain": {
			"name": "財富領域 Wealth Domain",
			"description": "<p><strong>神祇</strong> @Compendium[pf2e.deities.d56paSkcwvll2OhR]{阿巴達爾 Abadar}, @Compendium[pf2e.deities.wkDOeK7ENz1ra8IC]{貝斯瑪拉 Besmara}, @Compendium[pf2e.deities.6mgCX7lvKtaEYoa9]{矮人眾神 Dwarven Pantheon}, @Compendium[pf2e.deities.mm1j6UbHqFCI8fwB]{埃拉斯蒂爾 Erastil}, @Compendium[pf2e.deities.IXLzDSMGndFb5rGY]{法蕾納 Falayna}, @Compendium[pf2e.deities.QlDnoOwf0PppymTn]{翰斯普 Hanspur}, @Compendium[pf2e.deities.WvoMr86bSSYxXKtI]{哈斯塔 Hastur}, @Compendium[pf2e.deities.AIcDyoff265z9285]{國府幸 Kofusachi}, @Compendium[pf2e.deities.sNjPI1iaS8Z43YJf]{瑪門 Mammon}, @Compendium[pf2e.deities.Mv6uTJLh3VGEoGLH]{妮薇·炫稜 Nivi Rhombodazzle}, @Compendium[pf2e.deities.GX6PF9ifR47Xyjg9]{諾格巴 Norgorber}, @Compendium[pf2e.deities.u3YfcJh1C4w6n75j]{勞米亞 Raumya}, @Compendium[pf2e.deities.1NxkZf6ndijKeufX]{莎萊祖爾 Sairazul}, @Compendium[pf2e.deities.PFp4Sdp2TDDKD62l]{薩米爾 Thamir}</p>\n<p><strong>領域法術</strong> <em>@Compendium[pf2e.spells-srd.ZeftDoh0nFAXBAWY]{金銀滿目 Appearance of Wealth}</em>； <strong>進階領域法術</strong> <em>@Compendium[pf2e.spells-srd.APTMURAW1N0Wpk4w]{化鐵為金 Precious Metals}</em></p>\n<p>你擁有操控財富，貿易和寶藏的力量。</p>"
		},
		"Wyrmkin Domain": {
			"name": "龍族領域 Wyrmkin Domain",
			"description": "<p><strong>神祇</strong> @Compendium[pf2e.deities.bLI1JMpI2GXQT5AC]{阿巴拉克薩斯 Abraxas}, @Compendium[pf2e.deities.o8ayCv3LAHWlu0vQ]{阿普蘇 Apsu}, @Compendium[pf2e.deities.uydTiyN5AzhBnQY8]{阿達德·莉莉 Ardad Lili}, @Compendium[pf2e.deities.Bzfc5mIUfMxOnQWu]{達哈卡 Dahak}, @Compendium[pf2e.deities.WOiSJ4IWjaRsSgRO]{格殷永 Geryon}, @Compendium[pf2e.deities.kiTcZxmKxGPCwDpg]{凱爾寇特 Kalekot}, @Compendium[pf2e.deities.gsFaxWHbZmc1moY6]{娜麗妮瓦蒂 Nalinivati}, @Compendium[pf2e.deities.XYJupIPx0GW4s7eu]{拉格達恩 Ragadahn}, @Compendium[pf2e.deities.TvxsVRztDlGcWpcI]{索貝克 Sobek}, @Compendium[pf2e.deities.w4fDrwL8VIqJDPfR]{Uvuko}, @Compendium[pf2e.deities.8roijlQ03l9rWFFe]{澤烏伽瓦災布 Zevgavizeb}</p>\n<p><strong>領域法術</strong> <em>@Compendium[pf2e.spells-srd.S6Kkk15MWGqzC00a]{飛龍彈幕 Draconic Barrage}</em>； <strong>進階領域法術</strong> <em>@Compendium[pf2e.spells-srd.FSu6ZKxr3xdS75wq]{龍嘯 Roar of the Wyrm}</em></p>\n<p>你汲取真龍、蛇龍和其他強大蜥蜴的力量。</p>"
		},
		"Zeal Domain": {
			"name": "狂熱領域 Zeal Domain",
			"description": "<p><strong>神祇</strong> @Compendium[pf2e.deities.51kMMWaT6CqpGlGk]{阿卡艾剋剋 Achaekek}, @Compendium[pf2e.deities.Xb1N5YfxboJH26Jh]{安哥拉德 Angradd}, @Compendium[pf2e.deities.aj4ChTlDcZCmrtJD]{巴菲門特 Baphomet}, @Compendium[pf2e.deities.remyY1BwhEVmBwya]{貝利亞 Belial}, @Compendium[pf2e.deities.EE8sNM4JraOPN669]{薩那諾斯 Cernunnos}, @Compendium[pf2e.deities.4GO4iT585ynLJnc8]{查爾迪菈 Chaldira}, @Compendium[pf2e.deities.OlVCyRgOaPJji4qt]{丘哈爾 Chohar}, @Compendium[pf2e.deities.AHX89nhuVhmg8k6w]{大袞 Dagon}, @Compendium[pf2e.deities.Bzfc5mIUfMxOnQWu]{達哈卡 Dahak}, @Compendium[pf2e.deities.XHDlP7o1jNz9851v]{迪奧馬祖 Diomazul}, @Compendium[pf2e.deities.aVyxfqY9GBjTqQul]{艾希斯 Eiseth}, @Compendium[pf2e.deities.Zi1UARhode3FSFLr]{大將軍進 General Susumu}, @Compendium[pf2e.deities.88vRw2ZVPax4hhga]{古拉姆 Gorum}, @Compendium[pf2e.deities.zlJGKpeLBwajP91o]{吉羅娜 Gyronna}, @Compendium[pf2e.deities.eErEiVmBqltYXFJ6]{艾奧梅黛 Iomedae}, @Compendium[pf2e.deities.JcIf4uwKLxEWdplI]{科斯徹奇 Kostchtchie}, @Compendium[pf2e.deities.r5vooG7NfvA9prJK]{庫爾吉斯 Kurgess}, @Compendium[pf2e.deities.CnDEoo6WruQCXo1o]{Lubaiko}, @Compendium[pf2e.deities.ub0PJ5QkrdoGzzb2]{路哈爾 Luhar}, @Compendium[pf2e.deities.fTJLgTfEMZreJ19r]{密拉妮 Milani}, @Compendium[pf2e.deities.GEBaoeiv5CB9h2Bn]{拉賈瑟爾 Ragathiel}, @Compendium[pf2e.deities.Bhxji0kxIbMKqdkw]{洛瓦古格 Rovagug}, @Compendium[pf2e.deities.DFxbPmQLOqcmbPTz]{塔納嘎 Tanagaar}, @Compendium[pf2e.deities.JndhOIHnQoMwnsw3]{神爪五柱 The Godclaw}, @Compendium[pf2e.deities.0R2BjVb7d9tYCIbk]{鐵哈爾 Tlehar}, @Compendium[pf2e.deities.y93whGnGZjFyw5A0]{薇爾迪斯 Vildeis}, @Compendium[pf2e.deities.GUmYLD7PGmE2TOx6]{瓦吉特 Wadjet}, @Compendium[pf2e.deities.4bEPoujxhYdUyUOg]{伊德修斯 Ydersius}, @Compendium[pf2e.deities.7L9KIqixgseSCY3X]{伊莫利 Ymeri}</p>\n<p><strong>領域法術</strong> <em>@Compendium[pf2e.spells-srd.W37iBXLsY2trJ1rS]{激發武器 Weapon Surge}</em>； <strong>進階領域法術</strong> <em>@Compendium[pf2e.spells-srd.I8CPe9Pp7GABqOyB]{狂熱待戰 Zeal for Battle}</em></p>\n<p>你內心的烈火會增強你的戰鬥力量。</p>"
		}
	}
}