{
    "label": "狀態 Conditions",
    "entries": {
        "Broken": {
            "name": "破損 Broken",
            "description": "<p>破損是影響物品的狀態。當傷害將物體的HP降低至其破損閾值（BT）之下時，它就獲得破損狀態。破損的物品無法正常使用，也無法給與加值——只有護甲例外。破損護甲仍能將其物品加值提供給AC，但會根據護甲型別，AC同時受到一定量的狀態減值：破損輕甲-1，破損中甲-2，破損重甲-3。</p>\n<p>破損物品仍然會因攜帶、持握或穿戴而正常提供減值與限制。譬如破損護甲仍然提供其敏捷調整值上限和檢定減值，以此類推。</p>\n<p>若某效果使物品自動破損而此時物品HP高於其BT，該效果會將該物品的當前HP降低至與其BT相同。</p>"
        },
        "Controlled": {
            "name": "被控制 Controlled",
            "description": "<p>他人能為代替你做出決定，通常會因你被命令限制或被魔法支配。控制者決定你如何行動和使用你的動作，包括攻擊、反應動作甚至 @UUID[Compendium.pf2e.actionspf2e.A72nHGUtNXgY5Ey9]{延遲 Delay}。控制者在控制你時通常無需消耗其自己的動作。</p>"
        },
        "Deafened": {
            "name": "耳聾 Deafened",
            "description": "<p>你聽不到聲音。你在需要你聽的察覺檢定上自動大失敗。你在用察覺進行的先攻檢定，和包括聲音但也依賴其它感官的察覺檢定上都獲得-2狀態減值。若你進行擁有聽覺特徵（auditory）的動作，你必須通過<strong>DC 5</strong>的純骰檢定，失敗則失去該動作；該檢定在消耗動作後，在動作生效前。你免疫聽覺效果。</p>"
        },
        "Dying": {
            "name": "瀕死 Dying",
            "description": "<p>你失血過多或處在死亡關口。若你擁有此狀態，你會 @UUID[Compendium.pf2e.conditionitems.fBnFDH2MTzgFijKf]{失去意識 Unconscious}。瀕死狀態擁有狀態值，當其累計到4時，你會死亡。若你為瀕死狀態，每輪你自己回合開始時，你必須進行復蘇檢定（recovery check）來決定狀況是更好還是更糟。若瀕死時你受到傷害，你的瀕死值增加1，若傷害來源為一次重擊或你的豁免大失敗，瀕死值會改為增加2。</p>\n<p>若復甦檢定成功，你失去瀕死狀態，維持在0HP，保持失去意識狀態，可按失去意識狀態的說明來嘗試甦醒。若你因某狀況而擁有1點或更多HP，你自動失去瀕死狀態並甦醒。任何你失去瀕死狀態的時候，會獲得 @UUID[Compendium.pf2e.conditionitems.Yl48xTdMh3aeQYL2]{受傷 1}的狀態，若已有受傷狀態，則受傷值增加1。</p>"
        },
        "Fleeing": {
            "name": "逃跑 Fleeing",
            "description": "<p>因恐懼或某些強迫性，你被迫逃離現場。在你的回合，你必須用每一個動作嘗試逃離逃跑狀態的來源，儘可能越快越好（比如用移動動作逃跑、開啟逃跑路線上的門）。來源通常是給與你逃跑狀態的效果或施法者，偶爾某些效果能指定其它事物為來源。逃跑狀態下你無法使用 @UUID[Compendium.pf2e.actionspf2e.A72nHGUtNXgY5Ey9]{延遲 Delay}或 @UUID[Compendium.pf2e.actionspf2e.dLgAMt3TbkmLkUqE]{準備 Ready}。</p>"
        },
        "Friendly": {
            "name": "友善 Friendly",
            "description": "<p>該狀態反映了生物對特定角色的傾向，它只會在非玩家角色身上出現。對角色友善的生物會喜歡上該角色。角色可以嘗試對友善生物 @UUID[Compendium.pf2e.actionspf2e.DCb62iCBrJXy0Ik6]{提出請求 Make a Request}，而友善生物通常會答應簡單安全又不會花費多少的要求。若角色或角色的盟友對該生物使用了敵對動作，該生物會根據敵對動作的嚴重性將其態度狀態變為更糟，具體由GM決定。</p>"
        },
        "Frightened": {
            "name": "驚懼 Frightened",
            "description": "<p>你被恐懼攥緊，必須努力控制自己的情緒。驚懼狀態擁有狀態值。你的所有檢定和DC獲得等同於驚懼狀態值的狀態減值。除非另有說明，否則你在自己回合結束時，已有的驚懼值會降低1。</p>"
        },
        "Helpful": {
            "name": "樂於幫助 Helpful",
            "description": "<p>該狀態反映了生物對特定角色的傾向，它只會在非玩家角色身上出現。對角色樂於幫助的生物會願意協助該角色。只要請求不和生物目標衝突也不會犧牲她的生活質量，她會接受角色任何合理的 @UUID[Compendium.pf2e.actionspf2e.DCb62iCBrJXy0Ik6]{提出請求 Requests}。若角色或角色的盟友對該生物使用了敵對動作，該生物會根據敵對動作的嚴重性將其態度狀態變為更糟，具體由GM決定。</p>"
        },
        "Hidden": {
            "name": "藏匿 Hidden",
            "description": "<p>當你對某生物處於藏匿狀態時，該生物大致知道你的位置，但無法精確定位你在哪裡。通常你會因使用隱祕技能的 @UUID[Compendium.pf2e.actionspf2e.XMcnh4cSI32tljXa]{躲藏 Hide}動作而進入藏匿狀態。若只用不精確的感官 @UUID[Compendium.pf2e.actionspf2e.BlAOM2X92SI6HMtJ]{搜尋 Seeking}你，則你依然能保持藏匿狀態，而不會變成 @UUID[Compendium.pf2e.conditionitems.1wQY3JYyhMYeeV2G]{可見 Observed}狀態。你對其為藏匿狀態的生物，對你也為 @UUID[Compendium.pf2e.conditionitems.AJh5ex99aV6VTggg]{措手不及 Flat-Footed}狀態，且其攻擊、法術或其它效果瞄準你時，必須通過 @Check[type:flat|dc:11] 檢定，失敗則無法影響到你。區域效果無需進行該純骰檢定。</p>\n<p>生物可以使用搜尋動作嘗試觀察到你</p>"
        },
        "Hostile": {
            "name": "敵對 Hostile",
            "description": "<p>該狀態反映了生物對特定角色的傾向，它只會在非玩家角色身上出現。敵人的生物會主動尋找傷害角色的方法。它不一定是會主動攻擊，但也不會接受該角色的 @UUID[Compendium.pf2e.actionspf2e.DCb62iCBrJXy0Ik6]{提出請求 Requests}。</p>"
        },
        "Invisible": {
            "name": "隱形 Invisible",
            "description": "<p>處於隱形狀態時，你不會被看見。你對所有生物都處於 @UUID[Compendium.pf2e.conditionitems.VRSef5y1LmL2Hkjf]{無蹤 Undetected}狀態。生物可嘗試 @UUID[Compendium.pf2e.actionspf2e.BlAOM2X92SI6HMtJ]{搜尋 Seek}到你；若生物察覺檢定對抗你的潛行DC成功，你對該生物會變成 @UUID[Compendium.pf2e.conditionitems.iU0fEDdBp3rXpTMC]{藏匿 Hidden}狀態，直到你成功 @UUID[Compendium.pf2e.actionspf2e.VMozDqMMuK5kpoX4]{潛行 Sneak}再變為無蹤狀態。若你在已看到你的單位面前變成隱形狀態，則直到你成功潛行為止，你對該單位初始只為藏匿狀態而非無蹤狀態。除非有特殊能力或魔法，否則處於隱形狀態下的你不會變成 @UUID[Compendium.pf2e.conditionitems.1wQY3JYyhMYeeV2G]{可見 Observed}狀態。</p>"
        },
        "Observed": {
            "name": "可見 Observed",
            "description": "<p>在你視野裡的事物都對你可見。若生物採取措施避開觀察，例如使用隱祕技能 @UUID[Compendium.pf2e.actionspf2e.XMcnh4cSI32tljXa]{躲藏 Hide}，它將會從可見狀態變為 @UUID[Compendium.pf2e.conditionitems.iU0fEDdBp3rXpTMC]{藏匿 Hidden}或 @UUID[Compendium.pf2e.conditionitems.VRSef5y1LmL2Hkjf]{無蹤 Undetected}狀態。若你在視覺外有額外的或作為替代的精確感官，你可以只用該精確感官來觀察生物或物體。你只能用精確感官來觀察生物。若用非精確感官 @UUID[Compendium.pf2e.actionspf2e.BlAOM2X92SI6HMtJ]{搜尋 Seeking}生物，生物會保持藏匿狀態，而不會變為可見。</p>"
        },
        "Paralyzed": {
            "name": "麻痺 Paralyzed",
            "description": "<p>你的身體僵硬在原地。你獲得 @UUID[Compendium.pf2e.conditionitems.AJh5ex99aV6VTggg]{措手不及 Flat-Footed}狀態，無法使用除 @UUID[Compendium.pf2e.actionspf2e.1OagaWtBpVXExToo]{回憶知識 Recall Knowledge}和僅需心理行動（具體由GM判斷）外的任何動作。你的感官正常運作，但只對你無法移動時當前可感知區域有效，因此麻痺時你無法進行 @UUID[Compendium.pf2e.actionspf2e.BlAOM2X92SI6HMtJ]{搜尋 Seek}。</p>"
        },
        "Persistent Damage": {
            "name": "持續傷害 Persistent Damage",
            "description": "<p>持續傷害會因例如酸液、著火或型別情形而獲得。它的寫法是 \"X持續[型別]傷害,\" X是數值而[型別]是傷害型別。跟正常傷害一樣，持續傷害可以被攻擊骰或豁免檢定結果來加倍或減半。你不會立刻受到持續傷害，而是在獲得狀態後你的回合結束時受傷，每次都要骰傷害骰。在你受到持續傷害後，若你想擺脫持續傷害，骰 @Check[type:flat|dc:15] 檢定。若成功，對應持續傷害終止。</p>"
        },
        "Petrified": {
            "name": "石化 Petrified",
            "description": "<p>你被變成石雕。你無法行動，也無法進行感知。你變成物體，負載等於你正常負載的雙倍（石化中型生物通常為12B，石化小型生物通常為6B），AC為9，硬度8，HP和你被變成石雕時的當前HP保持一致。你沒有破損閾值。當你恢復肉身時，你的HP和石雕狀態下剩餘的HP一致。若石雕被摧毀，你立刻死亡。石化時，你的心靈和肉體都停滯不動，因此你不會衰老也不會意識到時間的流逝。</p>"
        },
        "Prone": {
            "name": "倒地 Prone",
            "description": "<p>你倒在地上。你獲得 @UUID[Compendium.pf2e.conditionitems.AJh5ex99aV6VTggg]{措手不及 Flat-Footed}狀態，攻擊骰獲得-2環境減值。倒地狀態你唯二能進行的移動動作是 @UUID[Compendium.pf2e.actionspf2e.Tj055UcNm6UEgtCg]{爬行 Crawl}和 @UUID[Compendium.pf2e.actionspf2e.OdIUybJ3ddfL7wzj]{站立 Stand}。站立會終止倒地狀態。倒地時你可以使用 @UUID[Compendium.pf2e.actionspf2e.ust1jJSCZQUhBZIz]{尋找掩護 Take Cover}動作趴好並對遠端攻擊獲得掩蔽（cover）狀態，這使得你對遠端攻擊的AC獲得+4環境加值（但你依然措手不及中）。</p>\n<p>若你在 @UUID[Compendium.pf2e.actionspf2e.pprgrYQ1QnIDGZiy]{攀爬 Climbing}或 @UUID[Compendium.pf2e.actionspf2e.cS9nfDRGD83bNU1p]{飛行 Flying}中被擊至倒地，你會墜落。 @UUID[Compendium.pf2e.actionspf2e.c8TGiZ48ygoSPofx]{游泳 Swimming}時你不會被擊至倒地。</p>"
        },
        "Restrained": {
            "name": "束縛 Restrained",
            "description": "<p>你被綁住幾乎無法動彈，或某生物壓制住了你。你獲得 @UUID[Compendium.pf2e.conditionitems.AJh5ex99aV6VTggg]{措手不及 Flat-Footed}和 @UUID[Compendium.pf2e.conditionitems.eIcWbB5o3pP6OIMe]{禁足 Immobilized}狀態，且你無法使用任何擁有攻擊或操縱特徵的動作，除了 @UUID[Compendium.pf2e.actionspf2e.SkZAQRkLLkmBQNB9]{逃脫 Escape}或 @UUID[Compendium.pf2e.actionspf2e.SjmKHgI7a5Z9JzBx]{破拆 Force Open}束縛這倆動作。束縛狀態覆蓋 @UUID[Compendium.pf2e.conditionitems.kWc1fhmv9LBiTuei]{擒抱 Grabbed}狀態。</p>"
        },
        "Sickened": {
            "name": "噁心 Sickened",
            "description": "<p>你感覺生病了。噁心狀態擁有狀態值。你所有檢定和DC獲得等同於噁心狀態值的狀態減值。噁心時，你無法自願嚥下任何東西——包括靈藥和藥水。</p>\n<p>你可以花1個動作乾嘔來嘗試恢復，這使你立刻進行一次強韌豁免檢定對抗使你噁心的效果DC。若成功，你的噁心值降低1（大成功則降低2）。</p>"
        },
        "Stupefied": {
            "name": "呆滯 Stupefied",
            "description": "<p>你是思緒和本能被矇蔽住。呆滯狀態擁有狀態值。你所有基於智力、感知和魅力的檢定與DC獲得等同於呆滯狀態值的狀態減值，包括意志豁免、法術攻擊骰、法術Dc、使用這些屬性值的技能檢定。呆滯時若你嘗試 @UUID[Compendium.pf2e.actionspf2e.aBQ8ajvEBByv45yz]{施放法術 Cast a Spell}，你必須通過DC=5+呆滯值的純骰檢定，否則法術會被打斷。</p>"
        },
        "Unconscious": {
            "name": "失去意識 Unconscious",
            "description": "<p>你處於睡眠中，或被擊倒。你無法行動。你的AC、察覺、反射豁免獲得-4狀態減值，同時你獲得 @UUID[Compendium.pf2e.conditionitems.XgEqL1kFApUbl5Z2]{目盲 Blinded}和 @UUID[Compendium.pf2e.conditionitems.AJh5ex99aV6VTggg]{措手不及 Flat-Footed}狀態。獲得此狀態時，若無特殊說明或GM判斷當前位置不允許，否則你會 @UUID[Compendium.pf2e.conditionitems.j91X7x0XSomq8d60]{倒地 Prone}，丟下正持握或手持的物品。</p>\n<p>若你因 @UUID[Compendium.pf2e.conditionitems.yZRUzMqrMmfLu0V1]{瀕死 Dying}獲得失去意識狀態，你在HP為0時不能甦醒。若你因治療恢復至1HP及以上，你失去瀕死狀態和失去意識狀態，在你的下一個回合可以正常行動。</p>\n<p>若你失去意識時HP為0，但沒有瀕死狀態，在足夠的時間流逝後你自然恢復至1HP並甦醒。由GM決定你失去意識多久，從1分鐘到10分鐘到數小時不等。若此時你獲得了治療，你失去該狀態並可在下一回合正常行動。</p>\n<p>若你在擁有1HP及以上時失去意識（通常是入睡或因某效果），你可由下列方法喚醒。它們都能使你失去該狀態。</p>\n<ul>\n<li>你受到傷害，傷害未使你HP降至0。若傷害將你HP降至0，你保持失去意識狀態並正常獲得瀕死狀態。</li>\n<li>你獲得休息帶來的自然恢復之外的治療。</li>\n<li>某人用 @UUID[Compendium.pf2e.actionspf2e.pvQ5rY2zrtPI614F]{互動 Interact}動作搖晃你。</li>\n<li>你周圍發出吵鬧的聲音——儘管這不會自動成功。在你的回合開始，你自動嘗試一次察覺檢定對抗噪音DC（若有多個噪音，對抗最低的DC），成功則甦醒。若生物嘗試安靜地呆在你旁邊，察覺檢定對抗目標的潛行DC。某些使你沉眠的魔法效果可能不會讓你進行察覺檢定。</li>\n<li>若你只是入睡，GM可以決定你只是因為休息夠了或某事打擾到休息而甦醒。</li>\n</ul>"
        },
        "Unfriendly": {
            "name": "不友善 Unfriendly",
            "description": "<p>該狀態反映了生物對特定角色的傾向，它只會在非玩家角色身上出現。不友善的生物不喜歡目標角色，會明確地阻礙目標。不友善的生物不會接受角色提出的 @UUID[Compendium.pf2e.actionspf2e.DCb62iCBrJXy0Ik6]{請求 Requests}。</p>"
        },
        "Unnoticed": {
            "name": "未發現 Unnoticed",
            "description": "<p>若對某生物而言你未發現，該生物完全不知道你的存在。當你是未發現狀態時，你同時對該生物為 @UUID[Compendium.pf2e.conditionitems.VRSef5y1LmL2Hkjf]{無蹤 Undetected}。該狀態對某些能力有特別用處，譬如需要目標沒有意識到你存在的能力。</p>"
        },
        "Wounded": {
            "name": "受傷 Wounded",
            "description": "<p>你已受了重傷。若你失去 @UUID[Compendium.pf2e.conditionitems.yZRUzMqrMmfLu0V1]{瀕死 Dying}狀態時沒有受傷狀態，你獲得受傷1。若你失去瀕死狀態時已有受傷狀態，你的受傷狀態值增加1。若你在已受傷狀態時獲得瀕死狀態，瀕死值會增加受傷值的數額。</p>\n<p>只有當某人成功用 @UUID[Compendium.pf2e.actionspf2e.1kGNdIIhuglAjIp9]{治療傷害 Treat Wounds}行動恢復你的HP，或你在恢復滿HP後休息至少10分鐘，你才會失去受傷狀態。</p>"
        },
        "Blinded": {
            "name": "目盲 Blinded",
            "description": "<p>你看不見事物。對你而言所有正常地形都是困難地形。你無法用視覺偵查任何事物。你在需要你看的察覺檢定上自動大失敗，若視覺是你唯一的精確感官，你的察覺檢定受到-4狀態減值。你免疫視覺效果。目盲覆蓋 @UUID[Compendium.pf2e.conditionitems.TkIyaNPgTZFBCCuh]{目眩 Dazzled}.</p>"
        },
        "Clumsy": {
            "name": "笨拙 Clumsy",
            "description": "<p>你的移動變得笨拙而無章。笨拙狀態擁有狀態值。你基於敏捷的檢定和DC會獲得等同於笨拙狀態值的狀態減值，包括AC、反射豁免、遠端攻擊骰、特技潛行賊活等技能檢定。</p>"
        },
        "Concealed": {
            "name": "隱蔽 Concealed",
            "description": "<p>例如處在薄霧中的你難以被某生物看到，即說你對該生物處於隱蔽狀態。你依然 @UUID[Compendium.pf2e.conditionitems.1wQY3JYyhMYeeV2G]{可見 Observed}，但很難被瞄準。你對其隱蔽的生物因攻擊、法術或其它效果而試圖瞄準你時，需要成功通過 @Check[type:flat|dc:5]檢定。區域效果無需進行此純骰檢定。若檢定失敗，該次攻擊、法術或效果不會影響你。</p>"
        },
        "Confused": {
            "name": "困惑 Confused",
            "description": "<p>你失去了冷靜，攻擊變得大開大合。你進入 @UUID[Compendium.pf2e.conditionitems.AJh5ex99aV6VTggg]{措手不及 Flat-Footed}狀態，你不能將任何單位視為盟友（他們依然能將你視為盟友），你無法進行延遲、準備，也無法使用反應動作。</p>\n<p>你必須使用所有動作進行打擊或施放進攻性戲法，GM可以允許你使用其它輔助攻擊的動作，例如拔出武器，移動靠近使敵人進入自己的觸及內，等等。你的目標由GM隨機決定。若你無可視的目標，就會瞄準自己，自動命中自己，但不會造成重擊。若對你而言攻擊或施法無法完成，你會口出狂言喋喋不休，浪費自己的動作。</p>\n<p>每當你因攻擊或法術受到傷害時，可進行一次 @Check[type:flat|dc:11] 檢定，成功則從困惑中恢復，終止該狀態。</p>"
        },
        "Dazzled": {
            "name": "目眩 Dazzled",
            "description": "<p>你的眼睛受到了過度刺激。若視覺是你的唯一的精確感官，所有生物和物品對你而言都處於 @UUID[Compendium.pf2e.conditionitems.DmAIPqOBomZ7H95W]{隱蔽 Concealed}狀態。</p>"
        },
        "Doomed": {
            "name": "毀滅 Doomed",
            "description": "<p>強大的力量握緊了你的靈魂，使你更接近死亡。毀滅狀態擁有狀態值。你死亡時可積累的最大 @UUID[Compendium.pf2e.conditionitems.yZRUzMqrMmfLu0V1]{瀕死 Dying} 值會減少等同毀滅值的數額。若你最大瀕死值被降至0，你立刻死亡。死亡後，你不再擁有毀滅狀態。</p>\n<p>每當你進行一次完整的夜晚休息後，你的毀滅值減少1。</p>"
        },
        "Drained": {
            "name": "流失 Drained",
            "description": "<p>當生物成功吸取你的血液或生命力後，你會變得更虛弱。流失狀態擁有狀態值。你在基於體質的檢定上獲得等同流失值的狀態減值，例如強韌豁免。你同時失去等於你等級（最低1）乘以流失值的HP，你的最大HP也會減少相同的結果。例如，作為3級角色的你被一種效果造成了流失3，你失去9點HP，最大HP也減少9。此法流失的HP不視為受到傷害。</p>\n<p>每當你進行一次完整的夜晚休息，你的流失值減少1。這回增加你的最大HP值，但不會立刻恢復損失的HP。</p>"
        },
        "Encumbered": {
            "description": "<p>你的攜帶物太重，超過了自身接受範圍。超載時，你獲得 @UUID[Compendium.pf2e.conditionitems.i3OJZU2nk64Df3xm]{笨拙 1} 且所有速度獲得10尺減值。和所有對速度的減值合計後，這無法將你的速度降低到5尺以下。</p>",
            "name": "超載 Encumbered"
        },
        "Enfeebled": {
            "name": "力竭 Enfeebled",
            "description": "<p>你的身體變得虛弱。力竭狀態擁有狀態值。當你處於力竭狀態時，你基於力量的檢定和DC會獲得等同於力竭狀態值的狀態減值，包括基於力量的近戰攻擊骰、基於力量的傷害骰和運動檢定。</p>"
        },
        "Fascinated": {
            "name": "迷魂 Fascinated",
            "description": "<p>你被迫集中注意力到某事物上，將其從周遭發生的事情上轉移開來。你的察覺和技能檢定獲得-2狀態減值，且無法使用具有專注特徵的動作，除非這些動作的結果和將迷魂的事物有關（由GM決定）。例如，你依然可以對目標進行 @UUID[Compendium.pf2e.actionspf2e.BlAOM2X92SI6HMtJ]{搜尋 Seek}和 @UUID[Compendium.pf2e.actionspf2e.1OagaWtBpVXExToo]{回憶知識 Recall Knowledge}，但你不能瞄準另一個生物施放法術。當有生物對你或你任意盟友進行敵對性動作時，該狀態終止。</p>"
        },
        "Fatigued": {
            "name": "疲乏 Fatigued",
            "description": "<p>勞累壓在身上，你沒法挖掘出更多能量。你的AC和豁免骰獲得-1狀態減值。探索時，你不能進行任意探索行動。</p>\n<p>進行一次完整的夜晚休息後，你從疲乏狀態中恢復。</p>"
        },
        "Flat-Footed": {
            "name": "措手不及 Flat-Footed",
            "description": "<p>你被幹擾或某種意義上無法集中全部注意力進行防禦。你的AC獲得-2環境減值。某些效果只讓你對特定生物或特定攻擊措手不及。其它的——尤其是狀態——則使你對所有狀況都措手不及。若規則沒有寫明其造成的措手狀態是否只對特定環級，則預設對所有狀況有效；例如，許多效果都只會寫 \"目標措手不及。\"</p>"
        },
        "Grabbed": {
            "name": "擒抱 Grabbed",
            "description": "<p>你被其它生物固定在原處，使你獲得 @UUID[Compendium.pf2e.conditionitems.AJh5ex99aV6VTggg]{措手不及 Flat-Footed}和 @UUID[Compendium.pf2e.conditionitems.eIcWbB5o3pP6OIMe]{禁足 Immobilized}狀態。被擒抱時若你嘗試使用擁有操作特徵（manipulate）的動作，你必須通過 @Check[type:flat|dc:5] 檢定，失敗則失去該動作；該檢定在消耗動作後，效果生效前進行。</p>"
        },
        "Immobilized": {
            "name": "禁足 Immobilized",
            "description": "<p>你無法使用任何擁有移動特徵（move）的動作。若你是因某事物將你固定在地而禁足，而又有力道迫使你移動，該力道必須通過檢定才能成功，對抗將你禁足的效果的DC或將你禁足的生物的被動防禦（通常為強韌豁免DC）。</p>"
        },
        "Indifferent": {
            "name": "不關心 Indifferent",
            "description": "<p>該狀態反映了生物對特定角色的傾向，它只會在非玩家角色身上出現。對角色不關心的生物並不在意角色的事情。若無特別說明，假定任何生物對角色的初始態度都是不關心。</p>"
        },
        "Quickened": {
            "name": "迅捷 Quickened",
            "description": "<p>每輪你自己回合開始時，你獲得1個額外的動作。許多給與迅捷狀態的效果都會列出你可用該額外動作進行的動作型別。若多個資源使你獲得迅捷狀態，該額外動作能進行的動作型別從所有給與迅捷狀態的效果列表中選擇。因迅捷狀態的效果在你自己回合開始時生效，因此若你在自己回合獲得迅捷狀態，你不會立刻獲得動作。</p>"
        },
        "Slowed": {
            "name": "緩慢 Slowed",
            "description": "<p>你的動作變少了。緩慢狀態擁有狀態值。當你在自己回合開始時恢復動作時，恢復的動作數量減少緩慢值的個數。因緩慢狀態的效果在你自己回合開始時生效，因此若你在自己回合獲得緩慢狀態，你不會立刻失去動作。</p>"
        },
        "Stunned": {
            "name": "震懾 Stunned",
            "description": "<p>短暫失去知覺。震懾時你無法行動。震懾通常擁有狀態值，表明你到底失去了多少個動作。震懾通常能保持數個回合。每次你恢復動作（在自己回合開始時），所能恢復的動作減少震懾值的個數，然後將震懾值減少你所失去的動作的個數。舉個例子，若你是震懾4狀態，你在自己回合開始失去全部3個動作，然後變為震懾1；在你下一回合，你只會失去1個動作，還能恢復2個動作。震懾也可以附帶持續時間而非狀態值，寫法類似 \"震懾1分鐘\"。這種狀況下，所列持續時間內你會一直失去所有動作。</p>\n<p>震懾狀態覆蓋 @UUID[Compendium.pf2e.conditionitems.xYTAsEpcJE1Ccni3]{緩慢 Slowed}狀態。若震懾持續時間結束時你依然緩慢，你將因震懾失去的動作計入緩慢會失去的動作數中。因此，若在你回合開始時若你為震懾1和緩慢2，你因震懾失去1個動作，再因緩慢失去1個動作，該回合你能保留1個動作。</p>"
        },
        "Undetected": {
            "name": "無蹤 Undetected",
            "description": "<p>當你對某生物處於無蹤狀態時，該生物完全無法看到你，也不知道你所在的位置，更無法瞄準你，不過你依然能被區域效果覆蓋到。當你對某生物處於無蹤狀態時，該生物對你 @UUID[Compendium.pf2e.conditionitems.AJh5ex99aV6VTggg]{措手不及 Flat-Footed}。</p>\n<p>你對其無蹤的生物可以猜測你處於什麼位置並嘗試瞄準你。她必須選擇一個方格然後嘗試一次攻擊。這和瞄準藏匿狀態下的生物類似（需要 @Check[type:flat|dc:11] 純骰檢定），但純骰檢定和攻擊骰都由GM進行暗骰，並不會揭示攻擊結果，到底是純骰失敗、攻擊骰失敗或選擇錯了方格。</p>\n<p>生物可用 @UUID[Compendium.pf2e.actionspf2e.BlAOM2X92SI6HMtJ]{搜尋 Seek}動作嘗試找到你。</p>"
        }
    }
}
