{
    "entries": {
        "Avoid Notice": {
            "name": "避人耳目 Avoid Notice",
            "description": "<p>@UUID[Compendium.pf2e.actionspf2e.IE2nThCmoyhQA0Jn]{避人耳目 Avoid Notice}</p>"
        },
        "Cover Tracks": {
            "name": "掩蓋行蹤 Cover Tracks",
            "description": "<p>@UUID[Compendium.pf2e.actionspf2e.SB7cMECVtE06kByk]{掩蓋行蹤 Cover Tracks}</p>"
        },
        "Defend": {
            "name": "防衛 Defend",
            "description": "<p>@UUID[Compendium.pf2e.actionspf2e.cYtYKa1gDEl7y2N0]{防衛 Defend}</p>"
        },
        "Detect Magic": {
            "name": "偵測魔法 Detect Magic",
            "description": "<p>@UUID[Compendium.pf2e.actionspf2e.Yb0C1uLzeHrVLl7a]{偵測魔法 Detect Magic}</p>"
        },
        "Follow The Expert": {
            "name": "跟隨專家 Follow The Expert",
            "description": "<p>@UUID[Compendium.pf2e.actionspf2e.tfa4Sh7wcxCEqL29]{跟隨專家 Follow the Expert}</p>"
        },
        "Hustle": {
            "name": "飛奔 Hustle",
            "description": "<p>@UUID[Compendium.pf2e.actionspf2e.JuqmIAnkL9hVGai8]{強行軍 Hustle}</p>"
        },
        "Repeat a Spell": {
            "name": "復唱法術 Repeat a Spell",
            "description": "<p>@UUID[Compendium.pf2e.actionspf2e.OQaFzDtVEOMWizJJ]{復唱法術 Repeat a Spell}</p>"
        },
        "Scout": {
            "name": "偵察 Scout",
            "description": "<p>@UUID[Compendium.pf2e.actionspf2e.kV3XM0YJeS2KCSOb]{偵察 Scout}</p>"
        },
        "Search": {
            "name": "搜尋 Search",
            "description": "<p>@UUID[Compendium.pf2e.actionspf2e.TiNDYUGlMmxzxBYU]{搜尋 Search}</p>"
        },
        "Track": {
            "name": "追蹤 Track",
            "description": "<p>@UUID[Compendium.pf2e.actionspf2e.EA5vuSgJfiHH7plD]{追蹤 Track}</p>"
        },
        "Unspecified Activity": {
            "name": "未定義行動 Unspecified Activity"
        },
        "Investigate": {
            "name": "調查 Investigate",
            "description": "<p>@UUID[Compendium.pf2e.actionspf2e.EwgTZBWsc8qKaViP]{調查 Investigate}</p>"
        }
    },
    "label": "PF2E 探索效果 Exploration Effects"
}
